{
  "1": {
    "1": [
      [6, 51],
      [8, 46],
      [12, 36],
      [14, 7],
      [16, 23],
      [18, 11]
    ],
    "2": [
      [6, 51],
      [8, 45],
      [12, 37],
      [14, 8],
      [16, 25],
      [18, 12]
    ],
    "3": [
      [6, 51],
      [8, 45],
      [12, 37],
      [14, 9],
      [16, 26],
      [18, 13]
    ],
    "4": [
      [6, 51],
      [8, 45],
      [12, 38],
      [14, 10],
      [16, 27],
      [18, 14]
    ],
    "5": [
      [6, 51],
      [8, 44],
      [12, 38],
      [14, 11],
      [16, 28],
      [18, 15]
    ],
    "6": [
      [6, 51],
      [8, 44],
      [12, 39],
      [14, 12],
      [16, 29],
      [18, 16]
    ],
    "7": [
      [6, 50],
      [8, 44],
      [12, 39],
      [14, 13],
      [16, 31],
      [18, 18]
    ],
    "8": [
      [6, 50],
      [8, 43],
      [12, 40],
      [14, 14],
      [16, 32],
      [18, 19]
    ],
    "9": [
      [6, 50],
      [8, 43],
      [12, 40],
      [14, 15],
      [16, 33],
      [18, 20]
    ],
    "10": [
      [6, 49],
      [8, 42],
      [12, 40],
      [14, 16],
      [16, 35],
      [18, 21]
    ],
    "11": [
      [6, 49],
      [8, 41],
      [12, 41],
      [14, 17],
      [16, 36],
      [18, 22]
    ],
    "12": [
      [6, 48],
      [8, 40],
      [12, 41],
      [14, 19],
      [16, 38],
      [18, 24]
    ],
    "13": [
      [6, 48],
      [8, 40],
      [12, 41],
      [14, 20],
      [16, 39],
      [18, 25]
    ],
    "14": [
      [6, 47],
      [8, 39],
      [12, 42],
      [14, 21],
      [16, 41],
      [18, 26]
    ],
    "15": [
      [6, 46],
      [8, 38],
      [12, 42],
      [14, 23],
      [16, 42],
      [18, 28]
    ],
    "16": [
      [6, 46],
      [8, 37],
      [12, 42],
      [14, 24],
      [16, 44],
      [18, 29]
    ],
    "17": [
      [6, 45],
      [8, 36],
      [12, 43],
      [14, 25],
      [16, 46],
      [18, 30]
    ],
    "18": [
      [6, 44],
      [8, 35],
      [12, 43],
      [14, 27],
      [16, 47],
      [18, 32]
    ],
    "19": [
      [6, 43],
      [8, 34],
      [12, 43],
      [14, 28],
      [16, 49],
      [18, 33]
    ],
    "20": [
      [6, 43],
      [8, 33],
      [12, 44],
      [14, 29],
      [16, 51],
      [18, 35]
    ],
    "21": [
      [6, 42],
      [8, 31],
      [12, 44],
      [14, 31],
      [16, 53],
      [18, 36]
    ],
    "22": [
      [6, 41],
      [8, 30],
      [12, 44],
      [14, 32],
      [16, 55],
      [18, 38]
    ],
    "23": [
      [6, 40],
      [8, 29],
      [12, 45],
      [14, 34],
      [16, 56],
      [18, 39]
    ],
    "24": [
      [6, 39],
      [8, 27],
      [12, 45],
      [14, 35],
      [16, 58],
      [18, 41]
    ],
    "25": [
      [6, 38],
      [8, 26],
      [12, 45],
      [14, 37],
      [17, 0],
      [18, 42]
    ],
    "26": [
      [6, 37],
      [8, 25],
      [12, 45],
      [14, 38],
      [17, 2],
      [18, 44]
    ],
    "27": [
      [6, 35],
      [8, 23],
      [12, 46],
      [14, 40],
      [17, 4],
      [18, 46]
    ],
    "28": [
      [6, 34],
      [8, 22],
      [12, 46],
      [14, 41],
      [17, 6],
      [18, 47]
    ],
    "29": [
      [6, 33],
      [8, 20],
      [12, 46],
      [14, 43],
      [17, 8],
      [18, 49]
    ],
    "30": [
      [6, 32],
      [8, 19],
      [12, 46],
      [14, 44],
      [17, 10],
      [18, 50]
    ],
    "31": [
      [6, 30],
      [8, 17],
      [12, 46],
      [14, 46],
      [17, 12],
      [18, 52]
    ]
  },
  "2": {
    "1": [
      [6, 29],
      [8, 15],
      [12, 46],
      [14, 48],
      [17, 14],
      [18, 54]
    ],
    "2": [
      [6, 28],
      [8, 14],
      [12, 47],
      [14, 49],
      [17, 16],
      [18, 55]
    ],
    "3": [
      [6, 26],
      [8, 12],
      [12, 47],
      [14, 51],
      [17, 18],
      [18, 57]
    ],
    "4": [
      [6, 25],
      [8, 10],
      [12, 47],
      [14, 52],
      [17, 20],
      [18, 59]
    ],
    "5": [
      [6, 23],
      [8, 8],
      [12, 47],
      [14, 54],
      [17, 22],
      [19, 0]
    ],
    "6": [
      [6, 22],
      [8, 7],
      [12, 47],
      [14, 55],
      [17, 24],
      [19, 2]
    ],
    "7": [
      [6, 20],
      [8, 5],
      [12, 47],
      [14, 57],
      [17, 26],
      [19, 4]
    ],
    "8": [
      [6, 19],
      [8, 3],
      [12, 47],
      [14, 59],
      [17, 28],
      [19, 6]
    ],
    "9": [
      [6, 17],
      [8, 1],
      [12, 47],
      [15, 0],
      [17, 30],
      [19, 7]
    ],
    "10": [
      [6, 16],
      [7, 59],
      [12, 47],
      [15, 2],
      [17, 32],
      [19, 9]
    ],
    "11": [
      [6, 14],
      [7, 57],
      [12, 47],
      [15, 3],
      [17, 34],
      [19, 11]
    ],
    "12": [
      [6, 12],
      [7, 55],
      [12, 47],
      [15, 5],
      [17, 36],
      [19, 13]
    ],
    "13": [
      [6, 10],
      [7, 53],
      [12, 47],
      [15, 6],
      [17, 38],
      [19, 14]
    ],
    "14": [
      [6, 9],
      [7, 51],
      [12, 47],
      [15, 8],
      [17, 40],
      [19, 16]
    ],
    "15": [
      [6, 7],
      [7, 49],
      [12, 47],
      [15, 10],
      [17, 42],
      [19, 18]
    ],
    "16": [
      [6, 5],
      [7, 47],
      [12, 47],
      [15, 11],
      [17, 44],
      [19, 20]
    ],
    "17": [
      [6, 3],
      [7, 45],
      [12, 47],
      [15, 13],
      [17, 46],
      [19, 21]
    ],
    "18": [
      [6, 1],
      [7, 43],
      [12, 47],
      [15, 14],
      [17, 48],
      [19, 23]
    ],
    "19": [
      [6, 0],
      [7, 41],
      [12, 47],
      [15, 16],
      [17, 50],
      [19, 25]
    ],
    "20": [
      [5, 58],
      [7, 39],
      [12, 47],
      [15, 17],
      [17, 52],
      [19, 27]
    ],
    "21": [
      [5, 56],
      [7, 36],
      [12, 47],
      [15, 19],
      [17, 54],
      [19, 28]
    ],
    "22": [
      [5, 54],
      [7, 34],
      [12, 47],
      [15, 20],
      [17, 56],
      [19, 30]
    ],
    "23": [
      [5, 52],
      [7, 32],
      [12, 47],
      [15, 22],
      [17, 58],
      [19, 32]
    ],
    "24": [
      [5, 50],
      [7, 30],
      [12, 47],
      [15, 23],
      [18, 0],
      [19, 34]
    ],
    "25": [
      [5, 48],
      [7, 28],
      [12, 47],
      [15, 25],
      [18, 2],
      [19, 36]
    ],
    "26": [
      [5, 46],
      [7, 25],
      [12, 46],
      [15, 26],
      [18, 3],
      [19, 37]
    ],
    "27": [
      [5, 44],
      [7, 23],
      [12, 46],
      [15, 27],
      [18, 5],
      [19, 39]
    ],
    "28": [
      [5, 41],
      [7, 21],
      [12, 46],
      [15, 29],
      [18, 7],
      [19, 41]
    ],
    "29": [
      [5, 39],
      [7, 19],
      [12, 46],
      [15, 30],
      [18, 9],
      [19, 43]
    ]
  },
  "3": {
    "1": [
      [5, 37],
      [7, 16],
      [12, 46],
      [15, 32],
      [18, 11],
      [19, 44]
    ],
    "2": [
      [5, 35],
      [7, 14],
      [12, 46],
      [15, 33],
      [18, 13],
      [19, 46]
    ],
    "3": [
      [5, 33],
      [7, 12],
      [12, 45],
      [15, 34],
      [18, 15],
      [19, 48]
    ],
    "4": [
      [5, 31],
      [7, 9],
      [12, 45],
      [15, 36],
      [18, 17],
      [19, 50]
    ],
    "5": [
      [5, 28],
      [7, 7],
      [12, 45],
      [15, 37],
      [18, 19],
      [19, 52]
    ],
    "6": [
      [5, 26],
      [7, 4],
      [12, 45],
      [15, 39],
      [18, 21],
      [19, 53]
    ],
    "7": [
      [5, 24],
      [7, 2],
      [12, 44],
      [15, 40],
      [18, 23],
      [19, 55]
    ],
    "8": [
      [5, 22],
      [7, 0],
      [12, 44],
      [15, 41],
      [18, 25],
      [19, 57]
    ],
    "9": [
      [5, 19],
      [6, 57],
      [12, 44],
      [15, 42],
      [18, 27],
      [19, 59]
    ],
    "10": [
      [5, 17],
      [6, 55],
      [12, 44],
      [15, 44],
      [18, 29],
      [20, 1]
    ],
    "11": [
      [5, 15],
      [6, 53],
      [12, 43],
      [15, 45],
      [18, 30],
      [20, 3]
    ],
    "12": [
      [5, 12],
      [6, 50],
      [12, 43],
      [15, 46],
      [18, 32],
      [20, 4]
    ],
    "13": [
      [5, 10],
      [6, 48],
      [12, 43],
      [15, 47],
      [18, 34],
      [20, 6]
    ],
    "14": [
      [5, 7],
      [6, 45],
      [12, 43],
      [15, 49],
      [18, 36],
      [20, 8]
    ],
    "15": [
      [5, 5],
      [6, 43],
      [12, 42],
      [15, 50],
      [18, 38],
      [20, 10]
    ],
    "16": [
      [5, 3],
      [6, 40],
      [12, 42],
      [15, 51],
      [18, 40],
      [20, 12]
    ],
    "17": [
      [5, 0],
      [6, 38],
      [12, 42],
      [15, 52],
      [18, 42],
      [20, 13]
    ],
    "18": [
      [4, 58],
      [6, 35],
      [12, 41],
      [15, 53],
      [18, 44],
      [20, 15]
    ],
    "19": [
      [4, 55],
      [6, 33],
      [12, 41],
      [15, 55],
      [18, 45],
      [20, 17]
    ],
    "20": [
      [4, 53],
      [6, 31],
      [12, 41],
      [15, 56],
      [18, 47],
      [20, 19]
    ],
    "21": [
      [4, 50],
      [6, 28],
      [12, 41],
      [15, 57],
      [18, 49],
      [20, 21]
    ],
    "22": [
      [4, 48],
      [6, 26],
      [12, 40],
      [15, 58],
      [18, 51],
      [20, 23]
    ],
    "23": [
      [4, 45],
      [6, 23],
      [12, 40],
      [15, 59],
      [18, 53],
      [20, 25]
    ],
    "24": [
      [4, 43],
      [6, 21],
      [12, 40],
      [16, 0],
      [18, 55],
      [20, 26]
    ],
    "25": [
      [4, 40],
      [6, 18],
      [12, 39],
      [16, 1],
      [18, 56],
      [20, 28]
    ],
    "26": [
      [4, 38],
      [6, 16],
      [12, 39],
      [16, 2],
      [18, 58],
      [20, 30]
    ],
    "27": [
      [4, 35],
      [6, 13],
      [12, 39],
      [16, 3],
      [19, 0],
      [20, 32]
    ],
    "28": [
      [4, 33],
      [6, 11],
      [12, 38],
      [16, 4],
      [19, 2],
      [20, 34]
    ],
    "29": [
      [4, 30],
      [6, 8],
      [12, 38],
      [16, 6],
      [19, 4],
      [20, 36]
    ],
    "30": [
      [4, 28],
      [6, 6],
      [12, 38],
      [16, 7],
      [19, 6],
      [20, 38]
    ],
    "31": [
      [4, 25],
      [6, 3],
      [12, 37],
      [16, 8],
      [19, 7],
      [20, 40]
    ]
  },
  "4": {
    "1": [
      [4, 22],
      [6, 1],
      [12, 37],
      [16, 9],
      [19, 9],
      [20, 42]
    ],
    "2": [
      [4, 20],
      [5, 58],
      [12, 37],
      [16, 10],
      [19, 11],
      [20, 44]
    ],
    "3": [
      [4, 17],
      [5, 56],
      [12, 36],
      [16, 11],
      [19, 13],
      [20, 46]
    ],
    "4": [
      [4, 15],
      [5, 54],
      [12, 36],
      [16, 12],
      [19, 15],
      [20, 47]
    ],
    "5": [
      [4, 12],
      [5, 51],
      [12, 36],
      [16, 12],
      [19, 17],
      [20, 49]
    ],
    "6": [
      [4, 9],
      [5, 49],
      [12, 36],
      [16, 13],
      [19, 18],
      [20, 51]
    ],
    "7": [
      [4, 7],
      [5, 46],
      [12, 35],
      [16, 14],
      [19, 20],
      [20, 53]
    ],
    "8": [
      [4, 4],
      [5, 44],
      [12, 35],
      [16, 15],
      [19, 22],
      [20, 55]
    ],
    "9": [
      [4, 2],
      [5, 41],
      [12, 35],
      [16, 16],
      [19, 24],
      [20, 57]
    ],
    "10": [
      [3, 59],
      [5, 39],
      [12, 34],
      [16, 17],
      [19, 26],
      [20, 59]
    ],
    "11": [
      [3, 56],
      [5, 37],
      [12, 34],
      [16, 18],
      [19, 28],
      [21, 1]
    ],
    "12": [
      [3, 54],
      [5, 34],
      [12, 34],
      [16, 19],
      [19, 29],
      [21, 3]
    ],
    "13": [
      [3, 51],
      [5, 32],
      [12, 34],
      [16, 20],
      [19, 31],
      [21, 5]
    ],
    "14": [
      [3, 49],
      [5, 30],
      [12, 33],
      [16, 21],
      [19, 33],
      [21, 7]
    ],
    "15": [
      [3, 46],
      [5, 27],
      [12, 33],
      [16, 22],
      [19, 35],
      [21, 9]
    ],
    "16": [
      [3, 43],
      [5, 25],
      [12, 33],
      [16, 22],
      [19, 37],
      [21, 12]
    ],
    "17": [
      [3, 41],
      [5, 23],
      [12, 33],
      [16, 23],
      [19, 39],
      [21, 14]
    ],
    "18": [
      [3, 38],
      [5, 20],
      [12, 32],
      [16, 24],
      [19, 40],
      [21, 16]
    ],
    "19": [
      [3, 36],
      [5, 18],
      [12, 32],
      [16, 25],
      [19, 42],
      [21, 18]
    ],
    "20": [
      [3, 33],
      [5, 16],
      [12, 32],
      [16, 26],
      [19, 44],
      [21, 20]
    ],
    "21": [
      [3, 31],
      [5, 13],
      [12, 32],
      [16, 27],
      [19, 46],
      [21, 22]
    ],
    "22": [
      [3, 28],
      [5, 11],
      [12, 31],
      [16, 28],
      [19, 48],
      [21, 24]
    ],
    "23": [
      [3, 25],
      [5, 9],
      [12, 31],
      [16, 28],
      [19, 50],
      [21, 26]
    ],
    "24": [
      [3, 23],
      [5, 7],
      [12, 31],
      [16, 29],
      [19, 51],
      [21, 28]
    ],
    "25": [
      [3, 20],
      [5, 5],
      [12, 31],
      [16, 30],
      [19, 53],
      [21, 30]
    ],
    "26": [
      [3, 18],
      [5, 2],
      [12, 31],
      [16, 31],
      [19, 55],
      [21, 33]
    ],
    "27": [
      [3, 15],
      [5, 0],
      [12, 31],
      [16, 32],
      [19, 57],
      [21, 35]
    ],
    "28": [
      [3, 13],
      [4, 58],
      [12, 30],
      [16, 32],
      [19, 59],
      [21, 37]
    ],
    "29": [
      [3, 10],
      [4, 56],
      [12, 30],
      [16, 33],
      [20, 1],
      [21, 39]
    ],
    "30": [
      [3, 8],
      [4, 54],
      [12, 30],
      [16, 34],
      [20, 2],
      [21, 41]
    ]
  },
  "5": {
    "1": [
      [3, 6],
      [4, 52],
      [12, 30],
      [16, 35],
      [20, 4],
      [21, 43]
    ],
    "2": [
      [3, 3],
      [4, 50],
      [12, 30],
      [16, 35],
      [20, 6],
      [21, 45]
    ],
    "3": [
      [3, 1],
      [4, 48],
      [12, 30],
      [16, 36],
      [20, 8],
      [21, 48]
    ],
    "4": [
      [2, 58],
      [4, 46],
      [12, 30],
      [16, 37],
      [20, 10],
      [21, 50]
    ],
    "5": [
      [2, 56],
      [4, 44],
      [12, 30],
      [16, 38],
      [20, 11],
      [21, 52]
    ],
    "6": [
      [2, 54],
      [4, 42],
      [12, 30],
      [16, 38],
      [20, 13],
      [21, 54]
    ],
    "7": [
      [2, 51],
      [4, 40],
      [12, 30],
      [16, 39],
      [20, 15],
      [21, 56]
    ],
    "8": [
      [2, 49],
      [4, 38],
      [12, 29],
      [16, 40],
      [20, 17],
      [21, 58]
    ],
    "9": [
      [2, 47],
      [4, 36],
      [12, 29],
      [16, 41],
      [20, 19],
      [22, 0]
    ],
    "10": [
      [2, 44],
      [4, 34],
      [12, 29],
      [16, 41],
      [20, 20],
      [22, 3]
    ],
    "11": [
      [2, 42],
      [4, 33],
      [12, 29],
      [16, 42],
      [20, 22],
      [22, 5]
    ],
    "12": [
      [2, 40],
      [4, 31],
      [12, 29],
      [16, 43],
      [20, 24],
      [22, 7]
    ],
    "13": [
      [2, 38],
      [4, 29],
      [12, 29],
      [16, 43],
      [20, 26],
      [22, 9]
    ],
    "14": [
      [2, 36],
      [4, 28],
      [12, 29],
      [16, 44],
      [20, 27],
      [22, 11]
    ],
    "15": [
      [2, 34],
      [4, 26],
      [12, 29],
      [16, 45],
      [20, 29],
      [22, 13]
    ],
    "16": [
      [2, 31],
      [4, 24],
      [12, 29],
      [16, 46],
      [20, 31],
      [22, 15]
    ],
    "17": [
      [2, 29],
      [4, 23],
      [12, 30],
      [16, 46],
      [20, 32],
      [22, 16]
    ],
    "18": [
      [2, 27],
      [4, 21],
      [12, 30],
      [16, 47],
      [20, 34],
      [22, 17]
    ],
    "19": [
      [2, 25],
      [4, 20],
      [12, 30],
      [16, 48],
      [20, 36],
      [22, 17]
    ],
    "20": [
      [2, 23],
      [4, 18],
      [12, 30],
      [16, 48],
      [20, 37],
      [22, 17]
    ],
    "21": [
      [2, 22],
      [4, 17],
      [12, 30],
      [16, 49],
      [20, 39],
      [22, 18]
    ],
    "22": [
      [2, 20],
      [4, 15],
      [12, 30],
      [16, 49],
      [20, 40],
      [22, 18]
    ],
    "23": [
      [2, 18],
      [4, 14],
      [12, 30],
      [16, 50],
      [20, 42],
      [22, 19]
    ],
    "24": [
      [2, 16],
      [4, 13],
      [12, 30],
      [16, 51],
      [20, 43],
      [22, 19]
    ],
    "25": [
      [2, 14],
      [4, 11],
      [12, 30],
      [16, 51],
      [20, 45],
      [22, 20]
    ],
    "26": [
      [2, 13],
      [4, 10],
      [12, 30],
      [16, 52],
      [20, 46],
      [22, 20]
    ],
    "27": [
      [2, 11],
      [4, 9],
      [12, 30],
      [16, 52],
      [20, 48],
      [22, 21]
    ],
    "28": [
      [2, 9],
      [4, 8],
      [12, 31],
      [16, 53],
      [20, 49],
      [22, 21]
    ],
    "29": [
      [2, 8],
      [4, 7],
      [12, 31],
      [16, 54],
      [20, 51],
      [22, 22]
    ],
    "30": [
      [2, 6],
      [4, 6],
      [12, 31],
      [16, 54],
      [20, 52],
      [22, 22]
    ],
    "31": [
      [2, 5],
      [4, 5],
      [12, 31],
      [16, 55],
      [20, 53],
      [22, 23]
    ]
  },
  "6": {
    "1": [
      [2, 4],
      [4, 4],
      [12, 31],
      [16, 55],
      [20, 54],
      [22, 24]
    ],
    "2": [
      [2, 2],
      [4, 3],
      [12, 31],
      [16, 56],
      [20, 56],
      [22, 26]
    ],
    "3": [
      [2, 1],
      [4, 2],
      [12, 32],
      [16, 56],
      [20, 57],
      [22, 27]
    ],
    "4": [
      [2, 0],
      [4, 2],
      [12, 32],
      [16, 57],
      [20, 58],
      [22, 28]
    ],
    "5": [
      [1, 59],
      [4, 1],
      [12, 32],
      [16, 57],
      [20, 59],
      [22, 29]
    ],
    "6": [
      [1, 58],
      [4, 0],
      [12, 32],
      [16, 58],
      [21, 0],
      [22, 30]
    ],
    "7": [
      [1, 57],
      [4, 0],
      [12, 32],
      [16, 58],
      [21, 1],
      [22, 31]
    ],
    "8": [
      [1, 56],
      [3, 59],
      [12, 32],
      [16, 58],
      [21, 2],
      [22, 32]
    ],
    "9": [
      [1, 55],
      [3, 58],
      [12, 33],
      [16, 59],
      [21, 3],
      [22, 33]
    ],
    "10": [
      [1, 54],
      [3, 58],
      [12, 33],
      [16, 59],
      [21, 4],
      [22, 34]
    ],
    "11": [
      [1, 54],
      [3, 58],
      [12, 33],
      [17, 0],
      [21, 4],
      [22, 34]
    ],
    "12": [
      [1, 53],
      [3, 57],
      [12, 33],
      [17, 0],
      [21, 5],
      [22, 35]
    ],
    "13": [
      [1, 53],
      [3, 57],
      [12, 33],
      [17, 0],
      [21, 6],
      [22, 36]
    ],
    "14": [
      [1, 52],
      [3, 57],
      [12, 34],
      [17, 1],
      [21, 6],
      [22, 36]
    ],
    "15": [
      [1, 52],
      [3, 57],
      [12, 34],
      [17, 1],
      [21, 7],
      [22, 37]
    ],
    "16": [
      [1, 52],
      [3, 57],
      [12, 34],
      [17, 1],
      [21, 8],
      [22, 38]
    ],
    "17": [
      [1, 51],
      [3, 56],
      [12, 34],
      [17, 2],
      [21, 8],
      [22, 38]
    ],
    "18": [
      [1, 51],
      [3, 56],
      [12, 34],
      [17, 2],
      [21, 8],
      [22, 38]
    ],
    "19": [
      [1, 51],
      [3, 57],
      [12, 35],
      [17, 2],
      [21, 9],
      [22, 39]
    ],
    "20": [
      [1, 51],
      [3, 57],
      [12, 35],
      [17, 2],
      [21, 9],
      [22, 39]
    ],
    "21": [
      [1, 52],
      [3, 57],
      [12, 35],
      [17, 3],
      [21, 9],
      [22, 39]
    ],
    "22": [
      [1, 52],
      [3, 57],
      [12, 35],
      [17, 3],
      [21, 9],
      [22, 39]
    ],
    "23": [
      [1, 52],
      [3, 57],
      [12, 35],
      [17, 3],
      [21, 10],
      [22, 40]
    ],
    "24": [
      [1, 53],
      [3, 58],
      [12, 36],
      [17, 3],
      [21, 10],
      [22, 40]
    ],
    "25": [
      [1, 53],
      [3, 58],
      [12, 36],
      [17, 3],
      [21, 10],
      [22, 40]
    ],
    "26": [
      [1, 54],
      [3, 59],
      [12, 36],
      [17, 3],
      [21, 10],
      [22, 40]
    ],
    "27": [
      [1, 54],
      [3, 59],
      [12, 36],
      [17, 3],
      [21, 9],
      [22, 39]
    ],
    "28": [
      [1, 55],
      [4, 0],
      [12, 36],
      [17, 4],
      [21, 9],
      [22, 39]
    ],
    "29": [
      [1, 56],
      [4, 0],
      [12, 37],
      [17, 4],
      [21, 9],
      [22, 39]
    ],
    "30": [
      [1, 57],
      [4, 1],
      [12, 37],
      [17, 4],
      [21, 9],
      [22, 39]
    ]
  },
  "7": {
    "1": [
      [1, 58],
      [4, 2],
      [12, 37],
      [17, 4],
      [21, 8],
      [22, 38]
    ],
    "2": [
      [1, 59],
      [4, 2],
      [12, 37],
      [17, 4],
      [21, 8],
      [22, 38]
    ],
    "3": [
      [2, 0],
      [4, 3],
      [12, 37],
      [17, 4],
      [21, 7],
      [22, 37]
    ],
    "4": [
      [2, 1],
      [4, 4],
      [12, 37],
      [17, 3],
      [21, 7],
      [22, 37]
    ],
    "5": [
      [2, 2],
      [4, 5],
      [12, 38],
      [17, 3],
      [21, 6],
      [22, 36]
    ],
    "6": [
      [2, 4],
      [4, 6],
      [12, 38],
      [17, 3],
      [21, 6],
      [22, 36]
    ],
    "7": [
      [2, 5],
      [4, 7],
      [12, 38],
      [17, 3],
      [21, 5],
      [22, 35]
    ],
    "8": [
      [2, 6],
      [4, 8],
      [12, 38],
      [17, 3],
      [21, 4],
      [22, 34]
    ],
    "9": [
      [2, 8],
      [4, 9],
      [12, 38],
      [17, 3],
      [21, 3],
      [22, 33]
    ],
    "10": [
      [2, 9],
      [4, 10],
      [12, 38],
      [17, 3],
      [21, 3],
      [22, 33]
    ],
    "11": [
      [2, 11],
      [4, 11],
      [12, 38],
      [17, 2],
      [21, 2],
      [22, 33]
    ],
    "12": [
      [2, 13],
      [4, 12],
      [12, 39],
      [17, 2],
      [21, 1],
      [22, 32]
    ],
    "13": [
      [2, 14],
      [4, 14],
      [12, 39],
      [17, 2],
      [21, 0],
      [22, 32]
    ],
    "14": [
      [2, 16],
      [4, 15],
      [12, 39],
      [17, 2],
      [20, 59],
      [22, 32]
    ],
    "15": [
      [2, 18],
      [4, 16],
      [12, 39],
      [17, 1],
      [20, 57],
      [22, 31]
    ],
    "16": [
      [2, 20],
      [4, 18],
      [12, 39],
      [17, 1],
      [20, 56],
      [22, 31]
    ],
    "17": [
      [2, 21],
      [4, 19],
      [12, 39],
      [17, 1],
      [20, 55],
      [22, 31]
    ],
    "18": [
      [2, 23],
      [4, 20],
      [12, 39],
      [17, 0],
      [20, 54],
      [22, 30]
    ],
    "19": [
      [2, 25],
      [4, 22],
      [12, 39],
      [17, 0],
      [20, 53],
      [22, 30]
    ],
    "20": [
      [2, 27],
      [4, 23],
      [12, 39],
      [16, 59],
      [20, 51],
      [22, 30]
    ],
    "21": [
      [2, 29],
      [4, 25],
      [12, 39],
      [16, 59],
      [20, 50],
      [22, 30]
    ],
    "22": [
      [2, 31],
      [4, 26],
      [12, 39],
      [16, 58],
      [20, 48],
      [22, 29]
    ],
    "23": [
      [2, 33],
      [4, 28],
      [12, 39],
      [16, 58],
      [20, 47],
      [22, 29]
    ],
    "24": [
      [2, 35],
      [4, 29],
      [12, 39],
      [16, 57],
      [20, 45],
      [22, 29]
    ],
    "25": [
      [2, 37],
      [4, 31],
      [12, 39],
      [16, 57],
      [20, 44],
      [22, 29]
    ],
    "26": [
      [2, 39],
      [4, 32],
      [12, 39],
      [16, 56],
      [20, 42],
      [22, 27]
    ],
    "27": [
      [2, 41],
      [4, 34],
      [12, 39],
      [16, 55],
      [20, 41],
      [22, 25]
    ],
    "28": [
      [2, 43],
      [4, 36],
      [12, 39],
      [16, 55],
      [20, 39],
      [22, 23]
    ],
    "29": [
      [2, 45],
      [4, 37],
      [12, 39],
      [16, 54],
      [20, 37],
      [22, 21]
    ],
    "30": [
      [2, 47],
      [4, 39],
      [12, 39],
      [16, 53],
      [20, 36],
      [22, 19]
    ],
    "31": [
      [2, 50],
      [4, 41],
      [12, 39],
      [16, 53],
      [20, 34],
      [22, 17]
    ]
  },
  "8": {
    "1": [
      [2, 52],
      [4, 42],
      [12, 39],
      [16, 52],
      [20, 32],
      [22, 15]
    ],
    "2": [
      [2, 52],
      [4, 42],
      [12, 39],
      [16, 52],
      [20, 32],
      [22, 15]
    ],
    "3": [
      [2, 54],
      [4, 44],
      [12, 39],
      [16, 51],
      [20, 30],
      [22, 13]
    ],
    "4": [
      [2, 56],
      [4, 46],
      [12, 39],
      [16, 50],
      [20, 29],
      [22, 10]
    ],
    "5": [
      [2, 58],
      [4, 47],
      [12, 39],
      [16, 50],
      [20, 27],
      [22, 8]
    ],
    "6": [
      [3, 0],
      [4, 49],
      [12, 39],
      [16, 49],
      [20, 25],
      [22, 6]
    ],
    "7": [
      [3, 2],
      [4, 51],
      [12, 39],
      [16, 48],
      [20, 23],
      [22, 4]
    ],
    "8": [
      [3, 5],
      [4, 53],
      [12, 39],
      [16, 47],
      [20, 21],
      [22, 1]
    ],
    "9": [
      [3, 7],
      [4, 54],
      [12, 39],
      [16, 46],
      [20, 19],
      [21, 59]
    ],
    "10": [
      [3, 9],
      [4, 56],
      [12, 39],
      [16, 45],
      [20, 17],
      [21, 57]
    ],
    "11": [
      [3, 11],
      [4, 58],
      [12, 38],
      [16, 44],
      [20, 15],
      [21, 54]
    ],
    "12": [
      [3, 13],
      [5, 0],
      [12, 38],
      [16, 43],
      [20, 13],
      [21, 52]
    ],
    "13": [
      [3, 15],
      [5, 1],
      [12, 38],
      [16, 42],
      [20, 11],
      [21, 50]
    ],
    "14": [
      [3, 18],
      [5, 3],
      [12, 38],
      [16, 41],
      [20, 9],
      [21, 47]
    ],
    "15": [
      [3, 20],
      [5, 5],
      [12, 38],
      [16, 40],
      [20, 7],
      [21, 45]
    ],
    "16": [
      [3, 22],
      [5, 7],
      [12, 38],
      [16, 39],
      [20, 4],
      [21, 42]
    ],
    "17": [
      [3, 24],
      [5, 9],
      [12, 37],
      [16, 38],
      [20, 2],
      [21, 40]
    ],
    "18": [
      [3, 26],
      [5, 10],
      [12, 37],
      [16, 37],
      [20, 0],
      [21, 37]
    ],
    "19": [
      [3, 28],
      [5, 12],
      [12, 37],
      [16, 35],
      [19, 58],
      [21, 35]
    ],
    "20": [
      [3, 30],
      [5, 14],
      [12, 37],
      [16, 34],
      [19, 56],
      [21, 33]
    ],
    "21": [
      [3, 32],
      [5, 16],
      [12, 37],
      [16, 33],
      [19, 54],
      [21, 30]
    ],
    "22": [
      [3, 35],
      [5, 18],
      [12, 36],
      [16, 32],
      [19, 51],
      [21, 28]
    ],
    "23": [
      [3, 37],
      [5, 19],
      [12, 36],
      [16, 31],
      [19, 49],
      [21, 25]
    ],
    "24": [
      [3, 39],
      [5, 21],
      [12, 36],
      [16, 29],
      [19, 47],
      [21, 22]
    ],
    "25": [
      [3, 41],
      [5, 23],
      [12, 36],
      [16, 28],
      [19, 45],
      [21, 20]
    ],
    "26": [
      [3, 43],
      [5, 25],
      [12, 35],
      [16, 27],
      [19, 42],
      [21, 17]
    ],
    "27": [
      [3, 45],
      [5, 26],
      [12, 35],
      [16, 25],
      [19, 40],
      [21, 15]
    ],
    "28": [
      [3, 47],
      [5, 28],
      [12, 35],
      [16, 24],
      [19, 38],
      [21, 12]
    ],
    "29": [
      [3, 49],
      [5, 30],
      [12, 35],
      [16, 23],
      [19, 35],
      [21, 10]
    ],
    "30": [
      [3, 51],
      [5, 32],
      [12, 34],
      [16, 21],
      [19, 33],
      [21, 7]
    ],
    "31": [
      [3, 53],
      [5, 34],
      [12, 34],
      [16, 20],
      [19, 31],
      [21, 5]
    ]
  },
  "9": {
    "1": [
      [3, 57],
      [5, 37],
      [12, 33],
      [16, 17],
      [19, 26],
      [21, 0]
    ],
    "2": [
      [3, 59],
      [5, 39],
      [12, 33],
      [16, 15],
      [19, 23],
      [20, 57]
    ],
    "3": [
      [4, 1],
      [5, 41],
      [12, 33],
      [16, 14],
      [19, 21],
      [20, 54]
    ],
    "4": [
      [4, 3],
      [5, 42],
      [12, 33],
      [16, 12],
      [19, 19],
      [20, 52]
    ],
    "5": [
      [4, 5],
      [5, 44],
      [12, 32],
      [16, 11],
      [19, 16],
      [20, 49]
    ],
    "6": [
      [4, 7],
      [5, 46],
      [12, 32],
      [16, 9],
      [19, 14],
      [20, 47]
    ],
    "7": [
      [4, 9],
      [5, 48],
      [12, 32],
      [16, 8],
      [19, 11],
      [20, 44]
    ],
    "8": [
      [4, 11],
      [5, 49],
      [12, 31],
      [16, 6],
      [19, 9],
      [20, 42]
    ],
    "9": [
      [4, 13],
      [5, 51],
      [12, 31],
      [16, 4],
      [19, 6],
      [20, 39]
    ],
    "10": [
      [4, 14],
      [5, 53],
      [12, 30],
      [16, 3],
      [19, 4],
      [20, 36]
    ],
    "11": [
      [4, 16],
      [5, 55],
      [12, 30],
      [16, 1],
      [19, 1],
      [20, 34]
    ],
    "12": [
      [4, 18],
      [5, 57],
      [12, 30],
      [15, 59],
      [18, 59],
      [20, 31]
    ],
    "13": [
      [4, 20],
      [5, 58],
      [12, 29],
      [15, 58],
      [18, 57],
      [20, 29]
    ],
    "14": [
      [4, 22],
      [6, 0],
      [12, 29],
      [15, 56],
      [18, 54],
      [20, 26]
    ],
    "15": [
      [4, 24],
      [6, 2],
      [12, 29],
      [15, 54],
      [18, 52],
      [20, 24]
    ],
    "16": [
      [4, 26],
      [6, 4],
      [12, 28],
      [15, 53],
      [18, 49],
      [20, 21]
    ],
    "17": [
      [4, 27],
      [6, 5],
      [12, 28],
      [15, 51],
      [18, 47],
      [20, 18]
    ],
    "18": [
      [4, 29],
      [6, 7],
      [12, 28],
      [15, 49],
      [18, 44],
      [20, 16]
    ],
    "19": [
      [4, 31],
      [6, 9],
      [12, 27],
      [15, 47],
      [18, 42],
      [20, 13]
    ],
    "20": [
      [4, 33],
      [6, 11],
      [12, 27],
      [15, 46],
      [18, 39],
      [20, 11]
    ],
    "21": [
      [4, 35],
      [6, 12],
      [12, 26],
      [15, 44],
      [18, 37],
      [20, 8]
    ],
    "22": [
      [4, 36],
      [6, 14],
      [12, 26],
      [15, 42],
      [18, 34],
      [20, 6]
    ],
    "23": [
      [4, 38],
      [6, 16],
      [12, 26],
      [15, 40],
      [18, 32],
      [20, 3]
    ],
    "24": [
      [4, 40],
      [6, 18],
      [12, 25],
      [15, 39],
      [18, 29],
      [20, 1]
    ],
    "25": [
      [4, 42],
      [6, 19],
      [12, 25],
      [15, 37],
      [18, 27],
      [19, 58]
    ],
    "26": [
      [4, 43],
      [6, 21],
      [12, 25],
      [15, 35],
      [18, 24],
      [19, 56]
    ],
    "27": [
      [4, 45],
      [6, 23],
      [12, 24],
      [15, 33],
      [18, 22],
      [19, 53]
    ],
    "28": [
      [4, 47],
      [6, 25],
      [12, 24],
      [15, 31],
      [18, 19],
      [19, 51]
    ],
    "29": [
      [4, 49],
      [6, 26],
      [12, 24],
      [15, 29],
      [18, 17],
      [19, 49]
    ],
    "30": [
      [4, 50],
      [6, 28],
      [12, 23],
      [15, 28],
      [18, 14],
      [19, 46]
    ]
  },
  "10": {
    "1": [
      [4, 52],
      [6, 30],
      [12, 23],
      [15, 26],
      [18, 12],
      [19, 44]
    ],
    "2": [
      [4, 54],
      [6, 32],
      [12, 22],
      [15, 24],
      [18, 9],
      [19, 41]
    ],
    "3": [
      [4, 55],
      [6, 33],
      [12, 22],
      [15, 22],
      [18, 7],
      [19, 39]
    ],
    "4": [
      [4, 57],
      [6, 35],
      [12, 22],
      [15, 20],
      [18, 4],
      [19, 37]
    ],
    "5": [
      [4, 59],
      [6, 37],
      [12, 21],
      [15, 18],
      [18, 2],
      [19, 34]
    ],
    "6": [
      [5, 1],
      [6, 39],
      [12, 21],
      [15, 17],
      [18, 0],
      [19, 32]
    ],
    "7": [
      [5, 2],
      [6, 41],
      [12, 21],
      [15, 15],
      [17, 57],
      [19, 30]
    ],
    "8": [
      [5, 4],
      [6, 42],
      [12, 21],
      [15, 13],
      [17, 55],
      [19, 27]
    ],
    "9": [
      [5, 6],
      [6, 44],
      [12, 20],
      [15, 11],
      [17, 52],
      [19, 25]
    ],
    "10": [
      [5, 7],
      [6, 46],
      [12, 20],
      [15, 9],
      [17, 50],
      [19, 23]
    ],
    "11": [
      [5, 9],
      [6, 48],
      [12, 20],
      [15, 7],
      [17, 47],
      [19, 21]
    ],
    "12": [
      [5, 11],
      [6, 50],
      [12, 19],
      [15, 5],
      [17, 45],
      [19, 18]
    ],
    "13": [
      [5, 12],
      [6, 52],
      [12, 19],
      [15, 4],
      [17, 43],
      [19, 16]
    ],
    "14": [
      [5, 14],
      [6, 53],
      [12, 19],
      [15, 2],
      [17, 40],
      [19, 14]
    ],
    "15": [
      [5, 16],
      [6, 55],
      [12, 19],
      [15, 0],
      [17, 38],
      [19, 12]
    ],
    "16": [
      [5, 17],
      [6, 57],
      [12, 18],
      [14, 58],
      [17, 36],
      [19, 10]
    ],
    "17": [
      [5, 19],
      [6, 59],
      [12, 18],
      [14, 56],
      [17, 33],
      [19, 7]
    ],
    "18": [
      [5, 21],
      [7, 1],
      [12, 18],
      [14, 55],
      [17, 31],
      [19, 5]
    ],
    "19": [
      [5, 22],
      [7, 3],
      [12, 18],
      [14, 53],
      [17, 29],
      [19, 3]
    ],
    "20": [
      [5, 24],
      [7, 5],
      [12, 18],
      [14, 51],
      [17, 27],
      [19, 1]
    ],
    "21": [
      [5, 26],
      [7, 6],
      [12, 17],
      [14, 49],
      [17, 24],
      [18, 59]
    ],
    "22": [
      [5, 27],
      [7, 8],
      [12, 17],
      [14, 48],
      [17, 22],
      [18, 57]
    ],
    "23": [
      [5, 29],
      [7, 10],
      [12, 17],
      [14, 46],
      [17, 20],
      [18, 55]
    ],
    "24": [
      [5, 31],
      [7, 12],
      [12, 17],
      [14, 44],
      [17, 18],
      [18, 53]
    ],
    "25": [
      [5, 32],
      [7, 14],
      [12, 17],
      [14, 43],
      [17, 16],
      [18, 51]
    ],
    "26": [
      [5, 34],
      [7, 16],
      [12, 17],
      [14, 41],
      [17, 14],
      [18, 49]
    ],
    "27": [
      [5, 36],
      [7, 18],
      [12, 17],
      [14, 39],
      [17, 11],
      [18, 48]
    ],
    "28": [
      [5, 37],
      [7, 20],
      [12, 17],
      [14, 38],
      [17, 9],
      [18, 46]
    ],
    "29": [
      [5, 39],
      [7, 22],
      [12, 17],
      [14, 36],
      [17, 7],
      [18, 44]
    ],
    "30": [
      [5, 41],
      [7, 24],
      [12, 16],
      [14, 34],
      [17, 5],
      [18, 42]
    ],
    "31": [
      [5, 42],
      [7, 26],
      [12, 16],
      [14, 33],
      [17, 3],
      [18, 40]
    ]
  },
  "11": {
    "1": [
      [5, 44],
      [7, 28],
      [12, 16],
      [14, 31],
      [17, 1],
      [18, 39]
    ],
    "2": [
      [5, 46],
      [7, 30],
      [12, 16],
      [14, 30],
      [16, 59],
      [18, 37]
    ],
    "3": [
      [5, 47],
      [7, 31],
      [12, 16],
      [14, 28],
      [16, 57],
      [18, 35]
    ],
    "4": [
      [5, 49],
      [7, 33],
      [12, 16],
      [14, 27],
      [16, 56],
      [18, 34]
    ],
    "5": [
      [5, 51],
      [7, 35],
      [12, 17],
      [14, 25],
      [16, 54],
      [18, 32]
    ],
    "6": [
      [5, 52],
      [7, 37],
      [12, 17],
      [14, 24],
      [16, 52],
      [18, 31]
    ],
    "7": [
      [5, 54],
      [7, 39],
      [12, 17],
      [14, 23],
      [16, 50],
      [18, 29]
    ],
    "8": [
      [5, 56],
      [7, 41],
      [12, 17],
      [14, 21],
      [16, 48],
      [18, 28]
    ],
    "9": [
      [5, 57],
      [7, 43],
      [12, 17],
      [14, 20],
      [16, 47],
      [18, 26]
    ],
    "10": [
      [5, 59],
      [7, 45],
      [12, 17],
      [14, 19],
      [16, 45],
      [18, 25]
    ],
    "11": [
      [6, 1],
      [7, 47],
      [12, 17],
      [14, 17],
      [16, 43],
      [18, 24]
    ],
    "12": [
      [6, 2],
      [7, 49],
      [12, 17],
      [14, 16],
      [16, 42],
      [18, 22]
    ],
    "13": [
      [6, 4],
      [7, 51],
      [12, 17],
      [14, 15],
      [16, 40],
      [18, 21]
    ],
    "14": [
      [6, 5],
      [7, 53],
      [12, 18],
      [14, 14],
      [16, 38],
      [18, 20]
    ],
    "15": [
      [6, 7],
      [7, 55],
      [12, 18],
      [14, 13],
      [16, 37],
      [18, 18]
    ],
    "16": [
      [6, 9],
      [7, 56],
      [12, 18],
      [14, 12],
      [16, 35],
      [18, 17]
    ],
    "17": [
      [6, 10],
      [7, 58],
      [12, 18],
      [14, 11],
      [16, 34],
      [18, 16]
    ],
    "18": [
      [6, 12],
      [8, 0],
      [12, 18],
      [14, 10],
      [16, 33],
      [18, 15]
    ],
    "19": [
      [6, 13],
      [8, 2],
      [12, 19],
      [14, 9],
      [16, 31],
      [18, 14]
    ],
    "20": [
      [6, 15],
      [8, 4],
      [12, 19],
      [14, 8],
      [16, 30],
      [18, 13]
    ],
    "21": [
      [6, 16],
      [8, 6],
      [12, 19],
      [14, 7],
      [16, 29],
      [18, 12]
    ],
    "22": [
      [6, 18],
      [8, 7],
      [12, 19],
      [14, 6],
      [16, 27],
      [18, 11]
    ],
    "23": [
      [6, 19],
      [8, 9],
      [12, 20],
      [14, 5],
      [16, 26],
      [18, 10]
    ],
    "24": [
      [6, 21],
      [8, 11],
      [12, 20],
      [14, 4],
      [16, 25],
      [18, 9]
    ],
    "25": [
      [6, 22],
      [8, 13],
      [12, 20],
      [14, 3],
      [16, 24],
      [18, 9]
    ],
    "26": [
      [6, 23],
      [8, 14],
      [12, 21],
      [14, 3],
      [16, 23],
      [18, 8]
    ],
    "27": [
      [6, 25],
      [8, 16],
      [12, 21],
      [14, 2],
      [16, 22],
      [18, 7]
    ],
    "28": [
      [6, 26],
      [8, 18],
      [12, 21],
      [14, 1],
      [16, 21],
      [18, 6]
    ],
    "29": [
      [6, 28],
      [8, 19],
      [12, 22],
      [14, 1],
      [16, 20],
      [18, 6]
    ],
    "30": [
      [6, 29],
      [8, 21],
      [12, 22],
      [14, 0],
      [16, 20],
      [18, 5]
    ]
  },
  "12": {
    "1": [
      [6, 30],
      [8, 22],
      [12, 23],
      [14, 0],
      [16, 19],
      [18, 5]
    ],
    "2": [
      [6, 31],
      [8, 24],
      [12, 23],
      [13, 59],
      [16, 18],
      [18, 4]
    ],
    "3": [
      [6, 33],
      [8, 25],
      [12, 23],
      [13, 59],
      [16, 17],
      [18, 4]
    ],
    "4": [
      [6, 34],
      [8, 27],
      [12, 24],
      [13, 59],
      [16, 17],
      [18, 3]
    ],
    "5": [
      [6, 35],
      [8, 28],
      [12, 24],
      [13, 58],
      [16, 16],
      [18, 3]
    ],
    "6": [
      [6, 36],
      [8, 30],
      [12, 25],
      [13, 58],
      [16, 16],
      [18, 3]
    ],
    "7": [
      [6, 37],
      [8, 31],
      [12, 25],
      [13, 58],
      [16, 15],
      [18, 3]
    ],
    "8": [
      [6, 38],
      [8, 32],
      [12, 26],
      [13, 58],
      [16, 15],
      [18, 2]
    ],
    "9": [
      [6, 39],
      [8, 33],
      [12, 26],
      [13, 58],
      [16, 15],
      [18, 2]
    ],
    "10": [
      [6, 40],
      [8, 34],
      [12, 26],
      [13, 58],
      [16, 14],
      [18, 2]
    ],
    "11": [
      [6, 41],
      [8, 36],
      [12, 27],
      [13, 57],
      [16, 14],
      [18, 2]
    ],
    "12": [
      [6, 42],
      [8, 37],
      [12, 27],
      [13, 58],
      [16, 14],
      [18, 2]
    ],
    "13": [
      [6, 43],
      [8, 38],
      [12, 28],
      [13, 58],
      [16, 14],
      [18, 2]
    ],
    "14": [
      [6, 44],
      [8, 39],
      [12, 28],
      [13, 58],
      [16, 14],
      [18, 2]
    ],
    "15": [
      [6, 45],
      [8, 39],
      [12, 29],
      [13, 58],
      [16, 14],
      [18, 2]
    ],
    "16": [
      [6, 45],
      [8, 40],
      [12, 29],
      [13, 58],
      [16, 14],
      [18, 3]
    ],
    "17": [
      [6, 46],
      [8, 41],
      [12, 30],
      [13, 58],
      [16, 14],
      [18, 3]
    ],
    "18": [
      [6, 47],
      [8, 42],
      [12, 30],
      [13, 59],
      [16, 15],
      [18, 3]
    ],
    "19": [
      [6, 47],
      [8, 42],
      [12, 31],
      [13, 59],
      [16, 15],
      [18, 4]
    ],
    "20": [
      [6, 48],
      [8, 43],
      [12, 31],
      [13, 59],
      [16, 15],
      [18, 4]
    ],
    "21": [
      [6, 49],
      [8, 44],
      [12, 32],
      [14, 0],
      [16, 16],
      [18, 4]
    ],
    "22": [
      [6, 49],
      [8, 44],
      [12, 32],
      [14, 0],
      [16, 16],
      [18, 5]
    ],
    "23": [
      [6, 49],
      [8, 44],
      [12, 33],
      [14, 1],
      [16, 17],
      [18, 5]
    ],
    "24": [
      [6, 50],
      [8, 45],
      [12, 33],
      [14, 1],
      [16, 17],
      [18, 6]
    ],
    "25": [
      [6, 50],
      [8, 45],
      [12, 34],
      [14, 2],
      [16, 18],
      [18, 7]
    ],
    "26": [
      [6, 50],
      [8, 45],
      [12, 34],
      [14, 3],
      [16, 19],
      [18, 7]
    ],
    "27": [
      [6, 51],
      [8, 46],
      [12, 35],
      [14, 3],
      [16, 20],
      [18, 8]
    ],
    "28": [
      [6, 51],
      [8, 46],
      [12, 35],
      [14, 4],
      [16, 20],
      [18, 9]
    ],
    "29": [
      [6, 51],
      [8, 46],
      [12, 35],
      [14, 5],
      [16, 21],
      [18, 10]
    ],
    "30": [
      [6, 51],
      [8, 46],
      [12, 36],
      [14, 6],
      [16, 22],
      [18, 10]
    ],
    "31": [
      [6, 51],
      [8, 46],
      [12, 36],
      [14, 7],
      [16, 23],
      [18, 11]
    ]
  }
}
