{
  "title": "Islamic Cultural Centre of Ireland",
  "description": "Prayer Timetable",
  "online": true,
  "log": false,
  "updateInterval": 60,
  "url": {
    "settings": "https://islamireland.ie/api/settings/",
    "timetable": "https://islamireland.ie/api/timetable/"
  },
  "announcement": "Welcome!",
  "text": {
    "en": "Assalamu Alaikum",
    "ar": "السَّلَامُ عَلَيْكُمْ‎"
  },
  "jamaahshow": true,
  "hijrioffset": "0",
  "join": "0",
  "jummuahtime": [13, 15],
  "jummuahtime2": [14, 30],
  "jummuahMinutes": 30,
  "taraweehtime": [23, 15],
  "jamaahShow": true,
  "jamaahmethods": [
    "afterthis",
    "",
    "fixed",
    "afterthis",
    "afterthis",
    "fixed"
  ],
  "jamaahoffsets": [[0, 15], [], [13, 45], [0, 15], [0, 15], [23, 15]],
  "jamaahOverlay": true,
  "hadith": { "text": "", "ref": "" },
  "updated": 1514764800
}
