{
"1": {
  "1":[[6,45],[8,40],[12,31],[14,1],[16,18],[18,6]],
  "2":[[6,45],[8,40],[12,31],[14,2],[16,19],[18,7]],
  "3":[[6,45],[8,39],[12,32],[14,3],[16,20],[18,8]],
  "4":[[6,45],[8,39],[12,32],[14,4],[16,21],[18,9]],
  "5":[[6,45],[8,39],[12,32],[14,5],[16,22],[18,10]],
  "6":[[6,45],[8,38],[12,33],[14,6],[16,24],[18,11]],
  "7":[[6,44],[8,38],[12,33],[14,7],[16,25],[18,12]],
  "8":[[6,44],[8,37],[12,34],[14,8],[16,26],[18,13]],
  "9":[[6,44],[8,37],[12,34],[14,9],[16,28],[18,14]],
  "10":[[6,43],[8,36],[12,35],[14,10],[16,29],[18,15]],
  "11":[[6,43],[8,35],[12,35],[14,12],[16,30],[18,17]],
  "12":[[6,42],[8,35],[12,35],[14,13],[16,32],[18,18]],
  "13":[[6,42],[8,34],[12,36],[14,14],[16,33],[18,19]],
  "14":[[6,41],[8,33],[12,36],[14,15],[16,35],[18,20]],
  "15":[[6,41],[8,32],[12,36],[14,17],[16,37],[18,22]],
  "16":[[6,40],[8,31],[12,37],[14,18],[16,38],[18,23]],
  "17":[[6,39],[8,30],[12,37],[14,19],[16,40],[18,25]],
  "18":[[6,38],[8,29],[12,37],[14,21],[16,42],[18,26]],
  "19":[[6,38],[8,28],[12,38],[14,22],[16,43],[18,27]],
  "20":[[6,37],[8,27],[12,38],[14,24],[16,45],[18,29]],
  "21":[[6,36],[8,25],[12,38],[14,25],[16,47],[18,30]],
  "22":[[6,35],[8,24],[12,39],[14,27],[16,49],[18,32]],
  "23":[[6,34],[8,23],[12,39],[14,28],[16,51],[18,33]],
  "24":[[6,33],[8,22],[12,39],[14,30],[16,52],[18,35]],
  "25":[[6,32],[8,20],[12,39],[14,31],[16,54],[18,37]],
  "26":[[6,31],[8,19],[12,40],[14,33],[16,56],[18,38]],
  "27":[[6,30],[8,17],[12,40],[14,34],[16,58],[18,40]],
  "28":[[6,28],[8,16],[12,40],[14,36],[17,0],[18,41]],
  "29":[[6,27],[8,14],[12,40],[14,37],[17,2],[18,43]],
  "30":[[6,26],[8,13],[12,40],[14,39],[17,4],[18,45]],
  "31":[[6,25],[8,11],[12,40],[14,40],[17,6],[18,46]]
},
"2": {
  "1":[[6,23],[8,9],[12,41],[14,42],[17,8],[18,48]],
  "2":[[6,22],[8,8],[12,41],[14,43],[17,10],[18,50]],
  "3":[[6,20],[8,6],[12,41],[14,45],[17,12],[18,51]],
  "4":[[6,19],[8,4],[12,41],[14,47],[17,14],[18,53]],
  "5":[[6,18],[8,3],[12,41],[14,48],[17,16],[18,55]],
  "6":[[6,16],[8,1],[12,41],[14,50],[17,18],[18,56]],
  "7":[[6,15],[7,59],[12,41],[14,51],[17,20],[18,58]],
  "8":[[6,13],[7,57],[12,41],[14,53],[17,22],[19,0]],
  "9":[[6,11],[7,55],[12,41],[14,54],[17,24],[19,2]],
  "10":[[6,10],[7,53],[12,41],[14,56],[17,26],[19,3]],
  "11":[[6,8],[7,51],[12,42],[14,58],[17,28],[19,5]],
  "12":[[6,6],[7,49],[12,42],[14,59],[17,30],[19,7]],
  "13":[[6,5],[7,47],[12,42],[15,1],[17,32],[19,9]],
  "14":[[6,3],[7,45],[12,42],[15,2],[17,34],[19,10]],
  "15":[[6,1],[7,43],[12,42],[15,4],[17,36],[19,12]],
  "16":[[5,59],[7,41],[12,42],[15,5],[17,38],[19,14]],
  "17":[[5,57],[7,39],[12,41],[15,7],[17,40],[19,16]],
  "18":[[5,56],[7,37],[12,41],[15,8],[17,42],[19,17]],
  "19":[[5,54],[7,35],[12,41],[15,10],[17,44],[19,19]],
  "20":[[5,52],[7,33],[12,41],[15,11],[17,46],[19,21]],
  "21":[[5,50],[7,31],[12,41],[15,13],[17,48],[19,23]],
  "22":[[5,48],[7,28],[12,41],[15,14],[17,50],[19,24]],
  "23":[[5,46],[7,26],[12,41],[15,16],[17,52],[19,26]],
  "24":[[5,44],[7,24],[12,41],[15,17],[17,54],[19,28]],
  "25":[[5,42],[7,22],[12,41],[15,19],[17,56],[19,30]],
  "26":[[5,40],[7,20],[12,41],[15,20],[17,58],[19,32]],
  "27":[[5,38],[7,17],[12,40],[15,22],[18,0],[19,33]],
  "28":[[5,36],[7,15],[12,40],[15,23],[18,2],[19,35]]
},
"3": {
  "1":[[5,34],[7,13],[12,40],[15,25],[18,4],[19,37]],
  "2":[[5,31],[7,10],[12,40],[15,26],[18,5],[19,39]],
  "3":[[5,29],[7,8],[12,40],[15,27],[18,7],[19,40]],
  "4":[[5,27],[7,6],[12,40],[15,29],[18,9],[19,42]],
  "5":[[5,25],[7,3],[12,39],[15,30],[18,11],[19,44]],
  "6":[[5,23],[7,1],[12,39],[15,31],[18,13],[19,46]],
  "7":[[5,20],[6,59],[12,39],[15,33],[18,15],[19,48]],
  "8":[[5,18],[6,56],[12,39],[15,34],[18,17],[19,49]],
  "9":[[5,16],[6,54],[12,38],[15,35],[18,19],[19,51]],
  "10":[[5,13],[6,52],[12,38],[15,37],[18,21],[19,53]],
  "11":[[5,11],[6,49],[12,38],[15,38],[18,23],[19,55]],
  "12":[[5,9],[6,47],[12,38],[15,39],[18,25],[19,57]],
  "13":[[5,6],[6,44],[12,37],[15,40],[18,27],[19,59]],
  "14":[[5,4],[6,42],[12,37],[15,42],[18,28],[20,0]],
  "15":[[5,2],[6,39],[12,37],[15,43],[18,30],[20,2]],
  "16":[[4,59],[6,37],[12,37],[15,44],[18,32],[20,4]],
  "17":[[4,57],[6,35],[12,36],[15,45],[18,34],[20,6]],
  "18":[[4,54],[6,32],[12,36],[15,47],[18,36],[20,8]],
  "19":[[4,52],[6,30],[12,36],[15,48],[18,38],[20,9]],
  "20":[[4,50],[6,27],[12,35],[15,49],[18,40],[20,11]],
  "21":[[4,47],[6,25],[12,35],[15,50],[18,41],[20,13]],
  "22":[[4,45],[6,22],[12,35],[15,51],[18,43],[20,15]],
  "23":[[4,42],[6,20],[12,34],[15,52],[18,45],[20,17]],
  "24":[[4,40],[6,17],[12,34],[15,53],[18,47],[20,19]],
  "25":[[4,44],[6,15],[12,34],[15,54],[18,49],[20,21]],
  "26":[[4,35],[6,12],[12,34],[15,56],[18,51],[20,23]],
  "27":[[4,32],[6,10],[12,33],[15,57],[18,52],[20,24]],
  "28":[[4,29],[6,7],[12,33],[15,58],[18,54],[20,26]],
  "29":[[4,27],[6,5],[12,33],[15,59],[18,56],[20,28]],
  "30":[[4,24],[6,3],[12,32],[16,0],[18,58],[20,30]],
  "31":[[4,22],[6,0],[12,32],[16,1],[19,0],[20,32]]
},
"4": {
  "1":[[4,19],[5,58],[12,32],[16,2],[19,2],[20,34]],
  "2":[[4,17],[5,55],[12,31],[16,3],[19,3],[20,36]],
  "3":[[4,14],[5,53],[12,31],[16,4],[19,5],[20,38]],
  "4":[[4,11],[5,50],[12,31],[16,5],[19,7],[20,40]],
  "5":[[4,9],[5,48],[12,30],[16,6],[19,9],[20,42]],
  "6":[[4,6],[5,45],[12,30],[16,7],[19,11],[20,44]],
  "7":[[4,4],[5,43],[12,30],[16,8],[19,13],[20,46]],
  "8":[[4,1],[5,41],[12,29],[16,9],[19,14],[20,48]],
  "9":[[3,58],[5,38],[12,29],[16,9],[19,16],[20,50]],
  "10":[[3,56],[5,36],[12,29],[16,10],[19,18],[20,52]],
  "11":[[3,53],[5,33],[12,29],[16,11],[19,20],[20,54]],
  "12":[[3,51],[5,31],[12,28],[16,12],[19,22],[20,56]],
  "13":[[3,48],[5,29],[12,28],[16,13],[19,24],[20,58]],
  "14":[[3,45],[5,26],[12,28],[16,14],[19,25],[21,0]],
  "15":[[3,43],[5,24],[12,27],[16,15],[19,27],[21,2]],
  "16":[[3,40],[5,21],[12,27],[16,16],[19,29],[21,4]],
  "17":[[3,38],[5,19],[12,27],[16,17],[19,31],[21,6]],
  "18":[[3,35],[5,17],[12,27],[16,18],[19,33],[21,8]],
  "19":[[3,33],[5,14],[12,27],[16,18],[19,35],[21,10]],
  "20":[[3,30],[5,12],[12,26],[16,19],[19,36],[21,12]],
  "21":[[3,27],[5,10],[12,26],[16,20],[19,38],[21,14]],
  "22":[[3,25],[5,8],[12,26],[16,21],[19,40],[21,16]],
  "23":[[3,22],[5,5],[12,26],[16,22],[19,42],[21,18]],
  "24":[[3,20],[5,3],[12,25],[16,23],[19,44],[21,20]],
  "25":[[3,17],[5,1],[12,25],[16,23],[19,46],[21,22]],
  "26":[[3,15],[4,59],[12,25],[16,24],[19,47],[21,25]],
  "27":[[3,12],[4,57],[12,25],[16,25],[19,49],[21,27]],
  "28":[[3,10],[4,54],[12,25],[16,26],[19,51],[21,29]],
  "29":[[3,7],[4,52],[12,25],[16,27],[19,53],[21,31]],
  "30":[[3,5],[4,50],[12,24],[16,27],[19,55],[21,33]]
},
"5": {
  "1":[[3,2],[4,48],[12,24],[16,28],[19,57],[21,35]],
  "2":[[3,0],[4,46],[12,24],[16,29],[19,58],[21,37]],
  "3":[[2,57],[4,44],[12,24],[16,30],[20,0],[21,40]],
  "4":[[2,55],[4,42],[12,24],[16,30],[20,2],[21,42]],
  "5":[[2,53],[4,40],[12,24],[16,31],[20,4],[21,44]],
  "6":[[2,50],[4,38],[12,24],[16,32],[20,6],[21,46]],
  "7":[[2,48],[4,36],[12,24],[16,33],[20,7],[21,48]],
  "8":[[2,45],[4,34],[12,24],[16,33],[20,9],[21,50]],
  "9":[[2,43],[4,32],[12,24],[16,34],[20,11],[21,53]],
  "10":[[2,41],[4,31],[12,24],[16,35],[20,13],[21,55]],
  "11":[[2,39],[4,29],[12,24],[16,36],[20,15],[21,57]],
  "12":[[2,36],[4,27],[12,24],[16,36],[20,16],[21,59]],
  "13":[[2,34],[4,25],[12,24],[16,37],[20,18],[22,1]],
  "14":[[2,32],[4,23],[12,24],[16,38],[20,20],[22,3]],
  "15":[[2,30],[4,22],[12,24],[16,38],[20,21],[22,5]],
  "16":[[2,28],[4,20],[12,24],[16,39],[20,23],[22,7]],
  "17":[[2,26],[4,19],[12,24],[16,40],[20,25],[22,9]],
  "18":[[2,24],[4,17],[12,24],[16,40],[20,27],[22,11]],
  "19":[[2,22],[4,15],[12,24],[16,41],[20,28],[22,14]],
  "20":[[2,20],[4,14],[12,24],[16,42],[20,30],[22,14]],
  "21":[[2,18],[4,12],[12,24],[16,42],[20,31],[22,14]],
  "22":[[2,16],[4,11],[12,24],[16,43],[20,33],[22,15]],
  "23":[[2,14],[4,10],[12,24],[16,44],[20,35],[22,15]],
  "24":[[2,12],[4,8],[12,24],[16,44],[20,36],[22,15]],
  "25":[[2,10],[4,7],[12,24],[16,45],[20,38],[22,15]],
  "26":[[2,9],[4,6],[12,24],[16,45],[20,39],[22,16]],
  "27":[[2,7],[4,5],[12,25],[16,46],[20,41],[22,16]],
  "28":[[2,5],[4,3],[12,25],[16,47],[20,42],[22,16]],
  "29":[[2,4],[4,2],[12,25],[16,47],[20,43],[22,17]],
  "30":[[2,2],[4,1],[12,25],[16,48],[20,45],[22,17]],
  "31":[[2,1],[4,0],[12,25],[16,48],[20,46],[22,17]]
},
"6": {
  "1":[[1,59],[3,59],[12,25],[16,49],[20,47],[22,17]],
  "2":[[1,58],[3,58],[12,25],[16,49],[20,49],[22,19]],
  "3":[[1,57],[3,57],[12,26],[16,50],[20,50],[22,20]],
  "4":[[1,55],[3,57],[12,26],[16,50],[20,51],[22,21]],
  "5":[[1,54],[3,56],[12,26],[16,51],[20,52],[22,22]],
  "6":[[1,53],[3,55],[12,26],[16,51],[20,53],[22,23]],
  "7":[[1,52],[3,54],[12,26],[16,52],[20,54],[22,24]],
  "8":[[1,51],[3,54],[12,26],[16,52],[20,55],[22,25]],
  "9":[[1,50],[3,53],[12,27],[16,53],[20,56],[22,26]],
  "10":[[1,49],[3,53],[12,27],[16,53],[20,57],[22,27]],
  "11":[[1,49],[3,52],[12,27],[16,53],[20,58],[22,28]],
  "12":[[1,48],[3,52],[12,27],[16,54],[20,59],[22,29]],
  "13":[[1,47],[3,52],[12,27],[16,54],[20,59],[22,29]],
  "14":[[1,47],[3,51],[12,28],[16,55],[21,0],[22,30]],
  "15":[[1,46],[3,51],[12,28],[16,55],[21,1],[22,31]],
  "16":[[1,46],[3,51],[12,28],[16,55],[21,1],[22,31]],
  "17":[[1,46],[3,51],[12,28],[16,56],[21,2],[22,32]],
  "18":[[1,46],[3,51],[12,28],[16,56],[21,2],[22,32]],
  "19":[[1,46],[3,51],[12,29],[16,56],[21,3],[22,33]],
  "20":[[1,46],[3,51],[12,29],[16,56],[21,3],[22,33]],
  "21":[[1,46],[3,51],[12,29],[16,57],[21,3],[22,33]],
  "22":[[1,46],[3,51],[12,29],[16,57],[21,3],[22,33]],
  "23":[[1,46],[3,51],[12,29],[16,57],[21,4],[22,34]],
  "24":[[1,46],[3,52],[12,30],[16,57],[21,4],[22,34]],
  "25":[[1,47],[3,52],[12,30],[16,57],[21,4],[22,34]],
  "26":[[1,47],[3,52],[12,30],[16,57],[21,4],[22,34]],
  "27":[[1,48],[3,53],[12,30],[16,58],[21,4],[22,34]],
  "28":[[1,49],[3,53],[12,30],[16,58],[21,4],[22,34]],
  "29":[[1,49],[3,54],[12,31],[16,58],[21,3],[22,33]],
  "30":[[1,50],[3,54],[12,31],[16,58],[21,3],[22,33]]
},
"7": {
  "1":[[1,51],[3,55],[12,31],[16,58],[21,3],[22,33]],
  "2":[[1,52],[3,56],[12,31],[16,58],[21,2],[22,32]],
  "3":[[1,53],[3,57],[12,31],[16,58],[21,2],[22,32]],
  "4":[[1,54],[3,57],[12,31],[16,58],[21,2],[22,32]],
  "5":[[1,55],[3,58],[12,32],[16,58],[21,1],[22,31]],
  "6":[[1,57],[3,59],[12,32],[16,58],[21,0],[22,30]],
  "7":[[1,58],[4,0],[12,32],[16,57],[21,0],[22,30]],
  "8":[[1,59],[4,1],[12,32],[16,57],[20,59],[22,29]],
  "9":[[2,1],[4,2],[12,32],[16,57],[20,58],[22,28]],
  "10":[[2,2],[4,3],[12,32],[16,57],[20,58],[22,28]],
  "11":[[2,4],[4,4],[12,33],[16,57],[20,57],[22,27]],
  "12":[[2,5],[4,6],[12,33],[16,57],[20,56],[22,26]],
  "13":[[2,7],[4,7],[12,33],[16,56],[20,55],[22,26]],
  "14":[[2,9],[4,8],[12,33],[16,56],[20,54],[22,26]],
  "15":[[2,10],[4,9],[12,33],[16,56],[20,53],[22,26]],
  "16":[[2,12],[4,11],[12,33],[16,55],[20,52],[22,25]],
  "17":[[2,14],[4,12],[12,33],[16,55],[20,50],[22,25]],
  "18":[[2,16],[4,13],[12,33],[16,55],[20,49],[22,25]],
  "19":[[2,17],[4,15],[12,33],[16,54],[20,48],[22,25]],
  "20":[[2,19],[4,16],[12,33],[16,54],[20,47],[22,24]],
  "21":[[2,21],[4,17],[12,33],[16,53],[20,45],[22,24]],
  "22":[[2,23],[4,19],[12,33],[16,53],[20,44],[22,24]],
  "23":[[2,25],[4,20],[12,33],[16,53],[20,43],[22,23]],
  "24":[[2,27],[4,22],[12,34],[16,52],[20,41],[22,23]],
  "25":[[2,29],[4,24],[12,34],[16,51],[20,40],[22,23]],
  "26":[[2,31],[4,25],[12,34],[16,51],[20,38],[22,23]],
  "27":[[2,33],[4,27],[12,34],[16,50],[20,36],[22,21]],
  "28":[[2,35],[4,28],[12,34],[16,50],[20,35],[22,19]],
  "29":[[2,37],[4,30],[12,34],[16,49],[20,33],[22,17]],
  "30":[[2,40],[4,32],[12,34],[16,48],[20,32],[22,15]],
  "31":[[2,42],[4,33],[12,34],[16,48],[20,30],[22,13]]
},
"8": {
  "1":[[2,44],[4,35],[12,33],[16,47],[20,28],[22,11]],
  "2":[[2,46],[4,37],[12,33],[16,46],[20,26],[22,9]],
  "3":[[2,48],[4,38],[12,33],[16,45],[20,25],[22,7]],
  "4":[[2,50],[4,40],[12,33],[16,45],[20,23],[22,5]],
  "5":[[2,52],[4,42],[12,33],[16,44],[20,21],[22,2]],
  "6":[[2,55],[4,43],[12,33],[16,43],[20,19],[22,0]],
  "7":[[2,57],[4,45],[12,33],[16,42],[20,17],[21,58]],
  "8":[[2,59],[4,47],[12,33],[16,41],[20,15],[21,56]],
  "9":[[3,1],[4,49],[12,33],[16,40],[20,13],[21,53]],
  "10":[[3,3],[4,50],[12,33],[16,39],[20,11],[21,51]],
  "11":[[3,5],[4,52],[12,33],[16,38],[20,9],[21,49]],
  "12":[[3,7],[4,54],[12,32],[16,37],[20,7],[21,46]],
  "13":[[3,10],[4,56],[12,32],[16,36],[20,5],[21,44]],
  "14":[[3,12],[4,57],[12,32],[16,35],[20,3],[21,41]],
  "15":[[3,14],[4,59],[12,32],[16,34],[20,1],[21,39]],
  "16":[[3,16],[5,1],[12,32],[16,33],[19,59],[21,37]],
  "17":[[3,18],[5,3],[12,32],[16,32],[19,57],[21,34]],
  "18":[[3,20],[5,5],[12,31],[16,31],[19,54],[21,32]],
  "19":[[3,22],[5,6],[12,31],[16,30],[19,52],[21,29]],
  "20":[[3,25],[5,8],[12,31],[16,28],[19,50],[21,27]],
  "21":[[3,27],[5,10],[12,31],[16,27],[19,48],[21,24]],
  "22":[[3,29],[5,12],[12,31],[16,26],[19,46],[21,22]],
  "23":[[3,31],[5,14],[12,30],[16,25],[19,43],[21,19]],
  "24":[[3,33],[5,15],[12,30],[16,23],[19,41],[21,17]],
  "25":[[3,35],[5,17],[12,30],[16,22],[19,39],[21,14]],
  "26":[[3,37],[5,19],[12,30],[16,21],[19,36],[21,12]],
  "27":[[3,39],[5,21],[12,29],[16,20],[19,34],[21,9]],
  "28":[[3,41],[5,22],[12,29],[16,18],[19,32],[21,7]],
  "29":[[3,43],[5,24],[12,29],[16,17],[19,29],[21,4]],
  "30":[[3,45],[5,26],[12,29],[16,15],[19,27],[21,1]],
  "31":[[3,47],[5,28],[12,28],[16,14],[19,25],[20,59]]
},
"9": {
  "1":[[3,49],[5,30],[12,28],[16,12],[19,22],[20,56]],
  "2":[[3,51],[5,31],[12,28],[16,11],[19,20],[20,54]],
  "3":[[3,53],[5,33],[12,27],[16,10],[19,18],[20,51]],
  "4":[[3,55],[5,35],[12,27],[16,8],[19,15],[20,49]],
  "5":[[3,57],[5,37],[12,27],[16,6],[19,13],[20,46]],
  "6":[[3,59],[5,38],[12,26],[16,5],[19,10],[20,43]],
  "7":[[4,1],[5,40],[12,26],[16,3],[19,8],[20,41]],
  "8":[[4,3],[5,42],[12,26],[16,2],[19,5],[20,38]],
  "9":[[4,5],[5,44],[12,25],[16,0],[19,3],[20,36]],
  "10":[[4,7],[5,45],[12,25],[15,59],[19,1],[20,33]],
  "11":[[4,9],[5,47],[12,25],[15,57],[18,58],[20,31]],
  "12":[[4,10],[5,49],[12,24],[15,55],[18,56],[20,28]],
  "13":[[4,12],[5,51],[12,24],[15,54],[18,53],[20,25]],
  "14":[[4,14],[5,52],[12,24],[15,52],[18,51],[20,23]],
  "15":[[4,16],[5,54],[12,23],[15,50],[18,48],[20,20]],
  "16":[[4,18],[5,56],[12,23],[15,49],[18,46],[20,18]],
  "17":[[4,20],[5,58],[12,23],[15,47],[18,43],[20,15]],
  "18":[[4,22],[5,59],[12,22],[15,45],[18,41],[20,13]],
  "19":[[4,23],[6,1],[12,22],[15,43],[18,38],[20,10]],
  "20":[[4,25],[6,3],[12,21],[15,42],[18,36],[20,8]],
  "21":[[4,27],[6,5],[12,21],[15,40],[18,33],[20,5]],
  "22":[[4,29],[6,6],[12,21],[15,38],[18,31],[20,3]],
  "23":[[4,31],[6,8],[12,20],[15,36],[18,28],[20,0]],
  "24":[[4,32],[6,10],[12,20],[15,35],[18,26],[19,58]],
  "25":[[4,34],[6,12],[12,20],[15,33],[18,23],[19,55]],
  "26":[[4,36],[6,14],[12,19],[15,31],[18,21],[19,53]],
  "27":[[4,38],[6,15],[12,19],[15,29],[18,18],[19,50]],
  "28":[[4,39],[6,17],[12,18],[15,27],[18,16],[19,48]],
  "29":[[4,41],[6,19],[12,18],[15,25],[18,13],[19,45]],
  "30":[[4,43],[6,21],[12,18],[15,24],[18,11],[19,43]]
},
"10": {
  "1":[[4,45],[6,22],[12,17],[15,22],[18,8],[19,40]],
  "2":[[4,46],[6,24],[12,17],[15,20],[18,6],[19,38]],
  "3":[[4,48],[6,26],[12,17],[15,18],[18,3],[19,36]],
  "4":[[4,50],[6,28],[12,16],[15,16],[18,1],[19,33]],
  "5":[[4,51],[6,29],[12,16],[15,14],[17,59],[19,31]],
  "6":[[4,53],[6,31],[12,16],[15,13],[17,56],[19,28]],
  "7":[[4,55],[6,33],[12,15],[15,11],[17,54],[19,26]],
  "8":[[4,56],[6,35],[12,15],[15,9],[17,51],[19,24]],
  "9":[[4,58],[6,37],[12,15],[15,7],[17,49],[19,22]],
  "10":[[5,0],[6,38],[12,14],[15,5],[17,46],[19,19]],
  "11":[[5,2],[6,40],[12,14],[15,3],[17,44],[19,17]],
  "12":[[5,3],[6,42],[12,14],[15,2],[17,42],[19,15]],
  "13":[[5,5],[6,44],[12,14],[15,0],[17,39],[19,12]],
  "14":[[5,7],[6,46],[12,13],[14,58],[17,37],[19,10]],
  "15":[[5,8],[6,48],[12,13],[14,56],[17,35],[19,8]],
  "16":[[5,10],[6,49],[12,13],[14,54],[17,32],[19,6]],
  "17":[[5,12],[6,51],[12,13],[14,52],[17,30],[19,4]],
  "18":[[5,13],[6,53],[12,12],[14,51],[17,28],[19,2]],
  "19":[[5,15],[6,55],[12,12],[14,49],[17,25],[19,0]],
  "20":[[5,17],[6,57],[12,12],[14,47],[17,23],[18,57]],
  "21":[[5,18],[6,59],[12,12],[14,45],[17,21],[18,55]],
  "22":[[5,20],[7,1],[12,12],[14,44],[17,19],[18,53]],
  "23":[[5,22],[7,3],[12,11],[14,42],[17,16],[18,51]],
  "24":[[5,23],[7,4],[12,11],[14,40],[17,14],[18,49]],
  "25":[[5,25],[7,6],[12,11],[14,39],[17,12],[18,48]],
  "26":[[5,27],[7,8],[12,11],[14,37],[17,10],[18,46]],
  "27":[[5,28],[7,10],[12,11],[14,35],[17,8],[18,44]],
  "28":[[5,30],[7,12],[12,11],[14,34],[17,6],[18,42]],
  "29":[[5,32],[7,14],[12,11],[14,32],[17,4],[18,40]],
  "30":[[5,33],[7,16],[12,11],[14,30],[17,2],[18,38]],
  "31":[[5,35],[7,18],[12,11],[14,29],[17,0],[18,36]]
},
"11": {
  "1":[[5,37],[7,20],[12,11],[14,27],[16,57],[18,35]],
  "2":[[5,38],[7,22],[12,11],[14,26],[16,56],[18,33]],
  "3":[[5,40],[7,24],[12,11],[14,24],[16,54],[18,31]],
  "4":[[5,42],[7,26],[12,11],[14,23],[16,52],[18,30]],
  "5":[[5,43],[7,28],[12,11],[14,21],[16,50],[18,28]],
  "6":[[5,45],[7,30],[12,11],[14,20],[16,48],[18,26]],
  "7":[[5,47],[7,31],[12,11],[14,18],[16,46],[18,25]],
  "8":[[5,48],[7,33],[12,11],[14,17],[16,44],[18,23]],
  "9":[[5,50],[7,35],[12,11],[14,16],[16,42],[18,22]],
  "10":[[5,52],[7,37],[12,11],[14,14],[16,41],[18,21]],
  "11":[[5,53],[7,39],[12,11],[14,13],[16,39],[18,19]],
  "12":[[5,55],[7,41],[12,11],[14,12],[16,37],[18,18]],
  "13":[[5,56],[7,43],[12,11],[14,10],[16,36],[18,16]],
  "14":[[5,58],[7,45],[12,12],[14,9],[16,34],[18,15]],
  "15":[[6,0],[7,47],[12,12],[14,8],[16,33],[18,14]],
  "16":[[6,1],[7,49],[12,12],[14,7],[16,31],[18,13]],
  "17":[[6,3],[7,51],[12,12],[14,6],[16,30],[18,11]],
  "18":[[6,4],[7,53],[12,12],[14,5],[16,28],[18,10]],
  "19":[[6,6],[7,54],[12,13],[14,4],[16,27],[18,9]],
  "20":[[6,7],[7,56],[12,13],[14,3],[16,25],[18,8]],
  "21":[[6,9],[7,58],[12,13],[14,2],[16,24],[18,7]],
  "22":[[6,10],[8,0],[12,13],[14,1],[16,23],[18,6]],
  "23":[[6,12],[8,2],[12,14],[14,0],[16,22],[18,5]],
  "24":[[6,13],[8,3],[12,14],[13,59],[16,21],[18,4]],
  "25":[[6,15],[8,5],[12,14],[13,58],[16,19],[18,4]],
  "26":[[6,16],[8,7],[12,15],[13,58],[16,18],[18,3]],
  "27":[[6,18],[8,9],[12,15],[13,57],[16,17],[18,2]],
  "28":[[6,19],[8,10],[12,15],[13,56],[16,16],[18,1]],
  "29":[[6,20],[8,12],[12,16],[13,56],[16,15],[18,1]],
  "30":[[6,22],[8,13],[12,16],[13,55],[16,15],[18,0]]
},
"12": {
  "1":[[6,23],[8,15],[12,16],[13,55],[16,14],[18,0]],
  "2":[[6,24],[8,17],[12,17],[13,54],[16,13],[17,59]],
  "3":[[6,26],[8,18],[12,17],[13,54],[16,12],[17,59]],
  "4":[[6,27],[8,20],[12,18],[13,53],[16,12],[17,58]],
  "5":[[6,28],[8,21],[12,18],[13,53],[16,11],[17,58]],
  "6":[[6,29],[8,22],[12,18],[13,53],[16,10],[17,57]],
  "7":[[6,30],[8,24],[12,19],[13,52],[16,10],[17,57]],
  "8":[[6,31],[8,25],[12,19],[13,52],[16,10],[17,57]],
  "9":[[6,32],[8,26],[12,20],[13,52],[16,9],[17,57]],
  "10":[[6,33],[8,27],[12,20],[13,52],[16,9],[17,57]],
  "11":[[6,34],[8,29],[12,21],[13,52],[16,9],[17,56]],
  "12":[[6,35],[8,30],[12,21],[13,52],[16,8],[17,56]],
  "13":[[6,36],[8,31],[12,22],[13,52],[16,8],[17,56]],
  "14":[[6,37],[8,32],[12,22],[13,52],[16,8],[17,56]],
  "15":[[6,38],[8,33],[12,23],[13,52],[16,8],[17,57]],
  "16":[[6,39],[8,34],[12,23],[13,52],[16,8],[17,57]],
  "17":[[6,40],[8,34],[12,23],[13,52],[16,8],[17,57]],
  "18":[[6,40],[8,35],[12,24],[13,53],[16,9],[17,57]],
  "19":[[6,41],[8,36],[12,24],[13,53],[16,9],[17,57]],
  "20":[[6,42],[8,37],[12,25],[13,53],[16,9],[17,58]],
  "21":[[6,42],[8,37],[12,25],[13,54],[16,10],[17,58]],
  "22":[[6,43],[8,38],[12,26],[13,54],[16,10],[17,59]],
  "23":[[6,43],[8,38],[12,26],[13,55],[16,10],[17,59]],
  "24":[[6,44],[8,39],[12,27],[13,55],[16,11],[18,0]],
  "25":[[6,44],[8,39],[12,27],[13,56],[16,12],[18,0]],
  "26":[[6,44],[8,39],[12,28],[13,56],[16,12],[18,1]],
  "27":[[6,45],[8,40],[12,28],[13,57],[16,13],[18,2]],
  "28":[[6,45],[8,40],[12,29],[13,58],[16,14],[18,2]],
  "29":[[6,45],[8,40],[12,29],[13,58],[16,15],[18,3]],
  "30":[[6,45],[8,40],[12,30],[13,59],[16,16],[18,4]],
  "31":[[6,45],[8,40],[12,30],[14,0],[16,16],[18,5]]
}
}
