{
"1": {
  "1":[[6,46],[8,41],[12,32],[14,3],[16,19],[18,7]],
  "2":[[6,46],[8,40],[12,32],[14,4],[16,20],[18,8]],
  "3":[[6,46],[8,40],[12,33],[14,5],[16,22],[18,9]],
  "4":[[6,46],[8,40],[12,33],[14,6],[16,23],[18,10]],
  "5":[[6,46],[8,40],[12,34],[14,7],[16,24],[18,11]],
  "6":[[6,46],[8,39],[12,34],[14,8],[16,25],[18,12]],
  "7":[[6,46],[8,39],[12,35],[14,9],[16,26],[18,13]],
  "8":[[6,45],[8,38],[12,35],[14,10],[16,28],[18,15]],
  "9":[[6,45],[8,38],[12,35],[14,11],[16,29],[18,16]],
  "10":[[6,44],[8,37],[12,36],[14,12],[16,31],[18,17]],
  "11":[[6,44],[8,36],[12,36],[14,13],[16,32],[18,18]],
  "12":[[6,43],[8,36],[12,37],[14,15],[16,34],[18,19]],
  "13":[[6,43],[8,35],[12,37],[14,16],[16,35],[18,21]],
  "14":[[6,42],[8,34],[12,37],[14,17],[16,37],[18,22]],
  "15":[[6,42],[8,33],[12,38],[14,18],[16,38],[18,23]],
  "16":[[6,41],[8,32],[12,38],[14,20],[16,40],[18,25]],
  "17":[[6,40],[8,31],[12,38],[14,21],[16,42],[18,26]],
  "18":[[6,40],[8,30],[12,39],[14,23],[16,43],[18,28]],
  "19":[[6,39],[8,29],[12,39],[14,24],[16,45],[18,29]],
  "20":[[6,38],[8,28],[12,39],[14,25],[16,47],[18,31]],
  "21":[[6,37],[8,27],[12,40],[14,27],[16,49],[18,32]],
  "22":[[6,36],[8,25],[12,40],[14,28],[16,50],[18,34]],
  "23":[[6,35],[8,24],[12,40],[14,30],[16,52],[18,35]],
  "24":[[6,34],[8,23],[12,40],[14,31],[16,54],[18,37]],
  "25":[[6,33],[8,21],[12,41],[14,33],[16,56],[18,38]],
  "26":[[6,32],[8,20],[12,41],[14,34],[16,58],[18,40]],
  "27":[[6,31],[8,18],[12,41],[14,36],[17,0],[18,41]],
  "28":[[6,29],[8,17],[12,41],[14,37],[17,2],[18,43]],
  "29":[[6,28],[8,15],[12,41],[14,39],[17,4],[18,45]],
  "30":[[6,27],[8,14],[12,42],[14,40],[17,5],[18,46]],
  "31":[[6,26],[8,12],[12,42],[14,42],[17,7],[18,48]]
},
"2": {
  "1":[[6,24],[8,11],[12,42],[14,43],[17,9],[18,49]],
  "2":[[6,23],[8,9],[12,42],[14,45],[17,11],[18,51]],
  "3":[[6,22],[8,7],[12,42],[14,47],[17,13],[18,53]],
  "4":[[6,20],[8,5],[12,42],[14,48],[17,15],[18,55]],
  "5":[[6,19],[8,4],[12,42],[14,50],[17,17],[18,56]],
  "6":[[6,17],[8,2],[12,43],[14,51],[17,19],[18,58]],
  "7":[[6,16],[8,0],[12,43],[14,53],[17,21],[19,0]],
  "8":[[6,14],[7,58],[12,43],[14,54],[17,23],[19,1]],
  "9":[[6,13],[7,56],[12,43],[14,56],[17,25],[19,3]],
  "10":[[6,11],[7,54],[12,43],[14,58],[17,27],[19,5]],
  "11":[[6,9],[7,52],[12,43],[14,59],[17,29],[19,7]],
  "12":[[6,8],[7,50],[12,43],[15,1],[17,31],[19,8]],
  "13":[[6,6],[7,48],[12,43],[15,2],[17,33],[19,10]],
  "14":[[6,4],[7,46],[12,43],[15,4],[17,35],[19,12]],
  "15":[[6,2],[7,44],[12,43],[15,5],[17,37],[19,13]],
  "16":[[6,1],[7,42],[12,43],[15,7],[17,39],[19,15]],
  "17":[[5,59],[7,40],[12,43],[15,8],[17,41],[19,17]],
  "18":[[5,57],[7,38],[12,43],[15,10],[17,43],[19,19]],
  "19":[[5,55],[7,36],[12,43],[15,11],[17,45],[19,21]],
  "20":[[5,53],[7,34],[12,43],[15,13],[17,47],[19,22]],
  "21":[[5,51],[7,32],[12,43],[15,14],[17,49],[19,24]],
  "22":[[5,49],[7,30],[12,42],[15,16],[17,51],[19,26]],
  "23":[[5,47],[7,27],[12,42],[15,17],[17,53],[19,28]],
  "24":[[5,45],[7,25],[12,42],[15,19],[17,55],[19,29]],
  "25":[[5,43],[7,23],[12,42],[15,20],[17,57],[19,31]],
  "26":[[5,41],[7,21],[12,42],[15,22],[17,59],[19,33]],
  "27":[[5,39],[7,18],[12,42],[15,23],[18,1],[19,35]],
  "28":[[5,37],[7,16],[12,42],[15,25],[18,3],[19,37]]
},
"3": {
  "1":[[5,35],[7,14],[12,41],[15,26],[18,5],[19,38]],
  "2":[[5,33],[7,12],[12,41],[15,27],[18,7],[19,40]],
  "3":[[5,30],[7,9],[12,41],[15,29],[18,9],[19,42]],
  "4":[[5,28],[7,7],[12,41],[15,30],[18,11],[19,44]],
  "5":[[5,26],[7,5],[12,41],[15,32],[18,13],[19,45]],
  "6":[[5,24],[7,2],[12,40],[15,33],[18,15],[19,47]],
  "7":[[5,22],[7,0],[12,40],[15,34],[18,17],[19,49]],
  "8":[[5,19],[6,58],[12,40],[15,36],[18,18],[19,51]],
  "9":[[5,17],[6,55],[12,40],[15,37],[18,20],[19,53]],
  "10":[[5,15],[6,53],[12,40],[15,38],[18,22],[19,54]],
  "11":[[5,12],[6,50],[12,39],[15,39],[18,24],[19,56]],
  "12":[[5,10],[6,48],[12,39],[15,41],[18,26],[19,58]],
  "13":[[5,8],[6,46],[12,39],[15,42],[18,28],[20,0]],
  "14":[[5,5],[6,43],[12,38],[15,43],[18,30],[20,2]],
  "15":[[5,3],[6,41],[12,38],[15,44],[18,32],[20,4]],
  "16":[[5,1],[6,38],[12,38],[15,46],[18,33],[20,5]],
  "17":[[4,58],[6,36],[12,38],[15,47],[18,35],[20,7]],
  "18":[[4,56],[6,33],[12,37],[15,48],[18,37],[20,9]],
  "19":[[4,53],[6,31],[12,37],[15,49],[18,39],[20,11]],
  "20":[[4,51],[6,29],[12,37],[15,50],[18,41],[20,13]],
  "21":[[4,48],[6,26],[12,36],[15,51],[18,43],[20,15]],
  "22":[[4,46],[6,24],[12,36],[15,53],[18,45],[20,16]],
  "23":[[4,43],[6,21],[12,36],[15,54],[18,46],[20,18]],
  "24":[[4,41],[6,19],[12,35],[15,55],[18,48],[20,20]],
  "25":[[4,44],[6,16],[12,35],[15,56],[18,50],[20,22]],
  "26":[[4,36],[6,14],[12,35],[15,57],[18,52],[20,24]],
  "27":[[4,33],[6,11],[12,35],[15,58],[18,54],[20,26]],
  "28":[[4,31],[6,9],[12,34],[15,59],[18,56],[20,28]],
  "29":[[4,28],[6,6],[12,34],[16,0],[18,57],[20,29]],
  "30":[[4,26],[6,4],[12,34],[16,1],[18,59],[20,31]],
  "31":[[4,23],[6,1],[12,33],[16,2],[19,1],[20,33]]
},
"4": {
  "1":[[4,21],[5,59],[12,33],[16,3],[19,3],[20,35]],
  "2":[[4,18],[5,57],[12,33],[16,4],[19,5],[20,37]],
  "3":[[4,15],[5,54],[12,32],[16,5],[19,7],[20,39]],
  "4":[[4,13],[5,52],[12,32],[16,6],[19,8],[20,41]],
  "5":[[4,10],[5,49],[12,32],[16,7],[19,10],[20,43]],
  "6":[[4,8],[5,47],[12,31],[16,8],[19,12],[20,45]],
  "7":[[4,5],[5,44],[12,31],[16,9],[19,14],[20,47]],
  "8":[[4,2],[5,42],[12,31],[16,10],[19,16],[20,49]],
  "9":[[4,0],[5,40],[12,30],[16,11],[19,17],[20,51]],
  "10":[[3,57],[5,37],[12,30],[16,12],[19,19],[20,53]],
  "11":[[3,55],[5,35],[12,30],[16,13],[19,21],[20,55]],
  "12":[[3,52],[5,32],[12,30],[16,14],[19,23],[20,57]],
  "13":[[3,49],[5,30],[12,29],[16,14],[19,25],[20,59]],
  "14":[[3,47],[5,28],[12,29],[16,15],[19,27],[21,1]],
  "15":[[3,44],[5,25],[12,29],[16,16],[19,28],[21,3]],
  "16":[[3,42],[5,23],[12,29],[16,17],[19,30],[21,5]],
  "17":[[3,39],[5,21],[12,28],[16,18],[19,32],[21,7]],
  "18":[[3,37],[5,18],[12,28],[16,19],[19,34],[21,9]],
  "19":[[3,34],[5,16],[12,28],[16,20],[19,36],[21,11]],
  "20":[[3,31],[5,14],[12,28],[16,21],[19,38],[21,13]],
  "21":[[3,29],[5,11],[12,27],[16,21],[19,39],[21,15]],
  "22":[[3,26],[5,9],[12,27],[16,22],[19,41],[21,17]],
  "23":[[3,24],[5,7],[12,27],[16,23],[19,43],[21,19]],
  "24":[[3,21],[5,5],[12,27],[16,24],[19,45],[21,22]],
  "25":[[3,19],[5,3],[12,27],[16,25],[19,47],[21,24]],
  "26":[[3,16],[5,0],[12,26],[16,25],[19,49],[21,26]],
  "27":[[3,14],[4,58],[12,26],[16,26],[19,50],[21,28]],
  "28":[[3,11],[4,56],[12,26],[16,27],[19,52],[21,30]],
  "29":[[3,9],[4,54],[12,26],[16,28],[19,54],[21,32]],
  "30":[[3,6],[4,52],[12,26],[16,29],[19,56],[21,34]]
},
"5": {
  "1":[[3,4],[4,50],[12,26],[16,29],[19,58],[21,36]],
  "2":[[3,1],[4,48],[12,26],[16,30],[19,59],[21,39]],
  "3":[[2,59],[4,46],[12,25],[16,31],[20,1],[21,41]],
  "4":[[2,56],[4,44],[12,25],[16,32],[20,3],[21,43]],
  "5":[[2,54],[4,42],[12,25],[16,32],[20,5],[21,45]],
  "6":[[2,52],[4,40],[12,25],[16,33],[20,7],[21,47]],
  "7":[[2,49],[4,38],[12,25],[16,34],[20,9],[21,49]],
  "8":[[2,47],[4,36],[12,25],[16,35],[20,10],[21,52]],
  "9":[[2,45],[4,34],[12,25],[16,35],[20,12],[21,54]],
  "10":[[2,42],[4,32],[12,25],[16,36],[20,14],[21,56]],
  "11":[[2,40],[4,30],[12,25],[16,37],[20,16],[21,58]],
  "12":[[2,38],[4,29],[12,25],[16,38],[20,17],[22,0]],
  "13":[[2,36],[4,27],[12,25],[16,38],[20,19],[22,2]],
  "14":[[2,34],[4,25],[12,25],[16,39],[20,21],[22,4]],
  "15":[[2,31],[4,23],[12,25],[16,40],[20,23],[22,6]],
  "16":[[2,29],[4,22],[12,25],[16,40],[20,24],[22,8]],
  "17":[[2,27],[4,20],[12,25],[16,41],[20,26],[22,11]],
  "18":[[2,25],[4,19],[12,25],[16,42],[20,28],[22,13]],
  "19":[[2,23],[4,17],[12,25],[16,42],[20,29],[22,14]],
  "20":[[2,21],[4,16],[12,25],[16,43],[20,31],[22,15]],
  "21":[[2,19],[4,14],[12,25],[16,44],[20,32],[22,15]],
  "22":[[2,17],[4,13],[12,25],[16,44],[20,34],[22,15]],
  "23":[[2,15],[4,11],[12,25],[16,45],[20,36],[22,16]],
  "24":[[2,14],[4,10],[12,26],[16,45],[20,37],[22,16]],
  "25":[[2,12],[4,9],[12,26],[16,46],[20,39],[22,16]],
  "26":[[2,10],[4,7],[12,26],[16,47],[20,40],[22,17]],
  "27":[[2,8],[4,6],[12,26],[16,47],[20,41],[22,17]],
  "28":[[2,7],[4,5],[12,26],[16,48],[20,43],[22,17]],
  "29":[[2,5],[4,4],[12,26],[16,48],[20,44],[22,18]],
  "30":[[2,4],[4,3],[12,26],[16,49],[20,46],[22,18]],
  "31":[[2,2],[4,2],[12,26],[16,50],[20,47],[22,18]]
},
"6": {
  "1":[[2,1],[4,1],[12,27],[16,50],[20,48],[22,18]],
  "2":[[1,59],[4,0],[12,27],[16,51],[20,49],[22,19]],
  "3":[[1,58],[3,59],[12,27],[16,51],[20,51],[22,21]],
  "4":[[1,57],[3,58],[12,27],[16,52],[20,52],[22,22]],
  "5":[[1,56],[3,58],[12,27],[16,52],[20,53],[22,23]],
  "6":[[1,55],[3,57],[12,27],[16,53],[20,54],[22,24]],
  "7":[[1,54],[3,56],[12,28],[16,53],[20,55],[22,25]],
  "8":[[1,53],[3,56],[12,28],[16,53],[20,56],[22,26]],
  "9":[[1,52],[3,55],[12,28],[16,54],[20,57],[22,27]],
  "10":[[1,51],[3,54],[12,28],[16,54],[20,58],[22,28]],
  "11":[[1,50],[3,54],[12,28],[16,55],[20,59],[22,29]],
  "12":[[1,49],[3,54],[12,29],[16,55],[20,59],[22,29]],
  "13":[[1,49],[3,53],[12,29],[16,55],[21,0],[22,30]],
  "14":[[1,48],[3,53],[12,29],[16,56],[21,1],[22,31]],
  "15":[[1,48],[3,53],[12,29],[16,56],[21,2],[22,32]],
  "16":[[1,48],[3,53],[12,29],[16,56],[21,2],[22,32]],
  "17":[[1,47],[3,53],[12,30],[16,57],[21,3],[22,33]],
  "18":[[1,47],[3,52],[12,30],[16,57],[21,3],[22,33]],
  "19":[[1,47],[3,52],[12,30],[16,57],[21,3],[22,33]],
  "20":[[1,47],[3,53],[12,30],[16,58],[21,4],[22,35]],
  "21":[[1,47],[3,53],[12,30],[16,58],[21,4],[22,34]],
  "22":[[1,47],[3,53],[12,31],[16,58],[21,4],[22,34]],
  "23":[[1,48],[3,53],[12,31],[16,58],[21,4],[22,34]],
  "24":[[1,48],[3,53],[12,31],[16,58],[21,5],[22,35]],
  "25":[[1,48],[3,54],[12,31],[16,59],[21,5],[22,35]],
  "26":[[1,49],[3,54],[12,31],[16,59],[21,5],[22,35]],
  "27":[[1,49],[3,55],[12,32],[16,59],[21,5],[22,35]],
  "28":[[1,50],[3,55],[12,32],[16,59],[21,4],[22,34]],
  "29":[[1,51],[3,56],[12,32],[16,59],[21,4],[22,34]],
  "30":[[1,52],[3,56],[12,32],[16,59],[21,4],[22,34]]
},
"7": {
  "1":[[1,52],[3,57],[12,32],[16,59],[21,4],[22,34]],
  "2":[[1,53],[3,58],[12,32],[16,59],[21,3],[22,33]],
  "3":[[1,55],[3,58],[12,33],[16,59],[21,3],[22,33]],
  "4":[[1,56],[3,59],[12,33],[16,59],[21,2],[22,32]],
  "5":[[1,57],[4,0],[12,33],[16,59],[21,2],[22,32]],
  "6":[[1,58],[4,1],[12,33],[16,59],[21,1],[22,31]],
  "7":[[1,59],[4,2],[12,33],[16,59],[21,1],[22,31]],
  "8":[[2,1],[4,3],[12,33],[16,59],[21,0],[22,30]],
  "9":[[2,2],[4,4],[12,34],[16,58],[20,59],[22,30]],
  "10":[[2,4],[4,5],[12,34],[16,58],[20,58],[22,30]],
  "11":[[2,5],[4,6],[12,34],[16,58],[20,58],[22,29]],
  "12":[[2,7],[4,7],[12,34],[16,58],[20,57],[22,29]],
  "13":[[2,8],[4,8],[12,34],[16,58],[20,56],[22,29]],
  "14":[[2,10],[4,10],[12,34],[16,57],[20,55],[22,28]],
  "15":[[2,12],[4,11],[12,34],[16,57],[20,54],[22,28]],
  "16":[[2,13],[4,12],[12,34],[16,57],[20,53],[22,28]],
  "17":[[2,15],[4,14],[12,34],[16,56],[20,51],[22,27]],
  "18":[[2,17],[4,15],[12,35],[16,56],[20,50],[22,27]],
  "19":[[2,19],[4,16],[12,35],[16,56],[20,49],[22,27]],
  "20":[[2,21],[4,18],[12,35],[16,55],[20,48],[22,27]],
  "21":[[2,23],[4,19],[12,35],[16,55],[20,46],[22,26]],
  "22":[[2,25],[4,21],[12,35],[16,54],[20,45],[22,26]],
  "23":[[2,27],[4,22],[12,35],[16,54],[20,44],[22,26]],
  "24":[[2,29],[4,24],[12,35],[16,53],[20,42],[22,25]],
  "25":[[2,31],[4,25],[12,35],[16,53],[20,41],[22,25]],
  "26":[[2,33],[4,27],[12,35],[16,52],[20,39],[22,25]],
  "27":[[2,35],[4,28],[12,35],[16,52],[20,37],[22,23]],
  "28":[[2,37],[4,30],[12,35],[16,51],[20,36],[22,21]],
  "29":[[2,39],[4,32],[12,35],[16,50],[20,34],[22,19]],
  "30":[[2,41],[4,33],[12,35],[16,50],[20,33],[22,17]],
  "31":[[2,43],[4,35],[12,35],[16,49],[20,31],[22,14]]
},
"8": {
  "1":[[2,45],[4,36],[12,35],[16,48],[20,29],[22,12]],
  "2":[[2,47],[4,38],[12,35],[16,47],[20,27],[22,10]],
  "3":[[2,50],[4,40],[12,35],[16,47],[20,26],[22,8]],
  "4":[[2,52],[4,42],[12,35],[16,46],[20,24],[22,6]],
  "5":[[2,54],[4,43],[12,35],[16,45],[20,22],[22,4]],
  "6":[[2,56],[4,45],[12,34],[16,44],[20,20],[22,1]],
  "7":[[2,58],[4,47],[12,34],[16,43],[20,18],[21,59]],
  "8":[[3,0],[4,48],[12,34],[16,42],[20,16],[21,57]],
  "9":[[3,2],[4,50],[12,34],[16,41],[20,14],[21,54]],
  "10":[[3,5],[4,52],[12,34],[16,41],[20,12],[21,52]],
  "11":[[3,7],[4,54],[12,34],[16,40],[20,10],[21,50]],
  "12":[[3,9],[4,55],[12,34],[16,39],[20,8],[21,47]],
  "13":[[3,11],[4,57],[12,34],[16,38],[20,6],[21,45]],
  "14":[[3,13],[4,59],[12,33],[16,37],[20,4],[21,43]],
  "15":[[3,15],[5,1],[12,33],[16,35],[20,2],[21,40]],
  "16":[[3,18],[5,3],[12,33],[16,34],[20,0],[21,38]],
  "17":[[3,20],[5,4],[12,33],[16,33],[19,58],[21,35]],
  "18":[[3,22],[5,6],[12,33],[16,32],[19,55],[21,33]],
  "19":[[3,24],[5,8],[12,33],[16,31],[19,53],[21,30]],
  "20":[[3,26],[5,10],[12,32],[16,30],[19,51],[21,28]],
  "21":[[3,28],[5,11],[12,32],[16,29],[19,49],[21,25]],
  "22":[[3,30],[5,13],[12,32],[16,27],[19,47],[21,23]],
  "23":[[3,32],[5,15],[12,32],[16,26],[19,44],[21,20]],
  "24":[[3,34],[5,17],[12,31],[16,25],[19,42],[21,18]],
  "25":[[3,36],[5,19],[12,31],[16,23],[19,40],[21,15]],
  "26":[[3,39],[5,20],[12,31],[16,22],[19,38],[21,13]],
  "27":[[3,41],[5,22],[12,31],[16,21],[19,35],[21,10]],
  "28":[[3,43],[5,24],[12,30],[16,19],[19,33],[21,8]],
  "29":[[3,45],[5,26],[12,30],[16,18],[19,31],[21,5]],
  "30":[[3,47],[5,27],[12,30],[16,17],[19,28],[21,3]],
  "31":[[3,49],[5,29],[12,30],[16,15],[19,26],[21,0]]
},
"9": {
  "1":[[3,51],[5,31],[12,29],[16,14],[19,24],[20,58]],
  "2":[[3,53],[5,33],[12,29],[16,12],[19,21],[20,55]],
  "3":[[3,55],[5,35],[12,29],[16,11],[19,19],[20,52]],
  "4":[[3,57],[5,36],[12,28],[16,9],[19,16],[20,50]],
  "5":[[3,59],[5,38],[12,28],[16,8],[19,14],[20,47]],
  "6":[[4,0],[5,40],[12,28],[16,6],[19,12],[20,45]],
  "7":[[4,2],[5,42],[12,27],[16,5],[19,9],[20,42]],
  "8":[[4,4],[5,43],[12,27],[16,3],[19,7],[20,40]],
  "9":[[4,6],[5,45],[12,27],[16,2],[19,4],[20,37]],
  "10":[[4,8],[5,47],[12,26],[16,0],[19,2],[20,34]],
  "11":[[4,10],[5,49],[12,26],[15,58],[18,59],[20,32]],
  "12":[[4,12],[5,50],[12,26],[15,57],[18,57],[20,29]],
  "13":[[4,14],[5,52],[12,25],[15,55],[18,54],[20,27]],
  "14":[[4,16],[5,54],[12,25],[15,53],[18,52],[20,24]],
  "15":[[4,17],[5,56],[12,25],[15,52],[18,50],[20,22]],
  "16":[[4,19],[5,57],[12,24],[15,50],[18,47],[20,19]],
  "17":[[4,21],[5,59],[12,24],[15,48],[18,45],[20,17]],
  "18":[[4,23],[6,1],[12,23],[15,47],[18,42],[20,14]],
  "19":[[4,25],[6,3],[12,23],[15,45],[18,40],[20,11]],
  "20":[[4,27],[6,4],[12,23],[15,43],[18,37],[20,9]],
  "21":[[4,28],[6,6],[12,22],[15,41],[18,35],[20,6]],
  "22":[[4,30],[6,8],[12,22],[15,40],[18,32],[20,4]],
  "23":[[4,32],[6,10],[12,22],[15,38],[18,30],[20,1]],
  "24":[[4,34],[6,11],[12,21],[15,36],[18,27],[19,59]],
  "25":[[4,35],[6,13],[12,21],[15,34],[18,25],[19,56]],
  "26":[[4,37],[6,15],[12,21],[15,32],[18,22],[19,54]],
  "27":[[4,39],[6,17],[12,20],[15,31],[18,20],[19,51]],
  "28":[[4,41],[6,18],[12,20],[15,29],[18,17],[19,49]],
  "29":[[4,42],[6,20],[12,19],[15,27],[18,15],[19,47]],
  "30":[[4,44],[6,22],[12,19],[15,25],[18,12],[19,44]]
},
"10": {
  "1":[[4,46],[6,24],[12,19],[15,23],[18,10],[19,42]],
  "2":[[4,48],[6,25],[12,18],[15,21],[18,7],[19,39]],
  "3":[[4,49],[6,27],[12,18],[15,20],[18,5],[19,37]],
  "4":[[4,51],[6,29],[12,18],[15,18],[18,2],[19,35]],
  "5":[[4,53],[6,31],[12,17],[15,16],[18,0],[19,32]],
  "6":[[4,54],[6,33],[12,17],[15,14],[17,58],[19,30]],
  "7":[[4,56],[6,34],[12,17],[15,12],[17,55],[19,28]],
  "8":[[4,58],[6,36],[12,16],[15,10],[17,53],[19,25]],
  "9":[[4,59],[6,38],[12,16],[15,9],[17,50],[19,23]],
  "10":[[5,1],[6,40],[12,16],[15,7],[17,48],[19,21]],
  "11":[[5,3],[6,42],[12,15],[15,5],[17,45],[19,18]],
  "12":[[5,4],[6,43],[12,15],[15,3],[17,43],[19,16]],
  "13":[[5,6],[6,45],[12,15],[15,1],[17,41],[19,14]],
  "14":[[5,8],[6,47],[12,15],[14,59],[17,38],[19,12]],
  "15":[[5,10],[6,49],[12,14],[14,58],[17,36],[19,10]],
  "16":[[5,11],[6,51],[12,14],[14,56],[17,34],[19,7]],
  "17":[[5,13],[6,53],[12,14],[14,54],[17,31],[19,5]],
  "18":[[5,15],[6,54],[12,14],[14,52],[17,29],[19,3]],
  "19":[[5,16],[6,56],[12,14],[14,50],[17,27],[19,1]],
  "20":[[5,18],[6,58],[12,13],[14,49],[17,25],[18,59]],
  "21":[[5,20],[7,0],[12,13],[14,47],[17,22],[18,57]],
  "22":[[5,21],[7,2],[12,13],[14,45],[17,20],[18,55]],
  "23":[[5,23],[7,4],[12,13],[14,43],[17,18],[18,53]],
  "24":[[5,25],[7,6],[12,13],[14,42],[17,16],[18,51]],
  "25":[[5,26],[7,8],[12,13],[14,40],[17,14],[18,49]],
  "26":[[5,28],[7,9],[12,12],[14,38],[17,11],[18,47]],
  "27":[[5,30],[7,11],[12,12],[14,37],[17,9],[18,45]],
  "28":[[5,31],[7,13],[12,12],[14,35],[17,7],[18,43]],
  "29":[[5,33],[7,15],[12,12],[14,33],[17,5],[18,41]],
  "30":[[5,35],[7,17],[12,12],[14,32],[17,3],[18,40]],
  "31":[[5,36],[7,19],[12,12],[14,30],[17,1],[18,38]]
},
"11": {
  "1":[[5,38],[7,21],[12,12],[14,29],[16,59],[18,36]],
  "2":[[5,40],[7,23],[12,12],[14,27],[16,57],[18,34]],
  "3":[[5,41],[7,25],[12,12],[14,26],[16,55],[18,33]],
  "4":[[5,43],[7,27],[12,12],[14,24],[16,53],[18,31]],
  "5":[[5,44],[7,29],[12,12],[14,23],[16,51],[18,30]],
  "6":[[5,46],[7,31],[12,12],[14,21],[16,49],[18,28]],
  "7":[[5,48],[7,33],[12,12],[14,20],[16,48],[18,26]],
  "8":[[5,49],[7,35],[12,12],[14,18],[16,46],[18,25]],
  "9":[[5,51],[7,36],[12,12],[14,17],[16,44],[18,23]],
  "10":[[5,53],[7,38],[12,12],[14,16],[16,42],[18,22]],
  "11":[[5,54],[7,40],[12,12],[14,15],[16,41],[18,21]],
  "12":[[5,56],[7,42],[12,13],[14,13],[16,39],[18,19]],
  "13":[[5,58],[7,44],[12,13],[14,12],[16,37],[18,18]],
  "14":[[5,59],[7,46],[12,13],[14,11],[16,36],[18,17]],
  "15":[[6,1],[7,48],[12,13],[14,10],[16,34],[18,15]],
  "16":[[6,2],[7,50],[12,13],[14,9],[16,33],[18,14]],
  "17":[[6,4],[7,52],[12,13],[14,7],[16,31],[18,13]],
  "18":[[6,5],[7,54],[12,14],[14,6],[16,30],[18,12]],
  "19":[[6,7],[7,55],[12,14],[14,5],[16,28],[18,11]],
  "20":[[6,8],[7,57],[12,14],[14,4],[16,27],[18,10]],
  "21":[[6,10],[7,59],[12,14],[14,3],[16,26],[18,9]],
  "22":[[6,11],[8,1],[12,15],[14,3],[16,25],[18,8]],
  "23":[[6,13],[8,3],[12,15],[14,2],[16,23],[18,7]],
  "24":[[6,14],[8,4],[12,15],[14,1],[16,22],[18,6]],
  "25":[[6,16],[8,6],[12,16],[14,0],[16,21],[18,5]],
  "26":[[6,17],[8,8],[12,16],[13,59],[16,20],[18,4]],
  "27":[[6,19],[8,10],[12,16],[13,59],[16,19],[18,4]],
  "28":[[6,20],[8,11],[12,17],[13,58],[16,18],[18,3]],
  "29":[[6,21],[8,13],[12,17],[13,57],[16,17],[18,2]],
  "30":[[6,23],[8,14],[12,17],[13,57],[16,16],[18,2]]
},
"12": {
  "1":[[6,24],[8,16],[12,18],[13,56],[16,15],[18,1]],
  "2":[[6,25],[8,18],[12,18],[13,56],[16,15],[18,1]],
  "3":[[6,27],[8,19],[12,19],[13,55],[16,14],[18,0]],
  "4":[[6,28],[8,21],[12,19],[13,55],[16,13],[18,0]],
  "5":[[6,29],[8,22],[12,19],[13,55],[16,13],[17,59]],
  "6":[[6,30],[8,23],[12,20],[13,54],[16,12],[17,59]],
  "7":[[6,31],[8,25],[12,20],[13,54],[16,12],[17,59]],
  "8":[[6,32],[8,26],[12,21],[13,54],[16,11],[17,58]],
  "9":[[6,34],[8,27],[12,21],[13,54],[16,11],[17,58]],
  "10":[[6,35],[8,28],[12,22],[13,53],[16,11],[17,58]],
  "11":[[6,36],[8,30],[12,22],[13,53],[16,10],[17,58]],
  "12":[[6,36],[8,31],[12,22],[13,53],[16,10],[17,58]],
  "13":[[6,37],[8,32],[12,23],[13,53],[16,10],[17,58]],
  "14":[[6,38],[8,33],[12,23],[13,53],[16,10],[17,58]],
  "15":[[6,39],[8,34],[12,24],[13,54],[16,10],[17,58]],
  "16":[[6,40],[8,35],[12,24],[13,54],[16,10],[17,58]],
  "17":[[6,41],[8,35],[12,25],[13,54],[16,10],[17,59]],
  "18":[[6,41],[8,36],[12,25],[13,54],[16,10],[17,59]],
  "19":[[6,42],[8,37],[12,26],[13,55],[16,11],[17,59]],
  "20":[[6,43],[8,38],[12,26],[13,55],[16,11],[17,59]],
  "21":[[6,43],[8,38],[12,27],[13,55],[16,11],[18,0]],
  "22":[[6,44],[8,39],[12,27],[13,56],[16,12],[18,0]],
  "23":[[6,44],[8,39],[12,28],[13,56],[16,12],[18,1]],
  "24":[[6,45],[8,40],[12,28],[13,57],[16,13],[18,1]],
  "25":[[6,45],[8,40],[12,29],[13,57],[16,13],[18,2]],
  "26":[[6,45],[8,40],[12,29],[13,58],[16,14],[18,2]],
  "27":[[6,46],[8,40],[12,30],[13,59],[16,15],[18,3]],
  "28":[[6,46],[8,41],[12,30],[13,59],[16,15],[18,4]],
  "29":[[6,46],[8,41],[12,31],[14,0],[16,16],[18,5]],
  "30":[[6,46],[8,41],[12,31],[14,1],[16,17],[18,5]],
  "31":[[6,46],[8,41],[12,31],[14,2],[16,18],[18,6]]
}
}
