{
"1": {
  "1":[[6,53],[8,45],[12,44],[14,21],[16,39],[18,25]],
  "2":[[6,53],[8,45],[12,45],[14,22],[16,40],[18,26]],
  "3":[[6,53],[8,45],[12,45],[14,23],[16,41],[18,27]],
  "4":[[6,53],[8,45],[12,45],[14,24],[16,42],[18,28]],
  "5":[[6,53],[8,45],[12,46],[14,25],[16,43],[18,29]],
  "6":[[6,52],[8,44],[12,46],[14,26],[16,44],[18,30]],
  "7":[[6,52],[8,44],[12,47],[14,27],[16,46],[18,31]],
  "8":[[6,52],[8,43],[12,47],[14,28],[16,47],[18,32]],
  "9":[[6,52],[8,43],[12,48],[14,29],[16,48],[18,33]],
  "10":[[6,51],[8,42],[12,48],[14,31],[16,50],[18,34]],
  "11":[[6,51],[8,42],[12,48],[14,32],[16,51],[18,36]],
  "12":[[6,50],[8,41],[12,49],[14,33],[16,52],[18,37]],
  "13":[[6,50],[8,40],[12,49],[14,34],[16,54],[18,38]],
  "14":[[6,49],[8,39],[12,49],[14,35],[16,55],[18,39]],
  "15":[[6,49],[8,39],[12,50],[14,37],[16,57],[18,41]],
  "16":[[6,48],[8,38],[12,50],[14,38],[16,59],[18,42]],
  "17":[[6,47],[8,37],[12,50],[14,39],[17,0],[18,43]],
  "18":[[6,47],[8,36],[12,51],[14,41],[17,2],[18,45]],
  "19":[[6,46],[8,35],[12,51],[14,42],[17,3],[18,46]],
  "20":[[6,45],[8,34],[12,51],[14,43],[17,5],[18,47]],
  "21":[[6,44],[8,33],[12,52],[14,45],[17,7],[18,49]],
  "22":[[6,44],[8,31],[12,52],[14,46],[17,8],[18,50]],
  "23":[[6,43],[8,30],[12,52],[14,48],[17,10],[18,52]],
  "24":[[6,42],[8,29],[12,52],[14,49],[17,12],[18,53]],
  "25":[[6,41],[8,28],[12,53],[14,50],[17,2],[18,55]],
  "26":[[6,40],[8,26],[12,53],[14,52],[17,15],[18,56]],
  "27":[[6,39],[8,25],[12,53],[14,53],[17,17],[18,58]],
  "28":[[6,38],[8,24],[12,53],[14,55],[17,19],[18,59]],
  "29":[[6,36],[8,22],[12,54],[14,56],[17,21],[19,1]],
  "30":[[6,35],[8,21],[12,54],[14,58],[17,23],[19,2]],
  "31":[[6,34],[8,19],[12,54],[14,59],[17,25],[19,4]]
},
"2": {
  "1":[[6,33],[8,18],[12,54],[15,1],[17,26],[19,5]],
  "2":[[6,31],[8,16],[12,54],[15,2],[17,28],[19,7]],
  "3":[[6,30],[8,15],[12,54],[15,4],[17,30],[19,9]],
  "4":[[6,29],[8,13],[12,54],[15,5],[17,32],[19,10]],
  "5":[[6,27],[8,11],[12,55],[15,7],[17,34],[19,12]],
  "6":[[6,26],[8,10],[12,55],[15,8],[17,36],[19,13]],
  "7":[[6,25],[8,8],[12,55],[15,10],[17,38],[19,15]],
  "8":[[6,23],[8,6],[12,55],[15,11],[17,40],[19,17]],
  "9":[[6,22],[8,4],[12,55],[15,13],[17,41],[19,18]],
  "10":[[6,20],[8,3],[12,55],[15,2],[17,43],[19,20]],
  "11":[[6,18],[8,1],[12,55],[15,16],[17,45],[19,22]],
  "12":[[6,17],[7,59],[12,55],[15,17],[17,47],[19,23]],
  "13":[[6,15],[7,57],[12,55],[15,19],[17,49],[19,25]],
  "14":[[6,2],[7,55],[12,55],[15,20],[17,51],[19,27]],
  "15":[[6,12],[7,53],[12,55],[15,22],[17,53],[19,28]],
  "16":[[6,10],[7,51],[12,55],[15,23],[17,55],[19,30]],
  "17":[[6,8],[7,49],[12,55],[15,25],[17,57],[19,32]],
  "18":[[6,7],[7,47],[12,55],[15,26],[17,58],[19,33]],
  "19":[[6,5],[7,45],[12,55],[15,27],[18,0],[19,35]],
  "20":[[6,3],[7,43],[12,55],[15,29],[18,2],[19,37]],
  "21":[[6,1],[7,41],[12,55],[15,30],[18,4],[19,38]],
  "22":[[5,59],[7,39],[12,55],[15,32],[18,6],[19,40]],
  "23":[[5,57],[7,37],[12,54],[15,33],[18,8],[19,42]],
  "24":[[5,55],[7,35],[12,54],[15,34],[18,10],[19,43]],
  "25":[[5,53],[7,33],[12,54],[15,36],[18,12],[19,45]],
  "26":[[5,51],[7,31],[12,54],[15,37],[18,13],[19,47]],
  "27":[[5,49],[7,28],[12,54],[15,39],[18,15],[19,48]],
  "28":[[5,47],[7,26],[12,54],[15,40],[18,17],[19,50]]
},
"3": {
  "1":[[5,45],[7,24],[12,54],[15,41],[18,19],[19,52]],
  "2":[[5,43],[7,22],[12,53],[15,43],[18,21],[19,54]],
  "3":[[5,41],[7,20],[12,53],[15,44],[18,23],[19,55]],
  "4":[[5,39],[7,17],[12,53],[15,45],[18,24],[19,57]],
  "5":[[5,37],[7,15],[12,53],[15,46],[18,26],[19,59]],
  "6":[[5,35],[7,13],[12,53],[15,48],[18,28],[20,0]],
  "7":[[5,33],[7,11],[12,52],[15,49],[18,30],[20,2]],
  "8":[[5,31],[7,8],[12,52],[15,50],[18,32],[20,4]],
  "9":[[5,28],[7,6],[12,52],[15,51],[18,33],[20,6]],
  "10":[[5,26],[7,4],[12,52],[15,53],[18,35],[20,7]],
  "11":[[5,24],[7,2],[12,51],[15,54],[18,37],[20,9]],
  "12":[[5,22],[6,59],[12,51],[15,55],[18,39],[20,11]],
  "13":[[5,19],[6,57],[12,51],[15,56],[18,41],[20,12]],
  "14":[[5,17],[6,55],[12,51],[15,57],[18,42],[20,2]],
  "15":[[5,15],[6,52],[12,50],[15,58],[18,44],[20,16]],
  "16":[[5,12],[6,50],[12,50],[16,0],[18,46],[20,18]],
  "17":[[5,10],[6,48],[12,50],[16,1],[18,48],[20,19]],
  "18":[[5,8],[6,45],[12,49],[16,2],[18,49],[20,21]],
  "19":[[5,5],[6,43],[12,49],[16,3],[18,51],[20,23]],
  "20":[[5,3],[6,41],[12,49],[16,4],[18,53],[20,25]],
  "21":[[5,1],[6,38],[12,49],[16,5],[18,55],[20,26]],
  "22":[[4,58],[6,36],[12,48],[16,6],[18,56],[20,28]],
  "23":[[4,56],[6,34],[12,48],[16,7],[18,58],[20,30]],
  "24":[[4,53],[6,31],[12,48],[16,8],[19,0],[20,32]],
  "25":[[4,44],[6,29],[12,47],[16,9],[19,2],[20,34]],
  "26":[[4,48],[6,27],[12,47],[16,10],[19,3],[20,35]],
  "27":[[4,46],[6,24],[12,47],[16,11],[19,5],[20,37]],
  "28":[[4,44],[6,22],[12,46],[16,12],[19,7],[20,39]],
  "29":[[4,41],[6,20],[12,46],[16,13],[19,8],[20,41]],
  "30":[[4,39],[6,17],[12,46],[16,2],[19,10],[20,43]],
  "31":[[4,36],[6,15],[12,45],[16,15],[19,12],[20,44]]
},
"4": {
  "1":[[4,34],[6,12],[12,45],[16,16],[19,2],[20,46]],
  "2":[[4,31],[6,10],[12,45],[16,17],[19,15],[20,48]],
  "3":[[4,29],[6,8],[12,44],[16,18],[19,17],[20,50]],
  "4":[[4,26],[6,5],[12,44],[16,19],[19,19],[20,52]],
  "5":[[4,24],[6,3],[12,44],[16,20],[19,20],[20,54]],
  "6":[[4,21],[6,1],[12,43],[16,21],[19,22],[20,56]],
  "7":[[4,19],[5,58],[12,43],[16,21],[19,24],[20,58]],
  "8":[[4,16],[5,56],[12,43],[16,22],[19,26],[20,59]],
  "9":[[4,13],[5,54],[12,43],[16,23],[19,27],[21,1]],
  "10":[[4,11],[5,52],[12,42],[16,24],[19,29],[21,3]],
  "11":[[4,8],[5,49],[12,42],[16,25],[19,31],[21,5]],
  "12":[[4,6],[5,47],[12,42],[16,26],[19,32],[21,7]],
  "13":[[4,3],[5,45],[12,41],[16,26],[19,34],[21,9]],
  "14":[[4,1],[5,42],[12,41],[16,27],[19,36],[21,11]],
  "15":[[3,58],[5,40],[12,41],[16,28],[19,38],[21,13]],
  "16":[[3,56],[5,38],[12,41],[16,29],[19,39],[21,15]],
  "17":[[3,53],[5,36],[12,40],[16,30],[19,41],[21,17]],
  "18":[[3,51],[5,34],[12,40],[16,30],[19,43],[21,19]],
  "19":[[3,48],[5,31],[12,40],[16,31],[19,45],[21,21]],
  "20":[[3,46],[5,29],[12,40],[16,32],[19,46],[21,23]],
  "21":[[3,43],[5,27],[12,39],[16,33],[19,48],[21,25]],
  "22":[[3,41],[5,25],[12,39],[16,34],[19,50],[21,27]],
  "23":[[3,38],[5,23],[12,39],[16,34],[19,51],[21,29]],
  "24":[[3,36],[5,21],[12,39],[16,35],[19,53],[21,31]],
  "25":[[3,33],[5,19],[12,39],[16,36],[19,55],[21,33]],
  "26":[[3,31],[5,16],[12,39],[16,37],[19,57],[21,35]],
  "27":[[3,28],[5,2],[12,38],[16,37],[19,58],[21,37]],
  "28":[[3,26],[5,12],[12,38],[16,38],[20,0],[21,39]],
  "29":[[3,23],[5,10],[12,38],[16,39],[20,2],[21,41]],
  "30":[[3,21],[5,8],[12,38],[16,40],[20,3],[21,44]]
},
"5": {
  "1":[[3,19],[5,6],[12,38],[16,40],[20,5],[21,46]],
  "2":[[3,16],[5,4],[12,38],[16,41],[20,7],[21,48]],
  "3":[[3,2],[5,3],[12,38],[16,42],[20,9],[21,50]],
  "4":[[3,11],[5,1],[12,37],[16,42],[20,10],[21,52]],
  "5":[[3,9],[4,59],[12,37],[16,43],[20,12],[21,54]],
  "6":[[3,7],[4,57],[12,37],[16,44],[20,2],[21,56]],
  "7":[[3,4],[4,55],[12,37],[16,44],[20,15],[21,58]],
  "8":[[3,2],[4,53],[12,37],[16,45],[20,17],[22,0]],
  "9":[[3,0],[4,52],[12,37],[16,46],[20,19],[22,2]],
  "10":[[2,58],[4,50],[12,37],[16,46],[20,20],[22,5]],
  "11":[[2,55],[4,48],[12,37],[16,47],[20,22],[22,7]],
  "12":[[2,53],[4,46],[12,37],[16,48],[20,24],[22,9]],
  "13":[[2,51],[4,45],[12,37],[16,48],[20,25],[22,11]],
  "14":[[2,49],[4,43],[12,37],[16,49],[20,27],[22,13]],
  "15":[[2,47],[4,42],[12,37],[16,50],[20,28],[22,15]],
  "16":[[2,45],[4,40],[12,37],[16,50],[20,30],[22,17]],
  "17":[[2,43],[4,39],[12,37],[16,51],[20,32],[22,19]],
  "18":[[2,41],[4,37],[12,37],[16,52],[20,33],[22,21]],
  "19":[[2,39],[4,36],[12,37],[16,52],[20,35],[22,21]],
  "20":[[2,37],[4,34],[12,37],[16,53],[20,36],[22,21]],
  "21":[[2,35],[4,33],[12,37],[16,53],[20,38],[22,21]],
  "22":[[2,33],[4,32],[12,37],[16,54],[20,39],[22,21]],
  "23":[[2,31],[4,30],[12,38],[16,55],[20,41],[22,22]],
  "24":[[2,29],[4,29],[12,38],[16,55],[20,42],[22,22]],
  "25":[[2,27],[4,28],[12,38],[16,56],[20,44],[22,22]],
  "26":[[2,26],[4,27],[12,38],[16,56],[20,45],[22,22]],
  "27":[[2,24],[4,26],[12,38],[16,57],[20,46],[22,22]],
  "28":[[2,22],[4,25],[12,38],[16,57],[20,48],[22,23]],
  "29":[[2,21],[4,24],[12,38],[16,58],[20,49],[22,23]],
  "30":[[2,19],[4,23],[12,38],[16,58],[20,50],[22,23]],
  "31":[[2,18],[4,22],[12,38],[16,59],[20,51],[22,23]]
},
"6": {
  "1":[[2,16],[4,21],[12,39],[16,59],[20,53],[22,23]],
  "2":[[2,15],[4,20],[12,39],[17,0],[20,54],[22,24]],
  "3":[[2,2],[4,19],[12,39],[17,0],[20,55],[22,25]],
  "4":[[2,12],[4,18],[12,39],[17,1],[20,56],[22,26]],
  "5":[[2,11],[4,18],[12,39],[17,1],[20,57],[22,27]],
  "6":[[2,10],[4,17],[12,39],[17,2],[20,58],[22,28]],
  "7":[[2,9],[4,16],[12,40],[17,2],[20,59],[22,29]],
  "8":[[2,8],[4,16],[12,40],[17,3],[21,0],[22,30]],
  "9":[[2,7],[4,15],[12,40],[17,3],[21,1],[22,31]],
  "10":[[2,6],[4,15],[12,40],[17,4],[21,2],[22,32]],
  "11":[[2,6],[4,2],[12,40],[17,4],[21,2],[22,32]],
  "12":[[2,5],[4,2],[12,41],[17,4],[21,3],[22,33]],
  "13":[[2,4],[4,2],[12,41],[17,5],[21,4],[22,34]],
  "14":[[2,4],[4,2],[12,41],[17,5],[21,4],[22,34]],
  "15":[[2,3],[4,13],[12,41],[17,5],[21,5],[22,35]],
  "16":[[2,3],[4,13],[12,41],[17,6],[21,6],[22,36]],
  "17":[[2,3],[4,13],[12,42],[17,6],[21,6],[22,36]],
  "18":[[2,3],[4,13],[12,42],[17,6],[21,7],[22,37]],
  "19":[[2,3],[4,13],[12,42],[17,6],[21,7],[22,37]],
  "20":[[2,2],[4,13],[12,42],[17,7],[21,7],[22,37]],
  "21":[[2,3],[4,13],[12,42],[17,7],[21,8],[22,38]],
  "22":[[2,3],[4,2],[12,43],[17,7],[21,8],[22,38]],
  "23":[[2,3],[4,2],[12,43],[17,7],[21,8],[22,38]],
  "24":[[2,3],[4,2],[12,43],[17,7],[21,8],[22,38]],
  "25":[[2,4],[4,2],[12,43],[17,8],[21,8],[22,38]],
  "26":[[2,4],[4,15],[12,43],[17,8],[21,8],[22,38]],
  "27":[[2,5],[4,15],[12,44],[17,8],[21,8],[22,38]],
  "28":[[2,6],[4,16],[12,44],[17,8],[21,8],[22,38]],
  "29":[[2,6],[4,16],[12,44],[17,8],[21,8],[22,38]],
  "30":[[2,7],[4,17],[12,44],[17,8],[21,8],[22,38]]
},
"7": {
  "1":[[2,8],[4,17],[12,44],[17,8],[21,7],[22,37]],
  "2":[[2,9],[4,18],[12,45],[17,8],[21,7],[22,37]],
  "3":[[2,10],[4,19],[12,45],[17,8],[21,7],[22,37]],
  "4":[[2,11],[4,20],[12,45],[17,8],[21,6],[22,37]],
  "5":[[2,12],[4,20],[12,45],[17,8],[21,6],[22,37]],
  "6":[[2,2],[4,21],[12,45],[17,8],[21,5],[22,37]],
  "7":[[2,15],[4,22],[12,45],[17,8],[21,5],[22,37]],
  "8":[[2,16],[4,23],[12,46],[17,8],[21,4],[22,37]],
  "9":[[2,18],[4,24],[12,46],[17,8],[21,3],[22,36]],
  "10":[[2,19],[4,25],[12,46],[17,8],[21,3],[22,36]],
  "11":[[2,21],[4,26],[12,46],[17,7],[21,2],[22,36]],
  "12":[[2,22],[4,27],[12,46],[17,7],[21,1],[22,36]],
  "13":[[2,24],[4,28],[12,46],[17,7],[21,0],[22,36]],
  "14":[[2,26],[4,29],[12,46],[17,7],[20,59],[22,36]],
  "15":[[2,27],[4,31],[12,46],[17,6],[20,58],[22,36]],
  "16":[[2,29],[4,32],[12,46],[17,6],[20,57],[22,36]],
  "17":[[2,31],[4,33],[12,47],[17,6],[20,56],[22,35]],
  "18":[[2,33],[4,34],[12,47],[17,6],[20,55],[22,35]],
  "19":[[2,35],[4,36],[12,47],[17,5],[20,54],[22,35]],
  "20":[[2,36],[4,37],[12,47],[17,5],[20,53],[22,35]],
  "21":[[2,38],[4,38],[12,47],[17,4],[20,51],[22,35]],
  "22":[[2,40],[4,40],[12,47],[17,4],[20,50],[22,35]],
  "23":[[2,42],[4,41],[12,47],[17,4],[20,49],[22,35]],
  "24":[[2,44],[4,42],[12,47],[17,3],[20,47],[22,35]],
  "25":[[2,46],[4,44],[12,47],[17,3],[20,46],[22,35]],
  "26":[[2,48],[4,45],[12,47],[17,2],[20,45],[22,33]],
  "27":[[2,50],[4,47],[12,47],[17,1],[20,43],[22,31]],
  "28":[[2,52],[4,48],[12,47],[17,1],[20,42],[22,29]],
  "29":[[2,54],[4,50],[12,47],[17,0],[20,40],[22,27]],
  "30":[[2,56],[4,51],[12,47],[17,0],[20,39],[22,25]],
  "31":[[2,59],[4,53],[12,47],[16,59],[20,37],[22,23]]
},
"8": {
  "1":[[3,1],[4,54],[12,47],[16,58],[20,35],[22,21]],
  "2":[[3,3],[4,56],[12,47],[16,58],[20,34],[22,19]],
  "3":[[3,5],[4,58],[12,47],[16,57],[20,32],[22,17]],
  "4":[[3,7],[4,59],[12,47],[16,56],[20,30],[22,15]],
  "5":[[3,9],[5,1],[12,47],[16,55],[20,28],[22,12]],
  "6":[[3,11],[5,2],[12,47],[16,55],[20,27],[22,10]],
  "7":[[3,13],[5,4],[12,46],[16,54],[20,25],[22,8]],
  "8":[[3,15],[5,6],[12,46],[16,53],[20,23],[22,6]],
  "9":[[3,18],[5,7],[12,46],[16,52],[20,21],[22,3]],
  "10":[[3,20],[5,9],[12,46],[16,51],[20,19],[22,1]],
  "11":[[3,22],[5,11],[12,46],[16,50],[20,17],[21,59]],
  "12":[[3,24],[5,12],[12,46],[16,49],[20,15],[21,56]],
  "13":[[3,26],[5,2],[12,46],[16,48],[20,2],[21,54]],
  "14":[[3,28],[5,16],[12,46],[16,47],[20,12],[21,52]],
  "15":[[3,30],[5,17],[12,45],[16,46],[20,10],[21,49]],
  "16":[[3,32],[5,19],[12,45],[16,45],[20,8],[21,47]],
  "17":[[3,34],[5,21],[12,45],[16,44],[20,6],[21,45]],
  "18":[[3,36],[5,22],[12,45],[16,43],[20,3],[21,42]],
  "19":[[3,38],[5,24],[12,45],[16,42],[20,1],[21,40]],
  "20":[[3,41],[5,26],[12,44],[16,41],[19,59],[21,37]],
  "21":[[3,43],[5,27],[12,44],[16,40],[19,57],[21,35]],
  "22":[[3,45],[5,29],[12,44],[16,39],[19,55],[21,33]],
  "23":[[3,47],[5,31],[12,44],[16,37],[19,53],[21,30]],
  "24":[[3,49],[5,32],[12,44],[16,36],[19,51],[21,28]],
  "25":[[3,51],[5,34],[12,43],[16,35],[19,49],[21,25]],
  "26":[[3,53],[5,36],[12,43],[16,34],[19,46],[21,23]],
  "27":[[3,55],[5,37],[12,43],[16,33],[19,44],[21,20]],
  "28":[[3,57],[5,39],[12,43],[16,31],[19,42],[21,18]],
  "29":[[3,59],[5,41],[12,42],[16,30],[19,40],[21,15]],
  "30":[[4,1],[5,42],[12,42],[16,29],[19,38],[21,13]],
  "31":[[4,3],[5,44],[12,42],[16,27],[19,35],[21,10]]
},
"9": {
  "1":[[4,4],[5,46],[12,41],[16,26],[19,33],[21,8]],
  "2":[[4,6],[5,47],[12,41],[16,24],[19,31],[21,5]],
  "3":[[4,8],[5,49],[12,41],[16,23],[19,29],[21,3]],
  "4":[[4,10],[5,51],[12,40],[16,22],[19,26],[21,0]],
  "5":[[4,12],[5,52],[12,40],[16,20],[19,24],[20,58]],
  "6":[[4,2],[5,54],[12,40],[16,19],[19,22],[20,55]],
  "7":[[4,16],[5,56],[12,39],[16,17],[19,19],[20,53]],
  "8":[[4,18],[5,57],[12,39],[16,16],[19,17],[20,50]],
  "9":[[4,20],[5,59],[12,39],[16,2],[19,15],[20,48]],
  "10":[[4,21],[6,1],[12,38],[16,13],[19,12],[20,45]],
  "11":[[4,23],[6,2],[12,38],[16,11],[19,10],[20,43]],
  "12":[[4,25],[6,4],[12,38],[16,9],[19,8],[20,40]],
  "13":[[4,27],[6,6],[12,37],[16,8],[19,5],[20,38]],
  "14":[[4,29],[6,7],[12,37],[16,6],[19,3],[20,35]],
  "15":[[4,30],[6,9],[12,37],[16,5],[19,1],[20,33]],
  "16":[[4,32],[6,10],[12,36],[16,3],[18,58],[20,30]],
  "17":[[4,34],[6,12],[12,36],[16,1],[18,56],[20,28]],
  "18":[[4,36],[6,2],[12,36],[16,0],[18,53],[20,26]],
  "19":[[4,37],[6,15],[12,35],[15,58],[18,51],[20,23]],
  "20":[[4,39],[6,17],[12,35],[15,56],[18,49],[20,21]],
  "21":[[4,41],[6,19],[12,34],[15,55],[18,46],[20,18]],
  "22":[[4,42],[6,20],[12,34],[15,53],[18,44],[20,16]],
  "23":[[4,44],[6,22],[12,34],[15,51],[18,41],[20,13]],
  "24":[[4,46],[6,24],[12,33],[15,50],[18,39],[20,11]],
  "25":[[4,48],[6,25],[12,33],[15,48],[18,37],[20,8]],
  "26":[[4,49],[6,27],[12,33],[15,46],[18,34],[20,6]],
  "27":[[4,51],[6,29],[12,32],[15,44],[18,32],[20,4]],
  "28":[[4,53],[6,30],[12,32],[15,43],[18,30],[20,1]],
  "29":[[4,54],[6,32],[12,32],[15,41],[18,27],[19,59]],
  "30":[[4,56],[6,33],[12,31],[15,39],[18,25],[19,57]]
},
"10": {
  "1":[[4,57],[6,35],[12,31],[15,37],[18,22],[19,54]],
  "2":[[4,59],[6,37],[12,30],[15,36],[18,20],[19,52]],
  "3":[[5,1],[6,38],[12,30],[15,34],[18,18],[19,50]],
  "4":[[5,2],[6,40],[12,30],[15,32],[18,15],[19,47]],
  "5":[[5,4],[6,42],[12,29],[15,30],[18,13],[19,45]],
  "6":[[5,6],[6,44],[12,29],[15,29],[18,11],[19,43]],
  "7":[[5,7],[6,45],[12,29],[15,27],[18,8],[19,40]],
  "8":[[5,9],[6,47],[12,28],[15,25],[18,6],[19,38]],
  "9":[[5,10],[6,49],[12,28],[15,23],[18,4],[19,36]],
  "10":[[5,12],[6,50],[12,28],[15,22],[18,1],[19,34]],
  "11":[[5,2],[6,52],[12,28],[15,20],[17,59],[19,32]],
  "12":[[5,15],[6,54],[12,27],[15,18],[17,57],[19,29]],
  "13":[[5,17],[6,55],[12,27],[15,16],[17,55],[19,27]],
  "14":[[5,18],[6,57],[12,27],[15,15],[17,52],[19,25]],
  "15":[[5,20],[6,59],[12,27],[15,13],[17,50],[19,23]],
  "16":[[5,22],[7,1],[12,26],[15,11],[17,48],[19,21]],
  "17":[[5,23],[7,2],[12,26],[15,9],[17,46],[19,19]],
  "18":[[5,25],[7,4],[12,26],[15,8],[17,44],[19,17]],
  "19":[[5,26],[7,6],[12,26],[15,6],[17,41],[19,15]],
  "20":[[5,28],[7,8],[12,25],[15,4],[17,39],[19,13]],
  "21":[[5,30],[7,9],[12,25],[15,3],[17,37],[19,11]],
  "22":[[5,31],[7,11],[12,25],[15,1],[17,35],[19,9]],
  "23":[[5,33],[7,13],[12,25],[14,59],[17,33],[19,7]],
  "24":[[5,34],[7,15],[12,25],[14,58],[17,31],[19,5]],
  "25":[[5,36],[7,17],[12,25],[14,56],[17,29],[19,3]],
  "26":[[5,38],[7,18],[12,24],[14,54],[17,27],[19,2]],
  "27":[[5,39],[7,20],[12,24],[14,53],[17,25],[19,0]],
  "28":[[5,41],[7,22],[12,24],[14,51],[17,23],[18,58]],
  "29":[[5,42],[7,24],[12,24],[14,50],[17,21],[18,56]],
  "30":[[5,44],[7,26],[12,24],[14,48],[17,19],[18,55]],
  "31":[[5,45],[7,27],[12,24],[14,47],[17,17],[18,53]]
},
"11": {
  "1":[[5,47],[7,29],[12,24],[14,45],[17,15],[18,51]],
  "2":[[5,49],[7,31],[12,24],[14,44],[17,13],[18,50]],
  "3":[[5,50],[7,33],[12,24],[14,42],[17,11],[18,48]],
  "4":[[5,52],[7,35],[12,24],[14,41],[17,9],[18,46]],
  "5":[[5,53],[7,37],[12,24],[14,40],[17,8],[18,45]],
  "6":[[5,55],[7,38],[12,24],[14,38],[17,6],[18,43]],
  "7":[[5,56],[7,40],[12,24],[14,37],[17,4],[18,42]],
  "8":[[5,58],[7,42],[12,24],[14,36],[17,2],[18,41]],
  "9":[[6,0],[7,44],[12,24],[14,34],[17,1],[18,39]],
  "10":[[6,1],[7,46],[12,24],[14,33],[16,59],[18,38]],
  "11":[[6,3],[7,48],[12,25],[14,32],[16,58],[18,36]],
  "12":[[6,4],[7,49],[12,25],[14,31],[16,56],[18,35]],
  "13":[[6,6],[7,51],[12,25],[14,29],[16,55],[18,34]],
  "14":[[6,7],[7,53],[12,25],[14,28],[16,53],[18,33]],
  "15":[[6,9],[7,55],[12,25],[14,27],[16,52],[18,32]],
  "16":[[6,10],[7,57],[12,25],[14,26],[16,50],[18,30]],
  "17":[[6,12],[7,58],[12,26],[14,25],[16,49],[18,29]],
  "18":[[6,13],[8,0],[12,26],[14,24],[16,47],[18,28]],
  "19":[[6,15],[8,2],[12,26],[14,23],[16,46],[18,27]],
  "20":[[6,16],[8,4],[12,26],[14,22],[16,45],[18,26]],
  "21":[[6,18],[8,5],[12,27],[14,21],[16,44],[18,25]],
  "22":[[6,19],[8,7],[12,27],[14,20],[16,43],[18,25]],
  "23":[[6,20],[8,9],[12,27],[14,20],[16,41],[18,24]],
  "24":[[6,22],[8,10],[12,27],[14,19],[16,40],[18,23]],
  "25":[[6,23],[8,12],[12,28],[14,18],[16,39],[18,22]],
  "26":[[6,25],[8,2],[12,28],[14,17],[16,38],[18,21]],
  "27":[[6,26],[8,15],[12,28],[14,17],[16,37],[18,21]],
  "28":[[6,27],[8,17],[12,29],[14,16],[16,37],[18,20]],
  "29":[[6,28],[8,18],[12,29],[14,16],[16,36],[18,19]],
  "30":[[6,30],[8,20],[12,29],[14,15],[16,35],[18,19]]
},
"12": {
  "1":[[6,31],[8,21],[12,30],[14,15],[16,34],[18,18]],
  "2":[[6,32],[8,23],[12,30],[14,2],[16,34],[18,18]],
  "3":[[6,33],[8,24],[12,31],[14,2],[16,33],[18,18]],
  "4":[[6,35],[8,26],[12,31],[14,13],[16,32],[18,17]],
  "5":[[6,36],[8,27],[12,31],[14,13],[16,32],[18,17]],
  "6":[[6,37],[8,28],[12,32],[14,13],[16,31],[18,17]],
  "7":[[6,38],[8,30],[12,32],[14,13],[16,31],[18,16]],
  "8":[[6,39],[8,31],[12,33],[14,12],[16,31],[18,16]],
  "9":[[6,40],[8,32],[12,33],[14,12],[16,30],[18,16]],
  "10":[[6,41],[8,33],[12,34],[14,12],[16,30],[18,16]],
  "11":[[6,42],[8,34],[12,34],[14,12],[16,30],[18,16]],
  "12":[[6,43],[8,35],[12,35],[14,12],[16,30],[18,16]],
  "13":[[6,44],[8,36],[12,35],[14,12],[16,30],[18,16]],
  "14":[[6,45],[8,37],[12,35],[14,12],[16,30],[18,16]],
  "15":[[6,45],[8,38],[12,36],[14,12],[16,30],[18,16]],
  "16":[[6,46],[8,39],[12,36],[14,13],[16,30],[18,16]],
  "17":[[6,47],[8,40],[12,37],[14,13],[16,30],[18,17]],
  "18":[[6,48],[8,41],[12,37],[14,13],[16,30],[18,17]],
  "19":[[6,48],[8,41],[12,38],[14,13],[16,30],[18,17]],
  "20":[[6,49],[8,42],[12,38],[14,2],[16,31],[18,17]],
  "21":[[6,49],[8,43],[12,39],[14,2],[16,31],[18,18]],
  "22":[[6,50],[8,43],[12,39],[14,15],[16,31],[18,18]],
  "23":[[6,50],[8,44],[12,40],[14,15],[16,32],[18,19]],
  "24":[[6,51],[8,44],[12,40],[14,16],[16,32],[18,19]],
  "25":[[6,51],[8,44],[12,41],[14,16],[16,33],[18,20]],
  "26":[[6,52],[8,45],[12,41],[14,17],[16,34],[18,20]],
  "27":[[6,52],[8,45],[12,42],[14,17],[16,34],[18,21]],
  "28":[[6,52],[8,45],[12,42],[14,18],[16,35],[18,22]],
  "29":[[6,52],[8,45],[12,43],[14,19],[16,36],[18,23]],
  "30":[[6,53],[8,45],[12,43],[14,20],[16,37],[18,23]],
  "31":[[6,53],[8,45],[12,44],[14,20],[16,38],[18,24]]
}
}
