{
"1": {
  "1":[[6,48],[8,42],[12,35],[14,8],[16,25],[18,12]],
  "2":[[6,48],[8,42],[12,36],[14,9],[16,26],[18,13]],
  "3":[[6,48],[8,41],[12,36],[14,10],[16,27],[18,14]],
  "4":[[6,48],[8,41],[12,37],[14,11],[16,28],[18,15]],
  "5":[[6,48],[8,41],[12,37],[14,12],[16,29],[18,16]],
  "6":[[6,47],[8,40],[12,37],[14,13],[16,30],[18,17]],
  "7":[[6,47],[8,40],[12,38],[14,14],[16,32],[18,18]],
  "8":[[6,47],[8,39],[12,38],[14,15],[16,33],[18,19]],
  "9":[[6,47],[8,39],[12,39],[14,16],[16,34],[18,21]],
  "10":[[6,46],[8,38],[12,39],[14,17],[16,36],[18,22]],
  "11":[[6,46],[8,38],[12,39],[14,18],[16,37],[18,23]],
  "12":[[6,45],[8,37],[12,40],[14,20],[16,39],[18,24]],
  "13":[[6,45],[8,36],[12,40],[14,21],[16,40],[18,25]],
  "14":[[6,44],[8,35],[12,41],[14,22],[16,42],[18,27]],
  "15":[[6,44],[8,34],[12,41],[14,23],[16,43],[18,28]],
  "16":[[6,43],[8,33],[12,41],[14,25],[16,45],[18,29]],
  "17":[[6,42],[8,32],[12,42],[14,26],[16,47],[18,31]],
  "18":[[6,41],[8,31],[12,42],[14,27],[16,48],[18,32]],
  "19":[[6,41],[8,30],[12,42],[14,29],[16,50],[18,34]],
  "20":[[6,40],[8,29],[12,43],[14,30],[16,52],[18,35]],
  "21":[[6,39],[8,28],[12,43],[14,32],[16,54],[18,37]],
  "22":[[6,38],[8,27],[12,43],[14,33],[16,55],[18,38]],
  "23":[[6,37],[8,26],[12,43],[14,35],[16,57],[18,40]],
  "24":[[6,36],[8,24],[12,44],[14,36],[16,59],[18,41]],
  "25":[[6,35],[8,23],[12,44],[14,37],[17,1],[18,43]],
  "26":[[6,34],[8,22],[12,44],[14,39],[17,3],[18,44]],
  "27":[[6,33],[8,20],[12,44],[14,40],[17,4],[18,46]],
  "28":[[6,32],[8,19],[12,44],[14,42],[17,6],[18,47]],
  "29":[[6,30],[8,17],[12,45],[14,43],[17,8],[18,49]],
  "30":[[6,29],[8,16],[12,45],[14,45],[17,10],[18,51]],
  "31":[[6,28],[8,14],[12,45],[14,47],[17,12],[18,52]]
},
"2": {
  "1":[[6,27],[8,12],[12,45],[14,48],[17,14],[18,54]],
  "2":[[6,25],[8,11],[12,45],[14,50],[17,16],[18,55]],
  "3":[[6,24],[8,9],[12,45],[14,51],[17,18],[18,57]],
  "4":[[6,22],[8,7],[12,46],[14,53],[17,20],[18,59]],
  "5":[[6,21],[8,6],[12,46],[14,54],[17,22],[19,0]],
  "6":[[6,20],[8,4],[12,46],[14,56],[17,24],[19,2]],
  "7":[[6,18],[8,2],[12,46],[14,57],[17,26],[19,4]],
  "8":[[6,16],[8,0],[12,46],[14,59],[17,28],[19,5]],
  "9":[[6,15],[7,58],[12,46],[15,0],[17,30],[19,7]],
  "10":[[6,13],[7,56],[12,46],[15,2],[17,32],[19,9]],
  "11":[[6,12],[7,55],[12,46],[15,4],[17,34],[19,11]],
  "12":[[6,10],[7,53],[12,46],[15,5],[17,36],[19,12]],
  "13":[[6,8],[7,51],[12,46],[15,7],[17,38],[19,14]],
  "14":[[6,7],[7,49],[12,46],[15,8],[17,40],[19,16]],
  "15":[[6,5],[7,47],[12,46],[15,10],[17,41],[19,17]],
  "16":[[6,3],[7,45],[12,46],[15,11],[17,43],[19,19]],
  "17":[[6,1],[7,43],[12,46],[15,13],[17,45],[19,21]],
  "18":[[5,59],[7,41],[12,46],[15,14],[17,47],[19,23]],
  "19":[[5,58],[7,38],[12,46],[15,16],[17,49],[19,24]],
  "20":[[5,56],[7,36],[12,46],[15,17],[17,51],[19,26]],
  "21":[[5,54],[7,34],[12,46],[15,19],[17,53],[19,28]],
  "22":[[5,52],[7,32],[12,46],[15,20],[17,55],[19,30]],
  "23":[[5,50],[7,30],[12,46],[15,22],[17,57],[19,31]],
  "24":[[5,48],[7,28],[12,45],[15,23],[17,59],[19,33]],
  "25":[[5,46],[7,26],[12,45],[15,24],[18,1],[19,35]],
  "26":[[5,44],[7,23],[12,45],[15,26],[18,3],[19,37]],
  "27":[[5,42],[7,21],[12,45],[15,27],[18,5],[19,38]],
  "28":[[5,40],[7,19],[12,45],[15,29],[18,7],[19,40]]
},
"3": {
  "1":[[5,38],[7,17],[12,45],[15,30],[18,9],[19,42]],
  "2":[[5,35],[7,14],[12,45],[15,31],[18,11],[19,44]],
  "3":[[5,33],[7,12],[12,44],[15,33],[18,13],[19,45]],
  "4":[[5,31],[7,10],[12,44],[15,34],[18,14],[19,47]],
  "5":[[5,29],[7,7],[12,44],[15,36],[18,16],[19,49]],
  "6":[[5,27],[7,5],[12,44],[15,37],[18,18],[19,51]],
  "7":[[5,25],[7,3],[12,43],[15,38],[18,20],[19,53]],
  "8":[[5,22],[7,0],[12,43],[15,39],[18,22],[19,54]],
  "9":[[5,20],[6,58],[12,43],[15,41],[18,24],[19,56]],
  "10":[[5,18],[6,56],[12,43],[15,42],[18,26],[19,58]],
  "11":[[5,15],[6,53],[12,42],[15,43],[18,28],[20,0]],
  "12":[[5,13],[6,51],[12,42],[15,45],[18,29],[20,1]],
  "13":[[5,11],[6,49],[12,42],[15,46],[18,31],[20,3]],
  "14":[[5,8],[6,46],[12,42],[15,47],[18,33],[20,5]],
  "15":[[5,6],[6,44],[12,41],[15,48],[18,35],[20,7]],
  "16":[[5,4],[6,41],[12,41],[15,49],[18,37],[20,9]],
  "17":[[5,1],[6,39],[12,41],[15,51],[18,39],[20,10]],
  "18":[[4,59],[6,37],[12,41],[15,52],[18,40],[20,12]],
  "19":[[4,57],[6,34],[12,40],[15,53],[18,42],[20,14]],
  "20":[[4,54],[6,32],[12,40],[15,54],[18,44],[20,16]],
  "21":[[4,52],[6,29],[12,40],[15,55],[18,46],[20,18]],
  "22":[[4,49],[6,27],[12,39],[15,56],[18,48],[20,20]],
  "23":[[4,47],[6,25],[12,39],[15,57],[18,50],[20,21]],
  "24":[[4,44],[6,22],[12,39],[15,58],[18,51],[20,23]],
  "25":[[4,44],[6,20],[12,38],[15,59],[18,53],[20,25]],
  "26":[[4,39],[6,17],[12,38],[16,0],[18,55],[20,27]],
  "27":[[4,37],[6,15],[12,38],[16,2],[18,57],[20,29]],
  "28":[[4,34],[6,12],[12,37],[16,3],[18,59],[20,31]],
  "29":[[4,32],[6,10],[12,37],[16,4],[19,0],[20,32]],
  "30":[[4,29],[6,7],[12,37],[16,5],[19,2],[20,34]],
  "31":[[4,27],[6,5],[12,36],[16,6],[19,4],[20,36]]
},
"4": {
  "1":[[4,24],[6,3],[12,36],[16,7],[19,6],[20,38]],
  "2":[[4,22],[6,0],[12,36],[16,8],[19,8],[20,40]],
  "3":[[4,19],[5,58],[12,36],[16,9],[19,9],[20,42]],
  "4":[[4,16],[5,55],[12,35],[16,9],[19,11],[20,44]],
  "5":[[4,14],[5,53],[12,35],[16,10],[19,13],[20,46]],
  "6":[[4,11],[5,51],[12,35],[16,11],[19,15],[20,48]],
  "7":[[4,9],[5,48],[12,34],[16,12],[19,16],[20,50]],
  "8":[[4,6],[5,46],[12,34],[16,13],[19,18],[20,52]],
  "9":[[4,4],[5,43],[12,34],[16,14],[19,20],[20,54]],
  "10":[[4,1],[5,41],[12,33],[16,15],[19,22],[20,56]],
  "11":[[3,58],[5,39],[12,33],[16,16],[19,24],[20,58]],
  "12":[[3,56],[5,36],[12,33],[16,17],[19,25],[21,0]],
  "13":[[3,53],[5,34],[12,33],[16,18],[19,27],[21,2]],
  "14":[[3,51],[5,32],[12,32],[16,19],[19,29],[21,4]],
  "15":[[3,48],[5,29],[12,32],[16,19],[19,31],[21,6]],
  "16":[[3,45],[5,27],[12,32],[16,20],[19,33],[21,8]],
  "17":[[3,43],[5,25],[12,32],[16,21],[19,34],[21,10]],
  "18":[[3,40],[5,22],[12,31],[16,22],[19,36],[21,12]],
  "19":[[3,38],[5,20],[12,31],[16,23],[19,38],[21,14]],
  "20":[[3,35],[5,18],[12,31],[16,24],[19,40],[21,16]],
  "21":[[3,33],[5,16],[12,31],[16,24],[19,42],[21,18]],
  "22":[[3,30],[5,13],[12,30],[16,25],[19,43],[21,20]],
  "23":[[3,28],[5,11],[12,30],[16,26],[19,45],[21,22]],
  "24":[[3,25],[5,9],[12,30],[16,27],[19,47],[21,24]],
  "25":[[3,23],[5,7],[12,30],[16,28],[19,49],[21,26]],
  "26":[[3,20],[5,5],[12,30],[16,28],[19,51],[21,28]],
  "27":[[3,18],[5,3],[12,29],[16,29],[19,52],[21,30]],
  "28":[[3,15],[5,0],[12,29],[16,30],[19,54],[21,33]],
  "29":[[3,13],[4,58],[12,29],[16,31],[19,56],[21,35]],
  "30":[[3,10],[4,56],[12,29],[16,32],[19,58],[21,37]]
},
"5": {
  "1":[[3,8],[4,54],[12,29],[16,32],[20,0],[21,39]],
  "2":[[3,5],[4,52],[12,29],[16,33],[20,1],[21,41]],
  "3":[[3,3],[4,50],[12,29],[16,34],[20,3],[21,43]],
  "4":[[3,0],[4,48],[12,29],[16,35],[20,5],[21,45]],
  "5":[[2,58],[4,46],[12,29],[16,35],[20,7],[21,47]],
  "6":[[2,56],[4,44],[12,28],[16,36],[20,8],[21,50]],
  "7":[[2,53],[4,42],[12,28],[16,37],[20,10],[21,52]],
  "8":[[2,51],[4,41],[12,28],[16,37],[20,12],[21,54]],
  "9":[[2,49],[4,39],[12,28],[16,38],[20,14],[21,56]],
  "10":[[2,46],[4,37],[12,28],[16,39],[20,15],[21,58]],
  "11":[[2,44],[4,35],[12,28],[16,40],[20,17],[22,0]],
  "12":[[2,42],[4,33],[12,28],[16,40],[20,19],[22,2]],
  "13":[[2,40],[4,32],[12,28],[16,41],[20,21],[22,4]],
  "14":[[2,38],[4,30],[12,28],[16,42],[20,22],[22,7]],
  "15":[[2,36],[4,28],[12,28],[16,42],[20,24],[22,9]],
  "16":[[2,33],[4,27],[12,28],[16,43],[20,26],[22,11]],
  "17":[[2,31],[4,25],[12,28],[16,44],[20,27],[22,13]],
  "18":[[2,29],[4,24],[12,28],[16,44],[20,29],[22,15]],
  "19":[[2,27],[4,22],[12,28],[16,45],[20,31],[22,15]],
  "20":[[2,25],[4,21],[12,28],[16,46],[20,32],[22,15]],
  "21":[[2,23],[4,19],[12,28],[16,46],[20,34],[22,16]],
  "22":[[2,21],[4,18],[12,29],[16,47],[20,35],[22,16]],
  "23":[[2,20],[4,16],[12,29],[16,47],[20,37],[22,16]],
  "24":[[2,18],[4,15],[12,29],[16,48],[20,38],[22,17]],
  "25":[[2,16],[4,14],[12,29],[16,49],[20,40],[22,17]],
  "26":[[2,14],[4,13],[12,29],[16,49],[20,41],[22,17]],
  "27":[[2,13],[4,12],[12,29],[16,50],[20,43],[22,18]],
  "28":[[2,11],[4,10],[12,29],[16,50],[20,44],[22,18]],
  "29":[[2,9],[4,9],[12,29],[16,51],[20,45],[22,18]],
  "30":[[2,8],[4,8],[12,29],[16,51],[20,47],[22,19]],
  "31":[[2,6],[4,7],[12,30],[16,52],[20,48],[22,19]]
},
"6": {
  "1":[[2,5],[4,6],[12,30],[16,53],[20,49],[22,19]],
  "2":[[2,4],[4,5],[12,30],[16,53],[20,50],[22,20]],
  "3":[[2,2],[4,5],[12,30],[16,54],[20,52],[22,22]],
  "4":[[2,1],[4,4],[12,30],[16,54],[20,53],[22,23]],
  "5":[[2,0],[4,3],[12,30],[16,55],[20,54],[22,24]],
  "6":[[1,59],[4,2],[12,31],[16,55],[20,55],[22,25]],
  "7":[[1,58],[4,2],[12,31],[16,55],[20,56],[22,26]],
  "8":[[1,57],[4,1],[12,31],[16,56],[20,57],[22,27]],
  "9":[[1,56],[4,1],[12,31],[16,56],[20,58],[22,28]],
  "10":[[1,55],[4,0],[12,31],[16,57],[20,59],[22,29]],
  "11":[[1,54],[4,0],[12,32],[16,57],[21,0],[22,30]],
  "12":[[1,54],[3,59],[12,32],[16,57],[21,0],[22,30]],
  "13":[[1,53],[3,59],[12,32],[16,58],[21,1],[22,31]],
  "14":[[1,53],[3,59],[12,32],[16,58],[21,2],[22,32]],
  "15":[[1,52],[3,58],[12,32],[16,59],[21,2],[22,32]],
  "16":[[1,52],[3,58],[12,33],[16,59],[21,3],[22,33]],
  "17":[[1,52],[3,58],[12,33],[16,59],[21,3],[22,33]],
  "18":[[1,51],[3,58],[12,33],[16,59],[21,4],[22,34]],
  "19":[[1,51],[3,58],[12,33],[17,0],[21,4],[22,34]],
  "20":[[1,51],[3,58],[12,33],[17,0],[21,5],[22,35]],
  "21":[[1,51],[3,58],[12,34],[17,0],[21,5],[22,35]],
  "22":[[1,51],[3,59],[12,34],[17,0],[21,5],[22,35]],
  "23":[[1,52],[3,59],[12,34],[17,1],[21,5],[22,35]],
  "24":[[1,52],[3,59],[12,34],[17,1],[21,5],[22,35]],
  "25":[[1,52],[3,59],[12,34],[17,1],[21,5],[22,35]],
  "26":[[1,53],[4,0],[12,35],[17,1],[21,5],[22,35]],
  "27":[[1,54],[4,0],[12,35],[17,1],[21,5],[22,35]],
  "28":[[1,54],[4,1],[12,35],[17,1],[21,5],[22,35]],
  "29":[[1,55],[4,1],[12,35],[17,1],[21,5],[22,35]],
  "30":[[1,56],[4,2],[12,35],[17,1],[21,5],[22,35]]
},
"7": {
  "1":[[1,57],[4,3],[12,36],[17,1],[21,5],[22,35]],
  "2":[[1,58],[4,3],[12,36],[17,1],[21,4],[22,34]],
  "3":[[1,59],[4,4],[12,36],[17,1],[21,4],[22,34]],
  "4":[[2,0],[4,5],[12,36],[17,1],[21,3],[22,34]],
  "5":[[2,1],[4,6],[12,36],[17,1],[21,3],[22,34]],
  "6":[[2,2],[4,6],[12,36],[17,1],[21,2],[22,33]],
  "7":[[2,4],[4,7],[12,37],[17,1],[21,2],[22,33]],
  "8":[[2,5],[4,8],[12,37],[17,1],[21,1],[22,33]],
  "9":[[2,6],[4,9],[12,37],[17,1],[21,0],[22,33]],
  "10":[[2,8],[4,10],[12,37],[17,1],[20,59],[22,32]],
  "11":[[2,9],[4,12],[12,37],[17,1],[20,59],[22,32]],
  "12":[[2,11],[4,13],[12,37],[17,0],[20,58],[22,32]],
  "13":[[2,13],[4,14],[12,37],[17,0],[20,57],[22,32]],
  "14":[[2,14],[4,15],[12,37],[17,0],[20,56],[22,31]],
  "15":[[2,16],[4,16],[12,38],[17,0],[20,55],[22,31]],
  "16":[[2,18],[4,18],[12,38],[16,59],[20,54],[22,31]],
  "17":[[2,19],[4,19],[12,38],[16,59],[20,53],[22,31]],
  "18":[[2,21],[4,20],[12,38],[16,59],[20,51],[22,30]],
  "19":[[2,23],[4,22],[12,38],[16,58],[20,50],[22,30]],
  "20":[[2,25],[4,23],[12,38],[16,58],[20,49],[22,30]],
  "21":[[2,27],[4,24],[12,38],[16,57],[20,48],[22,30]],
  "22":[[2,29],[4,26],[12,38],[16,57],[20,46],[22,29]],
  "23":[[2,31],[4,27],[12,38],[16,56],[20,45],[22,29]],
  "24":[[2,33],[4,29],[12,38],[16,56],[20,43],[22,29]],
  "25":[[2,35],[4,30],[12,38],[16,55],[20,42],[22,29]],
  "26":[[2,37],[4,32],[12,38],[16,55],[20,40],[22,27]],
  "27":[[2,39],[4,33],[12,38],[16,54],[20,39],[22,25]],
  "28":[[2,41],[4,35],[12,38],[16,54],[20,37],[22,23]],
  "29":[[2,43],[4,37],[12,38],[16,53],[20,36],[22,21]],
  "30":[[2,45],[4,38],[12,38],[16,52],[20,34],[22,19]],
  "31":[[2,47],[4,40],[12,38],[16,52],[20,32],[22,17]]
},
"8": {
  "1":[[2,49],[4,41],[12,38],[16,51],[20,31],[22,15]],
  "2":[[2,52],[4,43],[12,38],[16,50],[20,29],[22,12]],
  "3":[[2,54],[4,45],[12,38],[16,49],[20,27],[22,10]],
  "4":[[2,56],[4,46],[12,38],[16,49],[20,25],[22,8]],
  "5":[[2,58],[4,48],[12,38],[16,48],[20,24],[22,6]],
  "6":[[3,0],[4,50],[12,38],[16,47],[20,22],[22,4]],
  "7":[[3,2],[4,51],[12,38],[16,46],[20,20],[22,1]],
  "8":[[3,4],[4,53],[12,38],[16,45],[20,18],[21,59]],
  "9":[[3,7],[4,55],[12,37],[16,44],[20,16],[21,57]],
  "10":[[3,9],[4,57],[12,37],[16,43],[20,14],[21,54]],
  "11":[[3,11],[4,58],[12,37],[16,42],[20,12],[21,52]],
  "12":[[3,13],[5,0],[12,37],[16,41],[20,10],[21,50]],
  "13":[[3,15],[5,2],[12,37],[16,40],[20,8],[21,47]],
  "14":[[3,17],[5,4],[12,37],[16,39],[20,6],[21,45]],
  "15":[[3,19],[5,5],[12,37],[16,38],[20,4],[21,43]],
  "16":[[3,21],[5,7],[12,36],[16,37],[20,2],[21,40]],
  "17":[[3,24],[5,9],[12,36],[16,36],[20,0],[21,38]],
  "18":[[3,26],[5,10],[12,36],[16,35],[19,58],[21,35]],
  "19":[[3,28],[5,12],[12,36],[16,34],[19,55],[21,33]],
  "20":[[3,30],[5,14],[12,36],[16,33],[19,53],[21,30]],
  "21":[[3,32],[5,16],[12,35],[16,32],[19,51],[21,28]],
  "22":[[3,34],[5,17],[12,35],[16,30],[19,49],[21,25]],
  "23":[[3,36],[5,19],[12,35],[16,29],[19,47],[21,23]],
  "24":[[3,38],[5,21],[12,35],[16,28],[19,44],[21,20]],
  "25":[[3,40],[5,23],[12,34],[16,27],[19,42],[21,18]],
  "26":[[3,42],[5,25],[12,34],[16,25],[19,40],[21,15]],
  "27":[[3,44],[5,26],[12,34],[16,24],[19,38],[21,13]],
  "28":[[3,46],[5,28],[12,34],[16,23],[19,35],[21,10]],
  "29":[[3,48],[5,30],[12,33],[16,21],[19,33],[21,8]],
  "30":[[3,50],[5,31],[12,33],[16,20],[19,31],[21,5]],
  "31":[[3,52],[5,33],[12,33],[16,18],[19,28],[21,3]]
},
"9": {
  "1":[[3,54],[5,35],[12,33],[16,17],[19,26],[21,0]],
  "2":[[3,56],[5,37],[12,32],[16,16],[19,24],[20,58]],
  "3":[[3,58],[5,38],[12,32],[16,14],[19,21],[20,55]],
  "4":[[4,0],[5,40],[12,32],[16,13],[19,19],[20,53]],
  "5":[[4,2],[5,42],[12,31],[16,11],[19,17],[20,50]],
  "6":[[4,4],[5,44],[12,31],[16,10],[19,14],[20,48]],
  "7":[[4,6],[5,45],[12,31],[16,8],[19,12],[20,45]],
  "8":[[4,8],[5,47],[12,30],[16,6],[19,9],[20,42]],
  "9":[[4,10],[5,49],[12,30],[16,5],[19,7],[20,40]],
  "10":[[4,12],[5,51],[12,30],[16,3],[19,5],[20,37]],
  "11":[[4,14],[5,52],[12,29],[16,2],[19,2],[20,35]],
  "12":[[4,15],[5,54],[12,29],[16,0],[19,0],[20,32]],
  "13":[[4,17],[5,56],[12,29],[15,58],[18,57],[20,30]],
  "14":[[4,19],[5,57],[12,28],[15,57],[18,55],[20,27]],
  "15":[[4,21],[5,59],[12,28],[15,55],[18,52],[20,25]],
  "16":[[4,23],[6,1],[12,27],[15,53],[18,50],[20,22]],
  "17":[[4,25],[6,3],[12,27],[15,52],[18,48],[20,20]],
  "18":[[4,26],[6,4],[12,27],[15,50],[18,45],[20,17]],
  "19":[[4,28],[6,6],[12,26],[15,48],[18,43],[20,15]],
  "20":[[4,30],[6,8],[12,26],[15,47],[18,40],[20,12]],
  "21":[[4,32],[6,9],[12,26],[15,45],[18,38],[20,10]],
  "22":[[4,33],[6,11],[12,25],[15,43],[18,35],[20,7]],
  "23":[[4,35],[6,13],[12,25],[15,41],[18,33],[20,5]],
  "24":[[4,37],[6,15],[12,24],[15,40],[18,30],[20,2]],
  "25":[[4,39],[6,16],[12,24],[15,38],[18,28],[20,0]],
  "26":[[4,40],[6,18],[12,24],[15,36],[18,25],[19,57]],
  "27":[[4,42],[6,20],[12,23],[15,34],[18,23],[19,55]],
  "28":[[4,44],[6,22],[12,23],[15,32],[18,21],[19,52]],
  "29":[[4,46],[6,23],[12,23],[15,31],[18,18],[19,50]],
  "30":[[4,47],[6,25],[12,22],[15,29],[18,16],[19,47]]
},
"10": {
  "1":[[4,49],[6,27],[12,22],[15,27],[18,13],[19,45]],
  "2":[[4,51],[6,28],[12,22],[15,25],[18,11],[19,43]],
  "3":[[4,52],[6,30],[12,21],[15,23],[18,8],[19,40]],
  "4":[[4,54],[6,32],[12,21],[15,22],[18,6],[19,38]],
  "5":[[4,56],[6,34],[12,21],[15,20],[18,3],[19,36]],
  "6":[[4,57],[6,35],[12,20],[15,18],[18,1],[19,33]],
  "7":[[4,59],[6,37],[12,20],[15,16],[17,59],[19,31]],
  "8":[[5,1],[6,39],[12,20],[15,14],[17,56],[19,29]],
  "9":[[5,2],[6,41],[12,19],[15,12],[17,54],[19,26]],
  "10":[[5,4],[6,43],[12,19],[15,11],[17,52],[19,24]],
  "11":[[5,6],[6,44],[12,19],[15,9],[17,49],[19,22]],
  "12":[[5,7],[6,46],[12,18],[15,7],[17,47],[19,20]],
  "13":[[5,9],[6,48],[12,18],[15,5],[17,44],[19,18]],
  "14":[[5,11],[6,50],[12,18],[15,3],[17,42],[19,15]],
  "15":[[5,12],[6,51],[12,18],[15,2],[17,40],[19,13]],
  "16":[[5,14],[6,53],[12,17],[15,0],[17,38],[19,11]],
  "17":[[5,16],[6,55],[12,17],[14,58],[17,35],[19,9]],
  "18":[[5,17],[6,57],[12,17],[14,56],[17,33],[19,7]],
  "19":[[5,19],[6,59],[12,17],[14,55],[17,31],[19,5]],
  "20":[[5,21],[7,1],[12,17],[14,53],[17,29],[19,3]],
  "21":[[5,22],[7,2],[12,16],[14,51],[17,26],[19,1]],
  "22":[[5,24],[7,4],[12,16],[14,49],[17,24],[18,59]],
  "23":[[5,25],[7,6],[12,16],[14,48],[17,22],[18,57]],
  "24":[[5,27],[7,8],[12,16],[14,46],[17,20],[18,55]],
  "25":[[5,29],[7,10],[12,16],[14,44],[17,18],[18,53]],
  "26":[[5,30],[7,12],[12,16],[14,43],[17,16],[18,51]],
  "27":[[5,32],[7,14],[12,16],[14,41],[17,13],[18,49]],
  "28":[[5,34],[7,16],[12,15],[14,39],[17,11],[18,47]],
  "29":[[5,35],[7,17],[12,15],[14,38],[17,9],[18,45]],
  "30":[[5,37],[7,19],[12,15],[14,36],[17,7],[18,44]],
  "31":[[5,39],[7,21],[12,15],[14,35],[17,5],[18,42]]
},
"11": {
  "1":[[5,40],[7,23],[12,15],[14,33],[17,3],[18,40]],
  "2":[[5,42],[7,25],[12,15],[14,32],[17,1],[18,39]],
  "3":[[5,44],[7,27],[12,15],[14,30],[16,59],[18,37]],
  "4":[[5,45],[7,29],[12,15],[14,29],[16,58],[18,35]],
  "5":[[5,47],[7,31],[12,15],[14,27],[16,56],[18,34]],
  "6":[[5,48],[7,33],[12,15],[14,26],[16,54],[18,32]],
  "7":[[5,50],[7,35],[12,15],[14,24],[16,52],[18,31]],
  "8":[[5,52],[7,36],[12,15],[14,23],[16,50],[18,29]],
  "9":[[5,53],[7,38],[12,15],[14,22],[16,49],[18,28]],
  "10":[[5,55],[7,40],[12,16],[14,20],[16,47],[18,26]],
  "11":[[5,56],[7,42],[12,16],[14,19],[16,45],[18,25]],
  "12":[[5,58],[7,44],[12,16],[14,18],[16,44],[18,24]],
  "13":[[6,0],[7,46],[12,16],[14,17],[16,42],[18,22]],
  "14":[[6,1],[7,48],[12,16],[14,16],[16,40],[18,21]],
  "15":[[6,3],[7,50],[12,16],[14,14],[16,39],[18,20]],
  "16":[[6,4],[7,52],[12,17],[14,13],[16,37],[18,19]],
  "17":[[6,6],[7,53],[12,17],[14,12],[16,36],[18,17]],
  "18":[[6,7],[7,55],[12,17],[14,11],[16,35],[18,16]],
  "19":[[6,9],[7,57],[12,17],[14,10],[16,33],[18,15]],
  "20":[[6,10],[7,59],[12,17],[14,9],[16,32],[18,14]],
  "21":[[6,12],[8,1],[12,18],[14,8],[16,31],[18,13]],
  "22":[[6,13],[8,2],[12,18],[14,7],[16,29],[18,12]],
  "23":[[6,15],[8,4],[12,18],[14,7],[16,28],[18,11]],
  "24":[[6,16],[8,6],[12,19],[14,6],[16,27],[18,11]],
  "25":[[6,18],[8,8],[12,19],[14,5],[16,26],[18,10]],
  "26":[[6,19],[8,9],[12,19],[14,4],[16,25],[18,9]],
  "27":[[6,21],[8,11],[12,20],[14,4],[16,24],[18,8]],
  "28":[[6,22],[8,13],[12,20],[14,3],[16,23],[18,8]],
  "29":[[6,23],[8,14],[12,20],[14,2],[16,22],[18,7]],
  "30":[[6,25],[8,16],[12,21],[14,2],[16,21],[18,6]]
},
"12": {
  "1":[[6,26],[8,17],[12,21],[14,1],[16,21],[18,6]],
  "2":[[6,27],[8,19],[12,21],[14,1],[16,20],[18,5]],
  "3":[[6,28],[8,20],[12,22],[14,0],[16,19],[18,5]],
  "4":[[6,30],[8,22],[12,22],[14,0],[16,18],[18,4]],
  "5":[[6,31],[8,23],[12,23],[14,0],[16,18],[18,4]],
  "6":[[6,32],[8,25],[12,23],[13,59],[16,17],[18,4]],
  "7":[[6,33],[8,26],[12,23],[13,59],[16,17],[18,4]],
  "8":[[6,34],[8,27],[12,24],[13,59],[16,17],[18,3]],
  "9":[[6,35],[8,28],[12,24],[13,59],[16,16],[18,3]],
  "10":[[6,36],[8,30],[12,25],[13,59],[16,16],[18,3]],
  "11":[[6,37],[8,31],[12,25],[13,58],[16,16],[18,3]],
  "12":[[6,38],[8,32],[12,26],[13,58],[16,16],[18,3]],
  "13":[[6,39],[8,33],[12,26],[13,59],[16,15],[18,3]],
  "14":[[6,40],[8,34],[12,27],[13,59],[16,15],[18,3]],
  "15":[[6,41],[8,35],[12,27],[13,59],[16,15],[18,3]],
  "16":[[6,42],[8,36],[12,28],[13,59],[16,15],[18,3]],
  "17":[[6,42],[8,37],[12,28],[13,59],[16,16],[18,3]],
  "18":[[6,43],[8,37],[12,29],[13,59],[16,16],[18,4]],
  "19":[[6,44],[8,38],[12,29],[14,0],[16,16],[18,4]],
  "20":[[6,44],[8,39],[12,29],[14,0],[16,16],[18,4]],
  "21":[[6,45],[8,39],[12,30],[14,0],[16,17],[18,5]],
  "22":[[6,45],[8,40],[12,30],[14,1],[16,17],[18,5]],
  "23":[[6,46],[8,40],[12,31],[14,1],[16,18],[18,6]],
  "24":[[6,46],[8,41],[12,31],[14,2],[16,18],[18,6]],
  "25":[[6,47],[8,41],[12,32],[14,2],[16,19],[18,7]],
  "26":[[6,47],[8,41],[12,32],[14,3],[16,19],[18,7]],
  "27":[[6,47],[8,42],[12,33],[14,4],[16,20],[18,8]],
  "28":[[6,47],[8,42],[12,33],[14,4],[16,21],[18,9]],
  "29":[[6,48],[8,42],[12,34],[14,5],[16,22],[18,9]],
  "30":[[6,48],[8,42],[12,34],[14,6],[16,23],[18,10]],
  "31":[[6,48],[8,42],[12,35],[14,7],[16,23],[18,11]]
}
}
