{
"1": {
  "1":[[6,42],[8,35],[12,34],[14,11],[16,29],[18,15]],
  "2":[[6,42],[8,35],[12,34],[14,12],[16,30],[18,16]],
  "3":[[6,42],[8,35],[12,35],[14,13],[16,31],[18,17]],
  "4":[[6,42],[8,34],[12,35],[14,14],[16,32],[18,18]],
  "5":[[6,42],[8,34],[12,36],[14,15],[16,33],[18,19]],
  "6":[[6,42],[8,34],[12,36],[14,16],[16,34],[18,20]],
  "7":[[6,42],[8,33],[12,36],[14,17],[16,35],[18,21]],
  "8":[[6,41],[8,33],[12,37],[14,18],[16,37],[18,22]],
  "9":[[6,41],[8,32],[12,37],[14,19],[16,38],[18,23]],
  "10":[[6,41],[8,32],[12,38],[14,20],[16,39],[18,24]],
  "11":[[6,40],[8,31],[12,38],[14,21],[16,41],[18,25]],
  "12":[[6,40],[8,30],[12,38],[14,23],[16,42],[18,26]],
  "13":[[6,39],[8,30],[12,39],[14,24],[16,44],[18,28]],
  "14":[[6,39],[8,29],[12,39],[14,25],[16,45],[18,29]],
  "15":[[6,38],[8,28],[12,39],[14,26],[16,47],[18,30]],
  "16":[[6,38],[8,27],[12,40],[14,28],[16,48],[18,32]],
  "17":[[6,37],[8,26],[12,40],[14,29],[16,50],[18,33]],
  "18":[[6,36],[8,25],[12,40],[14,30],[16,51],[18,34]],
  "19":[[6,36],[8,24],[12,41],[14,32],[16,53],[18,36]],
  "20":[[6,35],[8,23],[12,41],[14,33],[16,55],[18,37]],
  "21":[[6,34],[8,22],[12,41],[14,34],[16,56],[18,38]],
  "22":[[6,33],[8,21],[12,42],[14,36],[16,58],[18,40]],
  "23":[[6,32],[8,20],[12,42],[14,37],[17,0],[18,41]],
  "24":[[6,31],[8,19],[12,42],[14,39],[17,2],[18,43]],
  "25":[[6,30],[8,17],[12,42],[14,40],[17,3],[18,44]],
  "26":[[6,29],[8,16],[12,43],[14,42],[17,5],[18,46]],
  "27":[[6,28],[8,15],[12,43],[14,43],[17,7],[18,47]],
  "28":[[6,27],[8,13],[12,43],[14,44],[17,9],[18,49]],
  "29":[[6,26],[8,12],[12,43],[14,46],[17,11],[18,50]],
  "30":[[6,25],[8,10],[12,43],[14,47],[17,12],[18,52]],
  "31":[[6,24],[8,9],[12,44],[14,49],[17,14],[18,53]]
},
"2": {
  "1":[[6,22],[8,7],[12,44],[14,50],[17,16],[18,55]],
  "2":[[6,21],[8,6],[12,44],[14,52],[17,18],[18,57]],
  "3":[[6,20],[8,4],[12,44],[14,53],[17,20],[18,58]],
  "4":[[6,18],[8,3],[12,44],[14,55],[17,22],[19,0]],
  "5":[[6,17],[8,1],[12,44],[14,56],[17,24],[19,1]],
  "6":[[6,16],[7,59],[12,44],[14,58],[17,25],[19,3]],
  "7":[[6,14],[7,57],[12,44],[14,59],[17,27],[19,5]],
  "8":[[6,13],[7,56],[12,44],[15,1],[17,29],[19,6]],
  "9":[[6,11],[7,54],[12,45],[15,2],[17,31],[19,8]],
  "10":[[6,10],[7,52],[12,45],[15,4],[17,33],[19,10]],
  "11":[[6,8],[7,50],[12,45],[15,5],[17,35],[19,11]],
  "12":[[6,6],[7,48],[12,45],[15,7],[17,37],[19,13]],
  "13":[[6,5],[7,47],[12,45],[15,8],[17,39],[19,15]],
  "14":[[6,3],[7,45],[12,45],[15,10],[17,41],[19,16]],
  "15":[[6,1],[7,43],[12,45],[15,11],[17,42],[19,18]],
  "16":[[6,0],[7,41],[12,45],[15,13],[17,44],[19,20]],
  "17":[[5,58],[7,39],[12,45],[15,14],[17,46],[19,21]],
  "18":[[5,56],[7,37],[12,44],[15,16],[17,48],[19,23]],
  "19":[[5,54],[7,35],[12,44],[15,17],[17,50],[19,25]],
  "20":[[5,53],[7,33],[12,44],[15,19],[17,52],[19,26]],
  "21":[[5,51],[7,31],[12,44],[15,20],[17,54],[19,28]],
  "22":[[5,49],[7,29],[12,44],[15,21],[17,56],[19,30]],
  "23":[[5,47],[7,27],[12,44],[15,23],[17,58],[19,31]],
  "24":[[5,45],[7,24],[12,44],[15,24],[17,59],[19,33]],
  "25":[[5,43],[7,22],[12,44],[15,25],[18,1],[19,35]],
  "26":[[5,41],[7,20],[12,44],[15,27],[18,3],[19,36]],
  "27":[[5,39],[7,18],[12,44],[15,28],[18,5],[19,38]],
  "28":[[5,37],[7,16],[12,43],[15,30],[18,7],[19,40]]
},
"3": {
  "1":[[5,35],[7,14],[12,43],[15,31],[18,9],[19,41]],
  "2":[[5,33],[7,12],[12,43],[15,32],[18,10],[19,43]],
  "3":[[5,31],[7,9],[12,43],[15,34],[18,12],[19,45]],
  "4":[[5,29],[7,7],[12,43],[15,35],[18,14],[19,47]],
  "5":[[5,27],[7,5],[12,42],[15,36],[18,16],[19,48]],
  "6":[[5,25],[7,3],[12,42],[15,37],[18,18],[19,50]],
  "7":[[5,22],[7,0],[12,42],[15,39],[18,20],[19,52]],
  "8":[[5,20],[6,58],[12,42],[15,40],[18,21],[19,53]],
  "9":[[5,18],[6,56],[12,41],[15,41],[18,23],[19,55]],
  "10":[[5,16],[6,54],[12,41],[15,42],[18,25],[19,57]],
  "11":[[5,14],[6,51],[12,41],[15,43],[18,27],[19,59]],
  "12":[[5,11],[6,49],[12,41],[15,45],[18,28],[20,0]],
  "13":[[5,9],[6,47],[12,40],[15,46],[18,30],[20,2]],
  "14":[[5,7],[6,44],[12,40],[15,47],[18,32],[20,4]],
  "15":[[5,4],[6,42],[12,40],[15,48],[18,34],[20,6]],
  "16":[[5,2],[6,40],[12,40],[15,49],[18,36],[20,7]],
  "17":[[5,0],[6,37],[12,39],[15,50],[18,37],[20,9]],
  "18":[[4,57],[6,35],[12,39],[15,51],[18,39],[20,11]],
  "19":[[4,55],[6,33],[12,39],[15,53],[18,41],[20,13]],
  "20":[[4,53],[6,30],[12,38],[15,54],[18,43],[20,14]],
  "21":[[4,50],[6,28],[12,38],[15,55],[18,44],[20,16]],
  "22":[[4,48],[6,26],[12,38],[15,56],[18,46],[20,18]],
  "23":[[4,45],[6,23],[12,38],[15,57],[18,48],[20,20]],
  "24":[[4,43],[6,21],[12,37],[15,58],[18,49],[20,21]],
  "25":[[4,44],[6,19],[12,37],[15,59],[18,51],[20,23]],
  "26":[[4,38],[6,16],[12,37],[16,0],[18,53],[20,25]],
  "27":[[4,36],[6,14],[12,36],[16,1],[18,55],[20,27]],
  "28":[[4,33],[6,12],[12,36],[16,2],[18,56],[20,29]],
  "29":[[4,31],[6,9],[12,36],[16,3],[18,58],[20,30]],
  "30":[[4,28],[6,7],[12,35],[16,4],[19,0],[20,32]],
  "31":[[4,26],[6,4],[12,35],[16,5],[19,2],[20,34]]
},
"4": {
  "1":[[4,23],[6,2],[12,35],[16,6],[19,3],[20,36]],
  "2":[[4,21],[6,0],[12,34],[16,7],[19,5],[20,38]],
  "3":[[4,18],[5,57],[12,34],[16,7],[19,7],[20,40]],
  "4":[[4,16],[5,55],[12,34],[16,8],[19,8],[20,42]],
  "5":[[4,13],[5,53],[12,33],[16,9],[19,10],[20,43]],
  "6":[[4,11],[5,50],[12,33],[16,10],[19,12],[20,45]],
  "7":[[4,8],[5,48],[12,33],[16,11],[19,14],[20,47]],
  "8":[[4,6],[5,46],[12,33],[16,12],[19,15],[20,49]],
  "9":[[4,3],[5,43],[12,32],[16,13],[19,17],[20,51]],
  "10":[[4,1],[5,41],[12,32],[16,14],[19,19],[20,53]],
  "11":[[3,58],[5,39],[12,32],[16,14],[19,20],[20,55]],
  "12":[[3,56],[5,37],[12,31],[16,15],[19,22],[20,57]],
  "13":[[3,53],[5,34],[12,31],[16,16],[19,24],[20,59]],
  "14":[[3,50],[5,32],[12,31],[16,17],[19,26],[21,1]],
  "15":[[3,48],[5,30],[12,31],[16,18],[19,27],[21,3]],
  "16":[[3,45],[5,28],[12,30],[16,19],[19,29],[21,5]],
  "17":[[3,43],[5,25],[12,30],[16,19],[19,31],[21,7]],
  "18":[[3,40],[5,23],[12,30],[16,20],[19,32],[21,9]],
  "19":[[3,38],[5,21],[12,30],[16,21],[19,34],[21,11]],
  "20":[[3,35],[5,19],[12,29],[16,22],[19,36],[21,13]],
  "21":[[3,33],[5,17],[12,29],[16,22],[19,38],[21,15]],
  "22":[[3,30],[5,15],[12,29],[16,23],[19,39],[21,17]],
  "23":[[3,28],[5,12],[12,29],[16,24],[19,41],[21,19]],
  "24":[[3,25],[5,10],[12,29],[16,25],[19,43],[21,21]],
  "25":[[3,23],[5,8],[12,28],[16,25],[19,44],[21,23]],
  "26":[[3,20],[5,6],[12,28],[16,26],[19,46],[21,25]],
  "27":[[3,18],[5,4],[12,28],[16,27],[19,48],[21,27]],
  "28":[[3,15],[5,2],[12,28],[16,28],[19,50],[21,29]],
  "29":[[3,13],[5,0],[12,28],[16,28],[19,51],[21,31]],
  "30":[[3,11],[4,58],[12,28],[16,29],[19,53],[21,33]]
},
"5": {
  "1":[[3,8],[4,56],[12,27],[16,30],[19,55],[21,35]],
  "2":[[3,6],[4,54],[12,27],[16,31],[19,56],[21,37]],
  "3":[[3,3],[4,52],[12,27],[16,31],[19,58],[21,39]],
  "4":[[3,1],[4,50],[12,27],[16,32],[20,0],[21,42]],
  "5":[[2,59],[4,48],[12,27],[16,33],[20,2],[21,44]],
  "6":[[2,56],[4,47],[12,27],[16,33],[20,3],[21,46]],
  "7":[[2,54],[4,45],[12,27],[16,34],[20,5],[21,48]],
  "8":[[2,52],[4,43],[12,27],[16,35],[20,7],[21,50]],
  "9":[[2,50],[4,41],[12,27],[16,35],[20,8],[21,52]],
  "10":[[2,47],[4,40],[12,27],[16,36],[20,10],[21,54]],
  "11":[[2,45],[4,38],[12,27],[16,37],[20,12],[21,56]],
  "12":[[2,43],[4,36],[12,27],[16,37],[20,13],[21,58]],
  "13":[[2,41],[4,35],[12,27],[16,38],[20,15],[22,0]],
  "14":[[2,39],[4,33],[12,27],[16,39],[20,16],[22,3]],
  "15":[[2,36],[4,31],[12,27],[16,39],[20,18],[22,5]],
  "16":[[2,34],[4,30],[12,27],[16,40],[20,20],[22,7]],
  "17":[[2,32],[4,28],[12,27],[16,41],[20,21],[22,9]],
  "18":[[2,30],[4,27],[12,27],[16,41],[20,23],[22,11]],
  "19":[[2,28],[4,25],[12,27],[16,42],[20,24],[22,11]],
  "20":[[2,26],[4,24],[12,27],[16,42],[20,26],[22,11]],
  "21":[[2,24],[4,23],[12,27],[16,43],[20,27],[22,11]],
  "22":[[2,22],[4,21],[12,27],[16,44],[20,29],[22,11]],
  "23":[[2,21],[4,20],[12,27],[16,44],[20,30],[22,11]],
  "24":[[2,19],[4,19],[12,27],[16,45],[20,32],[22,12]],
  "25":[[2,17],[4,18],[12,27],[16,45],[20,33],[22,12]],
  "26":[[2,15],[4,16],[12,27],[16,46],[20,34],[22,12]],
  "27":[[2,14],[4,15],[12,28],[16,46],[20,36],[22,12]],
  "28":[[2,12],[4,14],[12,28],[16,47],[20,37],[22,12]],
  "29":[[2,10],[4,13],[12,28],[16,48],[20,38],[22,12]],
  "30":[[2,9],[4,12],[12,28],[16,48],[20,40],[22,13]],
  "31":[[2,7],[4,11],[12,28],[16,49],[20,41],[22,13]]
},
"6": {
  "1":[[2,6],[4,10],[12,28],[16,49],[20,42],[22,13]],
  "2":[[2,5],[4,10],[12,28],[16,50],[20,43],[22,13]],
  "3":[[2,3],[4,9],[12,29],[16,50],[20,44],[22,14]],
  "4":[[2,2],[4,8],[12,29],[16,51],[20,46],[22,16]],
  "5":[[2,1],[4,7],[12,29],[16,51],[20,47],[22,17]],
  "6":[[2,0],[4,7],[12,29],[16,51],[20,48],[22,18]],
  "7":[[1,59],[4,6],[12,29],[16,52],[20,49],[22,19]],
  "8":[[1,58],[4,6],[12,29],[16,52],[20,49],[22,19]],
  "9":[[1,57],[4,5],[12,30],[16,53],[20,50],[22,20]],
  "10":[[1,56],[4,5],[12,30],[16,53],[20,51],[22,21]],
  "11":[[1,55],[4,4],[12,30],[16,54],[20,52],[22,22]],
  "12":[[1,55],[4,4],[12,30],[16,54],[20,53],[22,23]],
  "13":[[1,54],[4,4],[12,30],[16,54],[20,53],[22,23]],
  "14":[[1,54],[4,3],[12,31],[16,55],[20,54],[22,24]],
  "15":[[1,53],[4,3],[12,31],[16,55],[20,55],[22,25]],
  "16":[[1,53],[4,3],[12,31],[16,55],[20,55],[22,25]],
  "17":[[1,52],[4,3],[12,31],[16,56],[20,56],[22,26]],
  "18":[[1,52],[4,3],[12,31],[16,56],[20,56],[22,26]],
  "19":[[1,52],[4,3],[12,32],[16,56],[20,57],[22,27]],
  "20":[[1,52],[4,3],[12,32],[16,56],[20,57],[22,27]],
  "21":[[1,52],[4,3],[12,32],[16,57],[20,57],[22,27]],
  "22":[[1,52],[4,3],[12,32],[16,57],[20,57],[22,27]],
  "23":[[1,53],[4,3],[12,33],[16,57],[20,58],[22,28]],
  "24":[[1,53],[4,4],[12,33],[16,57],[20,58],[22,28]],
  "25":[[1,53],[4,4],[12,33],[16,57],[20,58],[22,28]],
  "26":[[1,54],[4,4],[12,33],[16,57],[20,58],[22,28]],
  "27":[[1,54],[4,5],[12,33],[16,58],[20,58],[22,28]],
  "28":[[1,55],[4,5],[12,33],[16,58],[20,58],[22,28]],
  "29":[[1,56],[4,6],[12,34],[16,58],[20,57],[22,28]],
  "30":[[1,57],[4,7],[12,34],[16,58],[20,57],[22,27]]
},
"7": {
  "1":[[1,58],[4,7],[12,34],[16,58],[20,57],[22,27]],
  "2":[[1,59],[4,8],[12,34],[16,58],[20,57],[22,27]],
  "3":[[2,0],[4,9],[12,34],[16,58],[20,56],[22,27]],
  "4":[[2,1],[4,9],[12,35],[16,58],[20,56],[22,27]],
  "5":[[2,2],[4,10],[12,35],[16,58],[20,55],[22,27]],
  "6":[[2,3],[4,11],[12,35],[16,58],[20,55],[22,26]],
  "7":[[2,5],[4,12],[12,35],[16,58],[20,54],[22,26]],
  "8":[[2,6],[4,13],[12,35],[16,57],[20,54],[22,26]],
  "9":[[2,7],[4,14],[12,35],[16,57],[20,53],[22,26]],
  "10":[[2,9],[4,15],[12,35],[16,57],[20,52],[22,26]],
  "11":[[2,10],[4,16],[12,36],[16,57],[20,51],[22,26]],
  "12":[[2,12],[4,17],[12,36],[16,57],[20,51],[22,26]],
  "13":[[2,14],[4,18],[12,36],[16,57],[20,50],[22,25]],
  "14":[[2,15],[4,19],[12,36],[16,56],[20,49],[22,25]],
  "15":[[2,17],[4,20],[12,36],[16,56],[20,48],[22,25]],
  "16":[[2,19],[4,21],[12,36],[16,56],[20,47],[22,25]],
  "17":[[2,21],[4,23],[12,36],[16,56],[20,46],[22,25]],
  "18":[[2,22],[4,24],[12,36],[16,55],[20,45],[22,25]],
  "19":[[2,24],[4,25],[12,36],[16,55],[20,43],[22,25]],
  "20":[[2,26],[4,27],[12,36],[16,54],[20,42],[22,24]],
  "21":[[2,28],[4,28],[12,36],[16,54],[20,41],[22,24]],
  "22":[[2,30],[4,29],[12,37],[16,54],[20,40],[22,24]],
  "23":[[2,32],[4,31],[12,37],[16,53],[20,38],[22,24]],
  "24":[[2,34],[4,32],[12,37],[16,53],[20,37],[22,24]],
  "25":[[2,36],[4,34],[12,37],[16,52],[20,36],[22,24]],
  "26":[[2,38],[4,35],[12,37],[16,52],[20,34],[22,23]],
  "27":[[2,40],[4,37],[12,37],[16,51],[20,33],[22,21]],
  "28":[[2,42],[4,38],[12,37],[16,51],[20,31],[22,19]],
  "29":[[2,44],[4,40],[12,37],[16,50],[20,30],[22,17]],
  "30":[[2,46],[4,41],[12,37],[16,49],[20,28],[22,15]],
  "31":[[2,48],[4,43],[12,37],[16,49],[20,27],[22,13]]
},
"8": {
  "1":[[2,50],[4,44],[12,37],[16,48],[20,25],[22,11]],
  "2":[[2,52],[4,46],[12,36],[16,47],[20,23],[22,8]],
  "3":[[2,54],[4,47],[12,36],[16,47],[20,22],[22,6]],
  "4":[[2,57],[4,49],[12,36],[16,46],[20,20],[22,4]],
  "5":[[2,59],[4,51],[12,36],[16,45],[20,18],[22,2]],
  "6":[[3,1],[4,52],[12,36],[16,44],[20,16],[22,0]],
  "7":[[3,3],[4,54],[12,36],[16,43],[20,14],[21,58]],
  "8":[[3,5],[4,55],[12,36],[16,43],[20,13],[21,55]],
  "9":[[3,7],[4,57],[12,36],[16,42],[20,11],[21,53]],
  "10":[[3,9],[4,59],[12,36],[16,41],[20,9],[21,51]],
  "11":[[3,11],[5,0],[12,36],[16,40],[20,7],[21,48]],
  "12":[[3,14],[5,2],[12,36],[16,39],[20,5],[21,46]],
  "13":[[3,16],[5,4],[12,35],[16,38],[20,3],[21,44]],
  "14":[[3,18],[5,5],[12,35],[16,37],[20,1],[21,41]],
  "15":[[3,20],[5,7],[12,35],[16,36],[19,59],[21,39]],
  "16":[[3,22],[5,9],[12,35],[16,35],[19,57],[21,37]],
  "17":[[3,24],[5,10],[12,35],[16,34],[19,55],[21,34]],
  "18":[[3,26],[5,12],[12,35],[16,33],[19,53],[21,32]],
  "19":[[3,28],[5,14],[12,34],[16,32],[19,51],[21,29]],
  "20":[[3,30],[5,15],[12,34],[16,31],[19,49],[21,27]],
  "21":[[3,32],[5,17],[12,34],[16,29],[19,47],[21,25]],
  "22":[[3,34],[5,19],[12,34],[16,28],[19,45],[21,22]],
  "23":[[3,36],[5,20],[12,33],[16,27],[19,43],[21,20]],
  "24":[[3,38],[5,22],[12,33],[16,26],[19,40],[21,17]],
  "25":[[3,40],[5,24],[12,33],[16,25],[19,38],[21,15]],
  "26":[[3,42],[5,25],[12,33],[16,23],[19,36],[21,12]],
  "27":[[3,44],[5,27],[12,32],[16,22],[19,34],[21,10]],
  "28":[[3,46],[5,29],[12,32],[16,21],[19,32],[21,7]],
  "29":[[3,48],[5,30],[12,32],[16,20],[19,29],[21,5]],
  "30":[[3,50],[5,32],[12,32],[16,18],[19,27],[21,2]],
  "31":[[3,52],[5,34],[12,31],[16,17],[19,25],[21,0]]
},
"9": {
  "1":[[3,54],[5,35],[12,31],[16,15],[19,23],[20,57]],
  "2":[[3,56],[5,37],[12,31],[16,14],[19,20],[20,55]],
  "3":[[3,58],[5,39],[12,30],[16,13],[19,18],[20,52]],
  "4":[[4,0],[5,40],[12,30],[16,11],[19,16],[20,50]],
  "5":[[4,2],[5,42],[12,30],[16,10],[19,14],[20,47]],
  "6":[[4,4],[5,44],[12,29],[16,8],[19,11],[20,45]],
  "7":[[4,5],[5,45],[12,29],[16,7],[19,9],[20,42]],
  "8":[[4,7],[5,47],[12,29],[16,5],[19,7],[20,40]],
  "9":[[4,9],[5,49],[12,28],[16,4],[19,4],[20,37]],
  "10":[[4,11],[5,50],[12,28],[16,2],[19,2],[20,35]],
  "11":[[4,13],[5,52],[12,28],[16,1],[19,0],[20,32]],
  "12":[[4,15],[5,54],[12,27],[15,59],[18,57],[20,30]],
  "13":[[4,16],[5,55],[12,27],[15,58],[18,55],[20,28]],
  "14":[[4,18],[5,57],[12,27],[15,56],[18,53],[20,25]],
  "15":[[4,20],[5,58],[12,26],[15,54],[18,50],[20,23]],
  "16":[[4,22],[6,0],[12,26],[15,53],[18,48],[20,20]],
  "17":[[4,23],[6,2],[12,26],[15,51],[18,45],[20,18]],
  "18":[[4,25],[6,3],[12,25],[15,49],[18,43],[20,15]],
  "19":[[4,27],[6,5],[12,25],[15,48],[18,41],[20,13]],
  "20":[[4,29],[6,7],[12,24],[15,46],[18,38],[20,10]],
  "21":[[4,30],[6,8],[12,24],[15,44],[18,36],[20,8]],
  "22":[[4,32],[6,10],[12,24],[15,43],[18,33],[20,5]],
  "23":[[4,34],[6,12],[12,23],[15,41],[18,31],[20,3]],
  "24":[[4,35],[6,13],[12,23],[15,39],[18,29],[20,1]],
  "25":[[4,37],[6,15],[12,23],[15,38],[18,26],[19,58]],
  "26":[[4,39],[6,17],[12,22],[15,36],[18,24],[19,56]],
  "27":[[4,41],[6,18],[12,22],[15,34],[18,22],[19,53]],
  "28":[[4,42],[6,20],[12,22],[15,32],[18,19],[19,51]],
  "29":[[4,44],[6,21],[12,21],[15,31],[18,17],[19,49]],
  "30":[[4,45],[6,23],[12,21],[15,29],[18,14],[19,46]]
},
"10": {
  "1":[[4,47],[6,25],[12,20],[15,27],[18,12],[19,44]],
  "2":[[4,49],[6,26],[12,20],[15,25],[18,10],[19,42]],
  "3":[[4,50],[6,28],[12,20],[15,24],[18,7],[19,39]],
  "4":[[4,52],[6,30],[12,19],[15,22],[18,5],[19,37]],
  "5":[[4,54],[6,31],[12,19],[15,20],[18,3],[19,35]],
  "6":[[4,55],[6,33],[12,19],[15,18],[18,0],[19,32]],
  "7":[[4,57],[6,35],[12,18],[15,17],[17,58],[19,30]],
  "8":[[4,58],[6,37],[12,18],[15,15],[17,56],[19,28]],
  "9":[[5,0],[6,38],[12,18],[15,13],[17,53],[19,26]],
  "10":[[5,2],[6,40],[12,18],[15,11],[17,51],[19,23]],
  "11":[[5,3],[6,42],[12,17],[15,9],[17,49],[19,21]],
  "12":[[5,5],[6,43],[12,17],[15,8],[17,47],[19,19]],
  "13":[[5,7],[6,45],[12,17],[15,6],[17,44],[19,17]],
  "14":[[5,8],[6,47],[12,16],[15,4],[17,42],[19,15]],
  "15":[[5,10],[6,49],[12,16],[15,3],[17,40],[19,13]],
  "16":[[5,11],[6,50],[12,16],[15,1],[17,38],[19,11]],
  "17":[[5,13],[6,52],[12,16],[14,59],[17,35],[19,9]],
  "18":[[5,14],[6,54],[12,15],[14,57],[17,33],[19,7]],
  "19":[[5,16],[6,55],[12,15],[14,56],[17,31],[19,5]],
  "20":[[5,18],[6,57],[12,15],[14,54],[17,29],[19,3]],
  "21":[[5,19],[6,59],[12,15],[14,52],[17,27],[19,1]],
  "22":[[5,21],[7,1],[12,15],[14,51],[17,25],[18,59]],
  "23":[[5,22],[7,3],[12,15],[14,49],[17,22],[18,57]],
  "24":[[5,24],[7,4],[12,14],[14,47],[17,20],[18,55]],
  "25":[[5,26],[7,6],[12,14],[14,46],[17,18],[18,53]],
  "26":[[5,27],[7,8],[12,14],[14,44],[17,16],[18,51]],
  "27":[[5,29],[7,10],[12,14],[14,43],[17,14],[18,49]],
  "28":[[5,30],[7,12],[12,14],[14,41],[17,12],[18,48]],
  "29":[[5,32],[7,13],[12,14],[14,39],[17,10],[18,46]],
  "30":[[5,33],[7,15],[12,14],[14,38],[17,8],[18,44]],
  "31":[[5,35],[7,17],[12,14],[14,36],[17,6],[18,43]]
},
"11": {
  "1":[[5,37],[7,19],[12,14],[14,35],[17,5],[18,41]],
  "2":[[5,38],[7,21],[12,14],[14,33],[17,3],[18,39]],
  "3":[[5,40],[7,22],[12,14],[14,32],[17,1],[18,38]],
  "4":[[5,41],[7,24],[12,14],[14,31],[16,59],[18,36]],
  "5":[[5,43],[7,26],[12,14],[14,29],[16,57],[18,35]],
  "6":[[5,44],[7,28],[12,14],[14,28],[16,56],[18,33]],
  "7":[[5,46],[7,30],[12,14],[14,27],[16,54],[18,32]],
  "8":[[5,48],[7,32],[12,14],[14,25],[16,52],[18,30]],
  "9":[[5,49],[7,33],[12,14],[14,24],[16,50],[18,29]],
  "10":[[5,51],[7,35],[12,14],[14,23],[16,49],[18,27]],
  "11":[[5,52],[7,37],[12,14],[14,21],[16,47],[18,26]],
  "12":[[5,54],[7,39],[12,14],[14,20],[16,46],[18,25]],
  "13":[[5,55],[7,41],[12,14],[14,19],[16,44],[18,24]],
  "14":[[5,57],[7,43],[12,15],[14,18],[16,43],[18,22]],
  "15":[[5,58],[7,44],[12,15],[14,17],[16,41],[18,21]],
  "16":[[6,0],[7,46],[12,15],[14,16],[16,40],[18,20]],
  "17":[[6,1],[7,48],[12,15],[14,15],[16,38],[18,19]],
  "18":[[6,3],[7,50],[12,15],[14,14],[16,37],[18,18]],
  "19":[[6,4],[7,51],[12,16],[14,13],[16,36],[18,17]],
  "20":[[6,6],[7,53],[12,16],[14,12],[16,35],[18,16]],
  "21":[[6,7],[7,55],[12,16],[14,11],[16,33],[18,15]],
  "22":[[6,9],[7,57],[12,16],[14,10],[16,32],[18,14]],
  "23":[[6,10],[7,58],[12,17],[14,9],[16,31],[18,13]],
  "24":[[6,11],[8,0],[12,17],[14,9],[16,30],[18,13]],
  "25":[[6,13],[8,2],[12,17],[14,8],[16,29],[18,12]],
  "26":[[6,14],[8,3],[12,18],[14,7],[16,28],[18,11]],
  "27":[[6,15],[8,5],[12,18],[14,6],[16,27],[18,10]],
  "28":[[6,17],[8,6],[12,18],[14,6],[16,26],[18,10]],
  "29":[[6,18],[8,8],[12,19],[14,5],[16,25],[18,9]],
  "30":[[6,19],[8,10],[12,19],[14,5],[16,25],[18,9]]
},
"12": {
  "1":[[6,21],[8,11],[12,19],[14,4],[16,24],[18,8]],
  "2":[[6,22],[8,12],[12,20],[14,4],[16,23],[18,8]],
  "3":[[6,23],[8,14],[12,20],[14,3],[16,23],[18,7]],
  "4":[[6,24],[8,15],[12,21],[14,3],[16,22],[18,7]],
  "5":[[6,25],[8,17],[12,21],[14,3],[16,21],[18,7]],
  "6":[[6,26],[8,18],[12,21],[14,3],[16,21],[18,6]],
  "7":[[6,28],[8,19],[12,22],[14,2],[16,21],[18,6]],
  "8":[[6,29],[8,20],[12,22],[14,2],[16,20],[18,6]],
  "9":[[6,30],[8,22],[12,23],[14,2],[16,20],[18,6]],
  "10":[[6,31],[8,23],[12,23],[14,2],[16,20],[18,6]],
  "11":[[6,32],[8,24],[12,24],[14,2],[16,19],[18,6]],
  "12":[[6,33],[8,25],[12,24],[14,2],[16,19],[18,6]],
  "13":[[6,33],[8,26],[12,25],[14,2],[16,19],[18,6]],
  "14":[[6,34],[8,27],[12,25],[14,2],[16,19],[18,6]],
  "15":[[6,35],[8,28],[12,26],[14,2],[16,19],[18,6]],
  "16":[[6,36],[8,29],[12,26],[14,2],[16,19],[18,6]],
  "17":[[6,37],[8,30],[12,27],[14,2],[16,20],[18,6]],
  "18":[[6,37],[8,30],[12,27],[14,3],[16,20],[18,6]],
  "19":[[6,38],[8,31],[12,27],[14,3],[16,20],[18,7]],
  "20":[[6,38],[8,32],[12,28],[14,3],[16,20],[18,7]],
  "21":[[6,39],[8,32],[12,28],[14,4],[16,21],[18,8]],
  "22":[[6,40],[8,33],[12,29],[14,4],[16,21],[18,8]],
  "23":[[6,40],[8,33],[12,29],[14,5],[16,22],[18,8]],
  "24":[[6,40],[8,34],[12,30],[14,5],[16,22],[18,9]],
  "25":[[6,41],[8,34],[12,30],[14,6],[16,23],[18,10]],
  "26":[[6,41],[8,34],[12,31],[14,6],[16,23],[18,10]],
  "27":[[6,42],[8,35],[12,31],[14,7],[16,24],[18,11]],
  "28":[[6,42],[8,35],[12,32],[14,8],[16,25],[18,12]],
  "29":[[6,42],[8,35],[12,32],[14,9],[16,26],[18,12]],
  "30":[[6,42],[8,35],[12,33],[14,9],[16,26],[18,13]],
  "31":[[6,42],[8,35],[12,33],[14,10],[16,27],[18,14]]
}
}
